{
  "urn" : "local:stefano.balbi:alice.sandbox:bn.po4.load.low.simple2",
  "version" : "0.0.1",
  "adapterType" : "weka",
  "localPath" : "im.alice.spain/resources/bn.po4.load.low.simple2",
  "geometry" : "T1(1){ttype=INITIALIZATION}S2(716,360){bbox=[-4.3093307463679515 -2.989420212098763 43.03369218840069 43.51867827380832],proj=EPSG:4326,shape=00000000030000000100000005C0113CC132FD30C440458450068FA7E4C007EA5524E7B97D40458450068FA7E4C007EA5524E7B97D4045C2640CB79384C0113CC132FD30C44045C2640CB79384C0113CC132FD30C440458450068FA7E4}",
  "projectName" : "im.alice.spain",
  "localName" : "bn.po4.load.low.simple2",
  "type" : "NUMBER",
  "resourceTimestamp" : 1601903459345,
  "metadata" : { },
  "parameters" : {
    "predicted.range" : "[0.0,7500.0]",
    "predictor.outgoing_stream_count.discretizer.options" : "-R 4  -B 3 -Y",
    "predictor.urban_proportion_area_of_watershed.range" : "[0.0,0.15]",
    "submitNodata" : "true",
    "classifier.file" : "classifier7825573989560564233.bin",
    "predictor.outgoing_stream_count.range" : "[0.0,3.0]",
    "predictor.riparian_broadleaf_forest_proportion_area_of_watershed.discretizer.cutpoints" : "[0.3333333333333333, 0.6666666666666666]",
    "predictor.outgoing_stream_count.discretizer.cutpoints" : "[1.0, 2.0]",
    "predictor.urban_proportion_area_of_watershed.discretizer" : "weka.filters.unsupervised.attribute.Discretize",
    "instances.file.raw" : "rawinstances2866630492460935299.arff",
    "predictor.urban_proportion_area_of_watershed.discretizer.file" : "d_urban_proportion_area_of_watershed1380820787083486027.bin",
    "predicted.index" : "1",
    "predictor.area_of_watershed.discretizer" : "weka.filters.unsupervised.attribute.Discretize",
    "predictor.urban_proportion_area_of_watershed.index" : "3",
    "predictor.riparian_broadleaf_forest_proportion_area_of_watershed.discretizer" : "weka.filters.unsupervised.attribute.Discretize",
    "classifier" : "weka.classifiers.bayes.BayesNet",
    "predictor.area_of_watershed.range" : "[0.0,750.0]",
    "predictor.riparian_broadleaf_forest_proportion_area_of_watershed.discretizer.options" : "-R 5  -B 3 -Y",
    "predicted.discretizer.options" : "-R 1  -B 3 -Y",
    "model" : "ml.waterquality.ratio-of-phosphate-mass-to-area-of-watershed-within-reach-learner",
    "predictor.outgoing_stream_count.index" : "4",
    "classifier.options" : " -Q weka.classifiers.bayes.net.search.local.K2 -- -P 1 -E weka.classifiers.bayes.net.estimate.SimpleEstimator -- -A 1.0",
    "predicted.discretizer" : "weka.filters.unsupervised.attribute.Discretize",
    "predicted.name" : "phosphate_mass_to_area_of_watershed_ratio_of_reach",
    "predictor.urban_proportion_area_of_watershed.discretizer.options" : "-R 3  -B 3 -Y",
    "predictor.area_of_watershed.discretizer.cutpoints" : "[250.0, 500.0]",
    "instances.file" : "instances6543702926327453521.arff",
    "predictor.riparian_broadleaf_forest_proportion_area_of_watershed.index" : "5",
    "predicted.discretizer.file" : "d_phosphate_mass_to_area_of_watershed_ratio_of_reach6894272273296046448.bin",
    "predictor.area_of_watershed.discretizer.file" : "d_area_of_watershed6197455357909665145.bin",
    "predictor.outgoing_stream_count.discretizer.file" : "d_outgoing_stream_count8179929747321407197.bin",
    "classifier.probabilistic" : "true",
    "predictor.riparian_broadleaf_forest_proportion_area_of_watershed.range" : "[0.0,1.0]",
    "predictor.riparian_broadleaf_forest_proportion_area_of_watershed.discretizer.file" : "d_riparian_broadleaf_forest_proportion_area_of_watershed8265202862370199754.bin",
    "predictor.outgoing_stream_count.discretizer" : "weka.filters.unsupervised.attribute.Discretize",
    "wekaVersion" : "3.8.3",
    "predictor.area_of_watershed.index" : "2",
    "predictor.area_of_watershed.discretizer.options" : "-R 2  -B 3 -Y",
    "predictor.urban_proportion_area_of_watershed.discretizer.cutpoints" : "[0.049999999999999996, 0.09999999999999999]",
    "predicted.discretizer.cutpoints" : "[2500.0, 5000.0]"
  },
  "localPaths" : [ "im.alice.spain\\resources/bn.po4.load.low.simple2/d_phosphate_mass_to_area_of_watershed_ratio_of_reach6894272273296046448.bin", "im.alice.spain\\resources/bn.po4.load.low.simple2/d_area_of_watershed6197455357909665145.bin", "im.alice.spain\\resources/bn.po4.load.low.simple2/d_urban_proportion_area_of_watershed1380820787083486027.bin", "im.alice.spain\\resources/bn.po4.load.low.simple2/d_outgoing_stream_count8179929747321407197.bin", "im.alice.spain\\resources/bn.po4.load.low.simple2/d_riparian_broadleaf_forest_proportion_area_of_watershed8265202862370199754.bin", "im.alice.spain\\resources/bn.po4.load.low.simple2/instances6543702926327453521.arff", "im.alice.spain\\resources/bn.po4.load.low.simple2/rawinstances2866630492460935299.arff", "im.alice.spain\\resources/bn.po4.load.low.simple2/classifier7825573989560564233.bin" ],
  "history" : [ ],
  "notifications" : [ ],
  "attributes" : [ ],
  "spatialExtent" : null,
  "dependencies" : [ {
    "name" : "area_of_watershed",
    "type" : "NUMBER",
    "key" : true,
    "optional" : true,
    "exampleValue" : null
  }, {
    "name" : "urban_proportion_area_of_watershed",
    "type" : "NUMBER",
    "key" : true,
    "optional" : true,
    "exampleValue" : null
  }, {
    "name" : "outgoing_stream_count",
    "type" : "NUMBER",
    "key" : true,
    "optional" : true,
    "exampleValue" : null
  }, {
    "name" : "riparian_broadleaf_forest_proportion_area_of_watershed",
    "type" : "NUMBER",
    "key" : true,
    "optional" : true,
    "exampleValue" : null
  } ],
  "outputs" : null,
  "exportFormats" : {
    "bif" : "BIF bayesian network (.bif)",
    "xdsl" : "GENIE bayesian network (.xdsl)",
    "arff" : "Training dataset (ARFF)",
    "arff#raw" : "Raw training dataset (ARFF)",
    "model" : "WEKA Classifier (.model)",
    "model#predicted" : "WEKA discretizer for the predicted variable (.model)",
    "model#area_of_watershed" : "WEKA Discretizer for Area of watershed (.model)",
    "model#urban_proportion_area_of_watershed" : "WEKA Discretizer for Urban proportion area of watershed (.model)",
    "model#outgoing_stream_count" : "WEKA Discretizer for Outgoing stream count (.model)",
    "model#riparian_broadleaf_forest_proportion_area_of_watershed" : "WEKA Discretizer for Riparian broadleaf forest proportion area of watershed (.model)"
  }
}