{
  "urn" : "local:amarquez:im.alice.spain:cantabria_mean_may_precipitation_2010_2012",
  "version" : "0.0.1",
  "adapterType" : "wcs",
  "localPath" : "im.alice.spain/resources/cantabria_mean_may_precipitation_2010_2012.v0.0.1",
  "geometry" : "S2(75,46){bbox=[-4.035 -3.2750000000000004 43.035 43.505],proj=EPSG:4326}",
  "projectName" : "im.alice.spain",
  "localName" : "cantabria_mean_may_precipitation_2010_2012",
  "type" : "NUMBER",
  "resourceTimestamp" : 1598368456385,
  "metadata" : {
    "im:keywords" : "precipitation, may, ALICE project, Cantabria",
    "dc:comment" : "Mean of precipitation in May 2010, 2011, 2012  in Cantabrian Case Study",
    "im:notes" : "",
    "dc:title" : "Mean precipitation during may (2010, 2011, 2012)",
    "dc:url" : "IHC",
    "dc:creator" : "",
    "im:thematic-area" : "",
    "dc:originator" : "",
    "im:geographic-area" : "",
    "dc:source" : ""
  },
  "parameters" : {
    "wcsIdentifier" : "im-alice-spain__cantabria_mean_may_precipitation_2010_2012",
    "serviceUrl" : "https://integratedmodelling.org/dev-geoserver/ows/",
    "band" : "0",
    "nodata" : "-3.4E38",
    "wcsVersion" : "2.0.1"
  },
  "localPaths" : [ ],
  "history" : [ ],
  "notifications" : [ ],
  "attributes" : [ ],
  "spatialExtent" : {
    "east" : -3.2750000000000004,
    "west" : -4.035,
    "north" : 43.505,
    "south" : 43.035,
    "gridResolution" : null,
    "gridUnit" : null
  },
  "dependencies" : null,
  "outputs" : null,
  "exportFormats" : { }
}