biology.nomenclature:UlexGallii
biology.nomenclature:UlexEuropaeus
biology.nomenclature:FestucaRubra
biology.nomenclature:Calluna
biology.nomenclature:Helictotrichon
biology.nomenclature:Senecio
biology.nomenclature:Carex
biology.nomenclature:Phragmites
biology.nomenclature:Polypodiopsida
landcover:BareRock
landcover:BareArea
policy:Managed landcover:Pastureland
