{
  "urn" : "local:amarquez:im.alice.spain:SP_future_LC_BGIN_2050_50m_wgs84",
  "version" : "0.0.1",
  "adapterType" : "raster",
  "localPath" : "im.alice.spain/resources/SP_future_LC_BGIN_2050_50m_wgs84.v0.0.1",
  "geometry" : "S2(1551,1035){bbox=[-4.0623688379213005 -3.239050457274059 43.009390529426646 43.55880028053554],proj=EPSG:4326}",
  "projectName" : "im.alice.spain",
  "localName" : "SP_future_LC_BGIN_2050_50m_wgs84.tif",
  "type" : "NUMBER",
  "resourceTimestamp" : 1611222052506,
  "metadata" : { },
  "parameters" : {
    "nodata" : "2.147483647E9"
  },
  "localPaths" : [ "im.alice.spain/resources/SP_future_LC_BGIN_2050_50m_wgs84.v0.0.1/SP_future_LC_BGIN_2050_50m_wgs84.tif", "im.alice.spain/resources/SP_future_LC_BGIN_2050_50m_wgs84.v0.0.1/SP_future_LC_BGIN_2050_50m_wgs84.tif.ovr", "im.alice.spain/resources/SP_future_LC_BGIN_2050_50m_wgs84.v0.0.1/SP_future_LC_BGIN_2050_50m_wgs84.tif.aux.xml", "im.alice.spain/resources/SP_future_LC_BGIN_2050_50m_wgs84.v0.0.1/SP_future_LC_BGIN_2050_50m_wgs84.tfw" ],
  "history" : [ ],
  "notifications" : [ ],
  "attributes" : [ ],
  "spatialExtent" : {
    "east" : -3.239050457274059,
    "west" : -4.0623688379213005,
    "north" : 43.55880028053554,
    "south" : 43.009390529426646,
    "gridResolution" : null,
    "gridUnit" : null
  },
  "dependencies" : null,
  "outputs" : null,
  "exportFormats" : {
    "tiff" : "GeoTiff"
  }
}