@relation nitrate_mass_to_area_of_watershed_ratio_of_reach_instances

@attribute nitrate_mass_to_area_of_watershed_ratio_of_reach numeric
@attribute area_of_watershed numeric
@attribute broadleaf_forest_proportion_area_of_watershed numeric
@attribute riparian_broadleaf_forest_proportion_area_of_watershed numeric

@data
35439.83,9.6166,0,0
35267.34,9.6046,0,0
34649.06,9.528,0,0
34239.63,9.4565,0,0
34897.26,8.8947,0,0
34325.09,8.5826,0,0
34460.15,8.5213,0,0
34612.87,8.2126,0,0
34303.97,7.7126,0,0
32505.78,16.7315,0.05607,0
32382.39,16.6883,0.05622,0
29323.41,15.9613,0.0588,0
29061.89,15.9188,0.05895,0
29016.53,15.7176,0.05968,0
28129.93,15.6156,0.06009,0
33343.75,15.4748,0.06062,0
28564.54,14.2805,0.06571,0
26302.12,14.2019,0.06603,0
28121.03,14.003,0.067,0
27992.11,13.7591,0.06813,0
27909.23,12.8565,0.0636,0
28161.71,12.7342,0.06421,0
33328.64,17.1304,0.00677,0.07143
33105.72,17.1012,0.00668,0.36965
35101.02,16.9816,0.00535,0.306595
38212.61,16.7924,0.00471,0.408145
36983.87,5.4491,0.00132,0.3124
32477.13,5.4212,0,0
31820.05,5.3987,0,0
31463.61,5.0798,0,0
31059.34,4.9799,0,0
30198.2,4.9232,0,0
29879.35,4.916,0,0
40529.31,4.9088,0,0
31054.38,4.871,0,0
30746.06,4.862,0,0
30618.51,4.8503,0,0
30623.3,4.8305,0,0
30775.58,4.8173,0,0
30756.25,4.7218,0,0
30950.65,4.342,0,0
27358.56,3.9696,0,0
26924.74,3.8908,0,0
26696.75,3.8638,0,0
27586.94,3.7916,0,0
26800.5,3.6923,0,0
25478.08,3.6396,0,0
20194.97,2.5233,0,0
18252.02,2.4569,0,0
16855.13,2.3616,0,0
14917.3,2.2733,0,0
14722.41,2.1878,0,0
15266.9,2.0547,0,0
13990.76,9.6766,0.04678,0
13693.28,9.6448,0.04693,0
13740.18,9.6131,0.04711,0
12971.44,9.4322,0.0443,0.01515
12970.1,9.3102,0.04478,0.38711
14525.81,9.1301,0.04268,0.52121
14621.92,9.0272,0.03891,0.46991
13927.29,8.402,0.03828,0.01818
14021.42,8.195,0.03929,0
13827.9,8.052,0.03971,0
13616.53,5.4196,0.03197,0
13334.67,5.258,0.0332,0
12871.98,4.3703,0.03457,0
12753.24,4.3279,0.03497,0.21212
12903.3,4.2854,0.03385,0.37879
12896.62,4.0268,0.02927,0.18919
12780.8,3.9633,0.02818,0.10811
12781.09,3.6831,0.02639,0.20635
13025.61,3.6029,0.0237,0
13064.76,3.5187,0.02423,0
12181.19,3.422,0.02497,0
26508.68,34.5003,0.18667,0.015765
35689.63,13.7603,0.05822,0
37186.46,13.6937,0.0585,0
16376.28,20.6829,0.27334,0
13666.87,20.2191,0.27914,0
14772.69,20.2056,0.27933,0
14422.87,20.0654,0.28122,0
14182.74,19.9814,0.2824,0
12767.46,19.8052,0.28492,0
12684.23,18.7706,0.29971,0.274725
13475.26,17.5198,0.3194,0.22971
12925.69,17.1028,0.32627,0.175
11580.16,16.6972,0.33312,0.23498
10970.11,16.48,0.33648,0.05775
9136.65,4.8184,0.40138,0.084945
7937.69,4.7395,0.40638,0
7831.11,4.7278,0.40738,0
7350.68,4.6451,0.41596,0
7019.74,4.5267,0.42659,0
6237.02,4.3858,0.42753,0.268295
5871.4,4.2595,0.44005,0.36364
5599.75,4.1737,0.43251,0.479165
6396.12,4.0734,0.42128,0.75
6221.89,3.8558,0.43352,0.859375
5989.67,3.7264,0.42656,0.79487
6228.63,3.5496,0.42487,0.919355
8744.91,3.2083,0.40913,0.789475
9636.27,3.0111,0.39869,0.84
9282.18,11.6032,0.31093,0.07143
11561.89,3.398,0.09304,0
11054.28,3.3796,0.09346,0.01923
11020.23,3.3374,0.09434,0.31579
11456.76,3.1881,0.09281,0.62857
10921.47,2.803,0.09788,0.5438
10500.33,2.7635,0.09212,0.47773
10273.16,2.6946,0.08261,0.4
11472.8,2.6363,0.077,0.503595
12303.39,1.8789,0,0
12537.23,1.8132,0,0
7720.93,8.1458,0.40434,0
6691.25,8.1006,0.40646,0
6275.07,7.9639,0.41125,0
5919.08,7.787,0.41872,0.153155
5778.8,7.5674,0.41717,0.24074
5670.28,7.4954,0.41716,0.457785
5313.48,7.2038,0.42399,0.51963
5277.54,6.8787,0.40871,0.114035
5205.54,6.364,0.40513,0.53654
5076.42,6.3059,0.40507,0.48991
5347.59,5.5243,0.43716,0.625
5021.5,5.4737,0.43543,0.57044
8707.75,2.8335,0.19525,0.507695
9726.2,2.7375,0.19049,0.85185
34004.98,13.4144,0.04441,0.41739
30529.64,13.4,0.04405,0.05263
29430.15,13.3848,0.04402,0
29772.59,13.2277,0.04465,0
31688.82,13.0396,0.04538,0
30503.37,12.4041,0.04753,0
29810.73,12.1102,0.0485,0
27174.94,11.8456,0.04973,0
22033.49,5.0972,0.08326,0
15947.59,4.8781,0.08701,0.35135
16084.69,4.8535,0.08504,0.04348
17955.14,4.7954,0.08567,0.088235
16952.64,4.483,0.08098,0
16916.02,4.4735,0.08116,0
15698.79,4.4357,0.08185,0.20408
15163.06,4.3601,0.08107,0.2907
14005.71,4.2372,0.0717,0.40625
13962.94,4.2073,0.06769,0.423075
13341.04,4.0418,0.06398,0.345455
12475.07,3.9859,0.05951,0.20641
25060.65,6.5423,0.02532,0
25254.09,6.505,0.02546,0
24449.18,6.3132,0.02649,0.233765
25185.9,6.1531,0.01791,0.19244
20968.23,5.5568,0.01911,0.826475
18706.97,5.4469,0.00926,0
22150.29,3.6931,0.01373,0.135595
16354.53,3.4266,0.01271,0
16322.11,3.4131,0.01276,0
16206.47,3.3996,0.01281,0
14551.52,3.3344,0.01303,0
14562.68,3.3182,0.01309,0
14174.35,3.1842,0.01368,0
13557.85,3.1455,0.01379,0.01695
13716.88,3.0353,0.01401,0.422615
13302.75,2.9985,0.00936,0.33431
13904.21,1.8794,0.01049,0
13338.59,1.79,0.01099,0
11162.55,1.5978,0.01278,0
11042.03,1.4926,0.01311,0
7348.27,13.7137,0.44074,0
6933.37,13.677,0.44172,0
5930.2,12.3449,0.48357,0.058825
5565,12.2371,0.48686,0.2783
5379.26,11.8856,0.50155,0.038835
5617.69,11.7615,0.50612,0
5065,11.3343,0.52664,0
4887.3,11.0416,0.53871,0
4920.89,10.7465,0.55337,0
4737.58,10.3877,0.55917,0.30128
5196.67,10.306,0.56156,0.547985
9252.32,9.3928,0.60932,0.82353
9374.25,9.0344,0.61907,0.897435
9084.12,8.9656,0.61756,0.74138
8921.43,8.68,0.6322,0.463015
8982.88,8.5931,0.63492,0.23448
8927.64,7.907,0.6615,0.830055
8909.01,7.1442,0.6528,0.953125
8396.25,7.0615,0.6505,0.532355
7450.17,6.2106,0.68998,0.522895
7677.25,6.0032,0.69241,0.682925
6258.88,5.1543,0.73241,0.99
6245.55,5.0872,0.72882,0.99
6137.57,4.9611,0.72395,0.99
6012.33,4.6511,0.71099,0.99
5897.92,3.9929,0.7087,0.99
6442.55,2.7023,0.62267,0.99
6548.51,2.6895,0.62039,0.99
6979.61,6.336,0.38976,0
6815.05,6.3205,0.39048,0
6870.13,6.2801,0.39267,0
6649.21,6.1847,0.39712,0
6424.81,6.1121,0.40144,0
5343.29,6.0238,0.40676,0
8982.83,41.7883,0.37358,0.57567
11799.34,40.6449,0.38015,0.59663
9185.98,37.943,0.39856,0.090045
7644.7,36.3051,0.41094,0.164855
7820.85,35.4352,0.40885,0.247085
7922.16,35.0694,0.41188,0.10651
14621.23,34.3327,0.41402,0.12685
8867.21,33.6832,0.40661,0.295455
7521.35,32.3521,0.42309,0.08374
6918.69,32.0693,0.42301,0.04712
6829.51,31.4426,0.42309,0.081185
6533.24,28.1856,0.45006,0.35942
6959.15,24.5995,0.44527,0.620485
6770.21,24.0732,0.44448,0.50367
5637.56,18.8781,0.51787,0.427275
5824.77,18.289,0.52799,0.624895
5853.98,17.8265,0.53456,0.57471
5362.43,17.3663,0.54374,0.316475
5137.78,17.118,0.54719,0.044445
10356.91,15.4034,0.5668,0.08911
9580.82,15.2922,0.56832,0
9133.24,15.1714,0.57048,0
10642.95,13.8878,0.57943,0
10523.18,13.8293,0.58161,0.016395
10407.67,13.4538,0.59416,0
10374.3,13.2464,0.59999,0.06
10892.92,5.5543,0.63044,0
10440.3,5.5411,0.63177,0.289475
10040.7,5.322,0.64793,0.477085
10206.96,5.286,0.64967,0.826765
10568.89,5.0747,0.63747,0.94737
6041.63,2.4104,0.4897,0.921055
6010.99,2.3622,0.47969,0.99
6493,7.5931,0.58209,0.08869
5718.34,7.4924,0.58369,0.44422
7208.34,7.2347,0.58034,0.90278
7631.26,7.011,0.57257,0.90727
7008.48,6.8608,0.56755,0.611345
6377.88,6.1448,0.57237,0.59091
6185.08,5.2721,0.60881,0.99
6013.22,5.1642,0.60129,0.99
5671.34,4.8549,0.5874,0.716325
6133.24,4.3544,0.60025,0.954545
5626.35,4.1604,0.59879,0.7
5800.04,4.1076,0.59851,0.772725
5476.91,3.8099,0.60835,0.61905
5013.22,3.7547,0.6085,0.564105
16005.68,59.0377,0.3972,0.24189
14329.52,56.6791,0.41112,0.197125
12279.12,54.8215,0.41998,0.144225
11590.38,53.95,0.4262,0.186875
10099.97,53.703,0.42747,0.255255
10253.61,52.8563,0.43277,0.14079
11404.11,52.3808,0.43504,0.105455
10511.13,51.923,0.43602,0.1346
10295.26,49.8964,0.44085,0.403505
11370.45,47.7149,0.44565,0.12022
11214.3,46.2063,0.4447,0.419445
10676.26,45.2816,0.44222,0.164765
11301.23,44.051,0.44463,0.576545
10218.55,43.3428,0.44579,0.43732
10788.7,42.9171,0.44732,0.112785
10346.74,42.6103,0.45023,0.372455
11191.81,41.8051,0.45242,0.99
6789.48,17.3782,0.47184,0.705985
6272.03,17.2857,0.47264,0.67596
6970.64,16.9559,0.476,0.696205
7083.36,16.1879,0.49048,0.68148
7640.29,15.6527,0.49894,0.99
7101.62,15.5049,0.49626,0.99
7616.63,15.2869,0.4905,0.898735
7151.83,14.8333,0.48522,0.615385
7842.7,14.6887,0.48507,0.7907
7760.92,11.0582,0.52599,0.99
7895.13,11.0349,0.5251,0.962965
7074.22,10.8542,0.52629,0.72235
7200.87,10.6892,0.52792,0.757405
7642.25,10.4726,0.52502,0.958335
7588.13,7.4627,0.50259,0.99
7605.37,7.343,0.49751,0.99
7504.77,7.1383,0.48747,0.99
5786.14,6.9692,0.4766,0.60382
6309.87,6.6818,0.47351,0.613635
6853.12,5.0489,0.43703,0.13248
13006.15,3.5241,0.52427,0.538725
13033.18,3.4931,0.52295,0.57223
13146.02,3.363,0.53017,0.462965
12751.17,3.2543,0.53693,0.76287
13132.51,3.0206,0.56135,0.919445
8990.16,24.4219,0.43851,0.592325
8176.19,24.3457,0.43813,0.37679
8216.29,23.7499,0.44369,0.450485
8122.29,23.3166,0.44898,0.471655
9227.22,22.6713,0.45057,0.604785
9245.88,22.0945,0.45191,0.92381
7355.79,7.1299,0.38667,0.85366
6945.73,7.0827,0.38345,0.61798
7198.94,7.0063,0.38079,0.77778
7212.58,6.7499,0.36406,0.76923
8883.67,14.5956,0.48544,0.99
8884.66,14.5014,0.48219,0.99
8698.78,14.1702,0.47238,0.99
8669.33,13.9812,0.4664,0.99
8624.79,13.6411,0.46104,0.99
7864.24,13.2364,0.46238,0.99
7765.36,13.1004,0.45807,0.99
7915.66,12.6175,0.45016,0.99
7978.02,11.4605,0.45825,0.99
7624.1,10.8614,0.46204,0.99
7732.44,10.8051,0.45957,0.962265
7687.2,10.6863,0.45526,0.91892
7778.65,10.5892,0.45284,0.99
7390.73,8.9299,0.43988,0.99
6990.52,7.8423,0.45729,0.99
7128.79,7.808,0.45479,0.99
7183.63,7.7339,0.4492,0.99
7504.54,7.4619,0.4392,0.99
7015.56,7.4146,0.43439,0.76083
8406.66,3.7126,0.51219,0.99
8437.08,3.5085,0.487,0.99
8768.63,3.4215,0.48096,0.99
12045.31,25.7714,0.20494,0.0438
12514.08,25.5392,0.20555,0.14866
11202.24,25.2957,0.20583,0.27166
10940.36,23.6643,0.20595,0.40906
13035.41,22.5727,0.19868,0.534775
11578.8,22.2579,0.19597,0.36676
11484,21.8518,0.19036,0.436385
10968.61,21.2561,0.18532,0.088495
10834.22,20.9856,0.18278,0
10859.26,19.8329,0.17892,0
10851.76,19.6445,0.18055,0
6497.07,7.7277,0.2158,0.291665
6549.28,7.5449,0.21401,0.190475
6187.35,7.4884,0.21414,0.17647
6189.69,7.3865,0.21479,0.15909
6002.54,5.1581,0.13697,0.383075
6419.72,5.105,0.13554,0.584475
6676.03,5.0385,0.13128,0.675
6543.38,4.5519,0.13811,0.742605
10312.36,11.7627,0.15956,0.170795
11196.76,11.6925,0.15945,0.255335
11203.82,11.3403,0.1489,0.196975
14102.92,11.1333,0.14711,0
13381.71,7.4699,0.12431,0
12913.84,7.1491,0.1311,0
13422.96,4.9966,0.07837,0
13160.93,4.85,0.08118,0
12908.77,3.8501,0.10234,0
12656.2,3.7592,0.104,0
10965.89,3.5578,0.11005,0.042555
8673.06,2.5349,0.08611,0.09091
8842.17,2.4952,0.08576,0
23912.09,5.4347,0.08119,0
22469.43,5.4227,0.08137,0
22650.39,5.2787,0.08359,0
6918.01,39.5224,0.39544,0.36364
6484.45,36.7807,0.41956,0.0854
6324.54,36.4188,0.42348,0.0825
6151.84,36.2021,0.42576,0.109455
5283.15,34.4534,0.44335,0.302325
5290.02,33.699,0.45175,0.062935
5007.91,32.9313,0.45895,0.035295
5108.01,32.7664,0.46122,0.28673
4190.41,11.771,0.41969,0.385885
4190.28,11.6531,0.42235,0.109525
4820.05,11.2822,0.43609,0.78788
4310.55,10.7368,0.45525,0.99
4719.33,10.6075,0.4523,0.923915
4492.33,10.5337,0.44996,0.847755
4508.61,10.2842,0.45552,0.78873
4447.86,9.6259,0.46014,0.7
4449.46,9.2835,0.46869,0.719015
4073.16,9.2138,0.4671,0.65517
4332.67,9.1363,0.46707,0.82222
7448.01,8.8096,0.47537,0.99
7519.53,8.2304,0.44643,0.99
7234.64,7.3791,0.45562,0.99
7561.45,7.1345,0.46699,0.857145
7932.03,4.9022,0.42286,0.846155
7911.86,4.4707,0.37683,0.741935
8238.68,4.3543,0.37337,0.9
5374.57,20.7794,0.486,0.69691
5836.97,19.9674,0.4837,0.672915
5435.35,19.4945,0.492,0.782935
5675.76,19.4371,0.49098,0.93913
5433.8,18.6547,0.49162,0.848
5438.04,18.3067,0.4863,0.478515
5917.52,18.0988,0.48607,0.588165
6487.02,17.8753,0.48288,0.99
6552.93,17.4085,0.48959,0.968255
5255.88,16.2457,0.51041,0.357145
6463.46,15.3182,0.52376,0.99
5558.4,14.9034,0.51286,0.75269
5346.05,14.7381,0.50961,0.64348
5601.32,14.2194,0.49602,0.77049
5290.06,14.065,0.48923,0.647725
4868.19,12.7153,0.51561,0.604865
6694.23,10.8074,0.53134,0.83486
7118,10.6824,0.53134,0.99
8132.77,10.034,0.51622,0.989475
7502.09,8.2636,0.57368,0.99
7891.33,8.1213,0.57033,0.99
9070.22,7.988,0.56515,0.99
9255.22,7.8274,0.55888,0.875
7800.09,12.1429,0.20562,0.93719
6487.22,12.0877,0.2028,0.3506
7853.26,11.9513,0.20268,0.486215
7999.22,11.911,0.20177,0.20345
7815.9,11.8219,0.2021,0.332975
7027.52,11.7071,0.20191,0.188055
9018.04,10.8341,0.21418,0.23143
9482.15,9.7924,0.23242,0.49123
7966.53,9.6957,0.23191,0.54716
6972.62,9.2921,0.23369,0.459525
7314.66,9.0902,0.23398,0.434885
7641.83,8.9331,0.23455,0.57484
6896.16,8.7919,0.23365,0.52552
6110.28,8.2154,0.2405,0.66593
5600.92,6.9621,0.25605,0.77778
5028.46,4.9818,0.28724,0.63166
5520.62,4.9441,0.28498,0.615385
5527.32,4.9357,0.2853,0.607315
6248.06,4.8284,0.28077,0.71493
6612.57,4.7205,0.27619,0.566135
7426.32,4.0676,0.2792,0.51336
7217.05,4.0096,0.27869,0.467575
8292.94,3.9369,0.27691,0.26154
8175.34,3.6002,0.27038,0.666665
7643.22,3.5438,0.26271,0.311905
15204.42,28.8889,0.37654,0.185185
14332.3,27.8971,0.38814,0.06733
14496.63,27.6365,0.39145,0.09886
13754.16,26.9068,0.40181,0.078655
13648.51,26.6866,0.40439,0.08561
14037.25,9.2059,0.36598,0.213235
14018.18,9.0212,0.37292,0.489035
13988.67,8.9217,0.37282,0.35551
10986.01,8.5779,0.38554,0.41078
9475.9,8.488,0.38547,0.712645
10734.36,7.2558,0.34655,0.269435
7863.27,6.536,0.37794,0.1797
7135.53,6.442,0.3817,0.11225
7952.97,6.3323,0.38584,0.48365
7711.45,4.6828,0.4159,0.465325
8421.06,4.6339,0.41812,0.387785
11331.14,17.0936,0.43355,0.040815
11104.38,16.6684,0.44564,0.20779
9372.08,16.1227,0.46083,0
9991.18,16.0683,0.46233,0
10550.33,15.9758,0.465,0
10063.7,14.7085,0.50107,0
9490.82,14.5229,0.50597,0
9088.23,14.1075,0.51694,0.1571
9008.16,13.0844,0.52652,0.520925
9162.89,12.7532,0.52779,0.59931
7920.63,12.4617,0.52774,0.60345
7671.98,11.6046,0.53703,0.714285
12742.36,10.8872,0.54235,0.53375
13644.8,10.5218,0.53641,0.212935
14771.3,9.1612,0.50966,0.333335
11607.5,4.21,0.46164,0.26329
14449.57,4.1682,0.46443,0.3625
14495.66,4.1123,0.46557,0.51339
14648.3,4.0173,0.46514,0.51844
15036.47,3.9195,0.46572,0.39623
15230.57,3.3242,0.51527,0.655115
15148.58,3.2718,0.51017,0.481835
15310.54,3.2165,0.51195,0.542375
14676.73,3.0972,0.517,0.548385
14676.21,3.009,0.51588,0.708335
14882.73,2.8935,0.50047,0.898875
16050.15,2.6692,0.49363,0.866665
11928.96,4.9388,0.54872,0.666665
11984.26,4.8969,0.54753,0.54895
12518.17,4.7889,0.54348,0.527235
12831.15,4.6754,0.53565,0.594595
12927.39,4.5978,0.53093,0.538395
13738.25,4.4831,0.52267,0.675675
14622.78,4.1981,0.50065,0.99
14664.19,3.9203,0.48676,0.885245
14732.35,3.7415,0.47552,0.737705
14691.48,3.6355,0.47101,0.56962
14730.65,3.4043,0.4677,0.55675
14989.24,3.2565,0.47883,0.6
9472.02,20.7606,0.18098,0
12892.99,12.8512,0.18898,0
13278.9,12.6451,0.1919,0
13106.2,12.4893,0.19434,0
13156.34,12.3683,0.19606,0
13227.47,11.9212,0.20152,0
14353.3,9.5031,0.25284,0
13637.88,8.6178,0.27885,0
13649.52,8.564,0.2806,0
13243.58,8.1227,0.29633,0
12357.69,7.8421,0.30701,0
11501.21,7.624,0.31646,0
9521.7,7.3787,0.3271,0
7256.48,6.5723,0.36682,0
6840.1,6.4677,0.37239,0
6320.85,6.1241,0.39303,0
6434.17,6.0136,0.40135,0
6200.61,5.1245,0.44519,0.042525
7819.41,4.0217,0.40782,0.27972
8196.49,3.9763,0.40928,0.26783
7695.27,3.9175,0.41284,0.37931
7807.56,3.8608,0.41274,0.384885
7106.87,5.2455,0.51727,0.726745
6306.16,5.154,0.51433,0.17886
6260.3,4.9646,0.51574,0.13889
6738.31,1.9854,0.65974,0.6875
7324.44,1.9674,0.65804,0.87827
8101.2,1.8687,0.63947,0.85326
27202.33,53.1343,0.27376,0.2722
26563.08,51.8533,0.27895,0.18256
14796.21,6.0625,0.24092,0
14315.03,6.0493,0.24138,0
14903.58,6.022,0.24279,0
14411.76,5.9131,0.24722,0
14430.62,5.7927,0.25343,0
23861.88,45.6242,0.28451,0
26174.44,43.097,0.26674,0.03715
30147.28,42.7785,0.26731,0.717575
37926.46,42.3074,0.26335,0.53071
28923.53,40.7396,0.26676,0.263635
22170.03,39.5017,0.27062,0.106995
27341.09,38.9126,0.26979,0
29640.79,37.5104,0.25669,0
27712.49,27.9714,0.25508,0
28936.36,27.0376,0.25279,0
28855.53,26.7644,0.25553,0
27365.89,26.2101,0.26068,0.059525
10545.5,6.5605,0.43763,0.364585
9822.01,6.5422,0.43863,0.40211
25918.03,19.4198,0.20384,0.063585
26095.56,18.8708,0.20076,0
26322.89,18.3049,0.20388,0.31585
28346.96,18.2286,0.20333,0.46851
28509.17,17.9342,0.20158,0.207205
25639.1,17.5147,0.19861,0
25575.21,17.2493,0.19935,0
109333.43,486.05191,0.26134,0.320055
119601.48,485.60291,0.26147,0.2216
96264.99,484.36389,0.26203,0.07275
95317.87,483.6871,0.26237,0.224015
100141.6,480.4982,0.26388,0.322765
95743.63,478.62549,0.26477,0.423035
83777.66,473.50089,0.2671,0.27544
74155.44,473.0603,0.26723,0.362505
71545.1,467.16129,0.27011,0.220335
78912.76,466.05042,0.27031,0.266215
84269.02,465.6011,0.27049,0.452065
70814.3,465.3483,0.27047,0.50915
73636.77,463.73959,0.27062,0.51789
76748.09,463.50171,0.27058,0.344505
77508.97,462.86581,0.27065,0.07725
80027.2,461.5123,0.27086,0.743515
77416.5,460.3324,0.27107,0.550345
88756.28,459.0759,0.27126,0.771655
82494.19,458.0238,0.27111,0.454585
81086.61,457.6777,0.27099,0.4
83961.85,453.96741,0.27247,0.18058
86146.47,449.22989,0.27387,0.238605
91425.8,443.68149,0.27704,0.313955
78132.58,443.03891,0.27721,0.334945
92055.29,441.4324,0.27789,0.25644
14903.47,33.0999,0.117,0.408285
19387.8,32.58,0.11665,0.37307
14494.12,32.4877,0.11599,0.266385
14275.29,32.2783,0.11561,0
16166.14,12.0141,0.11495,0
18969.15,11.8149,0.11699,0.049585
17216.66,11.6841,0.11693,0.17808
16955.57,11.2595,0.11869,0
16452.82,11.0954,0.1205,0
15410.98,9.9502,0.12662,0
14139.99,7.2901,0.14956,0
12663.21,7.2414,0.1506,0
11282.73,7.0973,0.15376,0
11127.27,7.0344,0.15515,0
10998.95,6.9742,0.15643,0
10805.61,6.8367,0.15978,0
10838.8,6.794,0.1606,0
12467.79,19.9123,0.11692,0
12275.67,19.855,0.11725,0
12419.49,19.6863,0.11821,0
12148.99,19.4269,0.11988,0
12505.61,18.4822,0.11957,0
11811.32,18.2772,0.12064,0
10779.62,17.7614,0.12391,0
10370.11,17.4183,0.12634,0
10038,17.1351,0.12749,0
9853.8,17.0661,0.128,0
9438.46,16.8878,0.1289,0
9928.77,16.7622,0.12991,0
9452.02,16.3296,0.13319,0
9469.17,16.1964,0.13435,0
9190.25,15.313,0.13917,0
9146.96,15.1065,0.14116,0
7835.25,14.5768,0.14633,0
7743.71,14.5021,0.14699,0
7589.14,14.3358,0.1486,0.15697
7988.08,14.188,0.14877,0.296825
7883.5,13.8541,0.14541,0.26523
9118.92,13.6575,0.1435,0.133335
8050.83,13.1125,0.13476,0.28822
13307.72,4.2779,0.10421,0
8395.96,8.417,0.13692,0
8117.59,8.387,0.13744,0
7982.55,8.271,0.13892,0
7617.27,8.168,0.13952,0.053765
70620.38,407.09811,0.29156,0
63171.69,406.87921,0.29171,0.2093
78790.52,406.45969,0.29191,0.183335
73615.79,402.88699,0.29358,0.21642
66485.71,400.93619,0.29492,0.01802
62595.24,399.47559,0.29593,0.074935
67760.86,398.39139,0.29671,0.25862
31585.21,38.2155,0.08512,0
29088.9,37.5507,0.08662,0
30497.84,37.3535,0.08707,0
30330.92,36.8822,0.08816,0
33657.32,36.7024,0.08866,0
29791.3,35.8912,0.09063,0
21777.48,11.6197,0.07277,0
21688.02,11.5855,0.07298,0
21209.45,11.4623,0.07379,0
20861.04,11.3781,0.07431,0
19991.49,11.3511,0.07449,0
18579.36,7.5073,0.10059,0
16868.42,7.1726,0.09779,0
13898.75,6.8707,0.10231,0
12609.83,6.7792,0.10345,0
12657.22,6.7756,0.10351,0
17815.46,6.7693,0.1036,0
15437.26,6.6717,0.10509,0
14967.52,6.5673,0.10679,0
14401.94,6.5281,0.1074,0
14207.39,6.5236,0.10748,0
12406.82,6.4525,0.10806,0
29103.05,23.0947,0.1043,0
27643.37,22.4707,0.10714,0
37162.26,22.3795,0.10759,0
25837.08,22.2943,0.108,0
26167.36,22.1558,0.10868,0
27148.94,22.0465,0.10922,0
27662.77,21.9302,0.1098,0
29029.82,21.7769,0.11038,0
23822.24,21.2767,0.11316,0.03
23652.72,20.9607,0.11201,0
22887.14,20.6261,0.11385,0
22947.62,20.093,0.11689,0
22932.74,15.5364,0.13602,0.68681
24029.7,15.3918,0.13135,0.99
24545.28,15.3689,0.13008,0.62567
26398.46,15.2008,0.12767,0.016305
26430.28,15.0067,0.12928,0
27125.42,13.8621,0.13992,0
27179.21,13.3834,0.13381,0
27091.17,9.2251,0.14456,0.05932
24404.44,8.2382,0.15141,0
24844.94,8.1938,0.1517,0
25186.95,8.0352,0.15464,0
25173.26,7.966,0.15606,0
24090.61,7.3701,0.16791,0
20927.49,7.0189,0.17717,0
19808.36,6.5132,0.18118,0
57117.48,359.9191,0.31925,0.263465
21557.6,4.007,0.0171,0.241665
19844.22,3.9638,0.01614,0
19362.62,3.9566,0.01617,0
19411.14,3.95,0.01619,0
19148.74,3.9329,0.01626,0
19457.63,3.8068,0.0168,0
25720,3.7725,0.01695,0
57006.15,355.35049,0.32301,0.619425
69442.39,354.74881,0.32309,0.503855
59137.49,354.3634,0.3232,0.645145
13061.58,10.6825,0.16271,0.50909
11892.43,10.6066,0.16315,0
10031.98,9.0924,0.19039,0
10717.75,9.0128,0.192,0
10894.35,8.9329,0.19359,0
10724.26,8.8595,0.1953,0
10360.54,8.7561,0.19768,0
9537.94,8.6643,0.19973,0
9402.97,8.3776,0.20654,0
10176.76,8.293,0.20878,0
9954.26,8.1969,0.21109,0
9741.44,8.0907,0.21395,0
8996.24,5.854,0.21689,0
9056.43,5.6809,0.22307,0
8203.28,4.3079,0.29412,0
7780.57,4.2823,0.29585,0
8020.69,4.0236,0.31348,0
7610.52,3.9978,0.31531,0
7110.08,3.9561,0.3191,0.33594
7608.24,3.6693,0.33592,0.302725
6454.97,3.105,0.33257,0.089965
5851.98,2.9678,0.34906,0.239765
6685.32,2.9323,0.35127,0.290215
5805.05,2.7259,0.37546,0.523285
5484.02,2.3365,0.41928,0.732145
51586.17,342.79861,0.32869,0.817625
50826.31,342.4592,0.32849,0.4456
54367.62,342.23129,0.32845,0.234785
84876.03,341.63611,0.32895,0.092105
51097.06,340.9137,0.32962,0.190475
58018.15,340.62421,0.32986,0.0061
58222.35,340.36609,0.33011,0
61224.96,339.76129,0.3307,0
90537.73,339.24429,0.3312,0.019765
8984.67,38.3095,0.46193,0.47473
8147.65,37.9495,0.46321,0.215715
7807.34,33.4298,0.51285,0.19322
8463.13,32.9808,0.51835,0.178385
7315.95,32.3801,0.52334,0.239685
6864.25,30.8688,0.54388,0.31194
7604.24,29.4069,0.57074,0.23787
8432.47,29.2152,0.57353,0.29235
7462.33,28.9165,0.57856,0.214955
6956.95,27.3941,0.59432,0.18705
12138.26,26.5136,0.61728,0.29565
10462.52,26.0519,0.62035,0.465385
9844.15,25.8368,0.62188,0.809245
10574.98,25.4152,0.61646,0.79412
11756.02,25.0021,0.61236,0.547825
13072.87,24.036,0.61507,0.35676
11005.52,23.8703,0.61743,0.21839
10265.43,21.9071,0.60054,0.45283
10318.53,5.6299,0.37784,0
10304.28,5.6066,0.37942,0
10496.82,5.5595,0.38279,0.058825
10176.38,5.5181,0.3852,0.44762
10610.67,5.4372,0.37587,0.23077
6003.37,3.7123,0.41765,0.438595
6027.89,3.6619,0.41705,0.625
6444.82,3.6203,0.41494,0
6106.35,3.6157,0.41524,0.51265
7250.13,3.5815,0.4141,0.75862
7567.77,3.5088,0.40804,0.875
7957.66,3.4554,0.39657,0.76
7528.56,3.3541,0.38671,0.60465
7111.99,3.1956,0.36308,0.148715
8933.98,16.1518,0.67822,0.33818
9268.83,16.0462,0.67881,0.54003
6693.7,12.8456,0.72404,0.750165
7514.2,12.6551,0.72293,0.826085
5929.58,10.2255,0.69037,0.869695
5871.98,10.0453,0.69028,0.761975
5857.22,9.9562,0.68884,0.860345
6871.56,6.0589,0.60178,0.7193
6215.97,6.008,0.60066,0.563055
6948.72,5.9391,0.60009,0.73077
7673.38,5.8169,0.59496,0.90625
6203.23,5.7202,0.59245,0.646125
6280.4,5.6256,0.59491,0.455445
6263.7,5.474,0.59346,0.37736
6115.89,4.3252,0.58781,0.480905
5924.92,3.7209,0.59749,0.52738
6103.38,3.6577,0.59631,0.531705
7290.34,3.5047,0.59292,0.54762
7353.27,3.4557,0.5925,0.596155
7483.76,3.3384,0.58615,0.636365
7405.5,3.1738,0.57086,0.651165
8143.73,3.1267,0.57061,0.941175
52362.98,300.4527,0.31508,0.009755
44162.07,300.04901,0.3155,0
43430.96,299.56479,0.31622,0
47110.32,298.08231,0.3175,0.10649
35437.4,297.09171,0.31776,0.367785
34427.51,294.978,0.31991,0.285715
34237.85,294.47141,0.32018,0.1875
34347.16,284.41629,0.31814,0.198715
38445.31,284.13281,0.3183,0.263445
36683.58,282.54861,0.31977,0.170145
39330.63,281.8887,0.32039,0.107955
12551.97,11.5301,0.21647,0
12016.23,11.5106,0.21686,0
11785,11.3299,0.22035,0
11722.55,11.3022,0.22095,0.074075
11187.39,11.1997,0.22233,0.30769
11458.81,11.0108,0.22383,0.759245
12323.76,10.8948,0.22058,0.697155
10678.09,10.7176,0.2207,0.569855
10519.8,10.4941,0.22285,0.374095
10206.09,10.1096,0.22669,0.538555
10422.52,9.9342,0.22628,0.663415
10266.47,9.8089,0.22508,0.602065
10044.1,9.5153,0.22583,0.489835
10588.07,8.8118,0.22453,0.01282
16230.26,7.9657,0.22797,0
17941.65,7.7911,0.23194,0
16079.69,5.3404,0.25517,0.22
16304.97,5.2694,0.25524,0.34375
16193.22,5.0503,0.25004,0.59896
18102.69,4.7878,0.24394,0.87619
18306.03,4.6643,0.23755,0.876925
18698.01,4.2723,0.23668,0.972975
18866.57,4.2268,0.23208,0.96
33571.05,269.72101,0.32548,0
27295.04,268.98691,0.32616,0
62680.58,268.7742,0.32639,0
22622.29,12.7008,0.11974,0.2093
22391.01,12.5089,0.12025,0.151515
21469.99,12.4341,0.12018,0.272725
20253.47,9.361,0.13839,0
16274.59,7.0173,0.16353,0
16052.42,7.0056,0.16381,0
15439.97,6.9552,0.1649,0
14610.37,6.8927,0.16634,0
13848.79,6.8542,0.16726,0
11675.84,6.6825,0.17209,0
11354.02,6.5643,0.1748,0
10901.19,6.2229,0.18113,0
10835.24,6.146,0.18337,0
10994.88,5.0653,0.21257,0
10826.29,4.9293,0.21635,0
10663.38,4.6843,0.22734,0
10100.73,4.2221,0.20889,0.02174
30608.97,255.58949,0.33718,0.07985
34401.4,254.47639,0.33835,0.25972
21766.61,253.25211,0.3396,0.68234
28718.92,252.2554,0.33992,0.510145
55752.85,251.6273,0.3394,0.38589
23417.04,250.3271,0.34072,0.329895
22419.07,248.97639,0.34189,0.423075
23244.07,247.19279,0.34411,0.235295
10373.34,21.0444,0.25859,0.560955
11494.7,20.9281,0.25816,0.132055
11976.45,20.4114,0.26006,0
11318.06,20.0737,0.26416,0
11175.26,19.8869,0.26636,0
12248.58,19.6535,0.2697,0
11427.85,19.2407,0.27579,0
10070.36,18.6273,0.28452,0.0527
12306.55,17.6821,0.28606,0.31148
14445.08,17.5028,0.28754,0.43869
11175.87,16.3338,0.29354,0.36651
10803.56,15.7745,0.28949,0.522155
12317.23,15.2636,0.28323,0.635135
12429.47,14.1282,0.27163,0.588235
11692.05,13.6431,0.26643,0.613335
11086.74,13.4815,0.26317,0.54293
12677.19,13.3435,0.25824,0.58242
11921.86,12.4411,0.24027,0.692325
14523.9,12.3088,0.2336,0.9875
12455.74,10.9951,0.2219,0.882355
13262.4,10.8932,0.21641,0.9863
14684.67,10.5102,0.20486,0.99
14508.46,10.3367,0.19204,0.99
15260.03,7.829,0.19682,0.99
14020.71,7.0961,0.18065,0.99
14161.86,7.0234,0.17369,0.99
14445.2,6.865,0.15553,0.99
13380.87,5.8837,0.15376,0.608695
15163.37,5.8383,0.15019,0.89539
14377.45,5.6202,0.14075,0.89394
14662.88,5.5398,0.13529,0.9
14225.66,5.2513,0.12954,0.826925
14110.83,5.1421,0.12471,0.826925
14302.61,5.0693,0.12094,0.803155
13862.8,4.8557,0.11278,0.58581
13853.71,4.7136,0.10968,0.529365
14518.53,4.4851,0.10636,0.841125
14418.62,4.2804,0.09688,0.51738
14206.69,4.18,0.09156,0.35956
20897.27,226.1209,0.3521,0.434475
25946.8,223.95531,0.35487,0.39178
19684.08,223.59039,0.35521,0.214525
20068.35,220.52901,0.35765,0.0998
20744.88,219.88589,0.35787,0.00769
18989.19,219.10201,0.35827,0.348535
9430.25,10.3397,0.25636,0.763635
9035.15,10.3032,0.25474,0.660225
9090.35,10.0344,0.25303,0.603175
9253.92,9.9752,0.25251,0.57976
19447.64,207.43739,0.36515,0.68954
20739.66,207.0473,0.36521,0.32956
27409.1,204.26019,0.36965,0.243785
26929.7,203.8009,0.37022,0.75
9883.05,77.9236,0.34416,0.922985
8873.73,77.77,0.3432,0.8931
8981.29,77.1748,0.34287,0.969695
9706.16,76.3097,0.34456,0.865385
9427.9,75.6782,0.34378,0.86207
10202.22,75.2935,0.34423,0.80937
13013.09,74.8452,0.34357,0.604535
22083.98,74.4037,0.34395,0.408875
11427.04,72.238,0.34693,0.343145
11625.85,71.0992,0.34975,0.58621
8971.03,70.3047,0.35287,0.507225
8734.76,69.7485,0.35352,0.479005
8015.76,68.714,0.35409,0.621415
8099.82,6.3589,0.3904,0.147995
8396.51,6.3385,0.39172,0.392155
9464.97,6.2626,0.39307,0.733335
8181.41,4.3532,0.36426,0.55
8131.84,4.2851,0.36408,0.67852
9360.59,3.9434,0.38316,0.8
9488.33,3.8484,0.36752,0.7
7859.41,61.7783,0.34751,0.69958
7552.56,60.4102,0.33665,0.529635
5803.74,24.1824,0.45031,0.57569
5587.07,21.6595,0.48814,0.871705
6271.6,21.5817,0.48672,0.85
6274.6,21.4926,0.48524,0.866955
6413.25,21.1917,0.48223,0.99
6389.59,20.9529,0.47682,0.99
6415.48,20.75,0.47118,0.99
6254.47,20.544,0.46615,0.99
6267.96,20.142,0.4559,0.99
6056.01,19.5149,0.43988,0.99
6310.15,17.5435,0.43293,0.99
6110.87,15.9124,0.39731,0.88298
6160.32,15.7865,0.39325,0.698115
6142.47,15.4721,0.38369,0.714285
6492.63,12.2632,0.36374,0.63793
6760.15,12.1979,0.36218,0.649125
7671.35,11.992,0.35621,0.67164
8413.29,11.8111,0.34973,0.72174
7876.66,11.4766,0.33776,0.72381
8003.94,11.2519,0.33072,0.65278
8952.26,11.0883,0.3273,0.824175
9607.68,10.897,0.32403,0.915965
9221.44,8.3215,0.34065,0.95238
8350.88,8.1613,0.33315,0.627905
5579.15,4.8627,0.29016,0.75
6627.28,4.3445,0.28631,0.99
6837.62,4.2975,0.27992,0.99
6910.7,4.1229,0.26166,0.99
7333.28,4.0941,0.25579,0.99
7446.16,4.0207,0.24433,0.99
8900.55,35.8227,0.25537,0.385645
8841.61,35.387,0.24725,0.527335
8757.34,35.1027,0.24496,0.886365
9127.47,31.8973,0.2395,0.99
8954.78,31.7562,0.23598,0.99
9505,31.5886,0.23213,0.99
9104.66,31.1495,0.22242,0.99
8807.33,30.886,0.21662,0.99
8984.53,29.8501,0.20737,0.99
9145.33,29.6013,0.2015,0.99
8869.13,20.4405,0.18503,0.99
8760.11,20.3218,0.18065,0.99
8904.46,20.0552,0.17707,0.99
9159.43,19.679,0.16237,0.99
9660.85,19.0995,0.14001,0.99
11888.54,16.6915,0.13207,0.99
11988.71,16.5756,0.12688,0.99
11257.55,15.9894,0.09652,0.792685
11427.83,14.5301,0.05456,0.65
13227.95,14.3878,0.05155,0.957745
12490.53,14.2416,0.04626,0.81818
11009.78,13.6985,0.0423,0.741935
10527.09,13.484,0.03528,0.56448
10451.76,13.2197,0.0254,0.06116
10719.72,12.8083,0.02446,0
10928.49,12.4884,0.02277,0
10985.59,12.2046,0.02215,0
12911.43,9.5855,0.02681,0
16545.21,8.3904,0.01812,0
16627.64,8.3294,0.01825,0
16560.7,8.1232,0.01877,0
20164.73,5.0798,0.02957,0
19783.98,5.0362,0.02976,0.229885
20025.83,4.9318,0.02681,0.16
20649.28,3.8019,0.03352,0.1
20405.53,3.7383,0.03277,0.4
15147.5,125.3795,0.38626,0.84112
31127.71,124.7808,0.38641,0.885415
19415.66,123.5017,0.38682,0.99
20496.83,122.9628,0.38752,0.973915
14512.02,122.2491,0.38817,0.710845
15254.27,121.1095,0.39135,0.80841
15594.49,120.5288,0.39145,0.625
14842.12,118.7907,0.39465,0.452775
13873.02,117.2898,0.39697,0.524895
12425.89,113.7115,0.40561,0.581045
10743.71,111.4015,0.4102,0.570155
9356.96,17.4541,0.39191,0.35459
8954.57,17.399,0.39223,0.433985
9149.62,17.2064,0.39223,0.769775
7366.16,15.6985,0.40336,0.406545
6642.46,15.4657,0.40783,0.521825
7119.35,15.2055,0.40363,0.663795
8769.4,15.0079,0.40049,0.99
11642.21,2.5626,0.28883,0.973685
11798.37,2.5379,0.28288,0.61884
11102.5,2.5017,0.2799,0.53515
10862.54,2.4635,0.27869,0.48534
10362.38,2.371,0.27162,0.576525
10665.86,2.2505,0.25861,0.68269
10741.34,2.1678,0.24938,0.714285
12420.87,2.0392,0.23719,0.903225
10836.7,1.8705,0.20823,0.81818
10260.29,1.8586,0.20691,0.57159
8734.92,12.2409,0.41389,0.957145
8739.05,12.0699,0.40473,0.98387
8360.45,11.8514,0.39678,0.89412
8032.43,11.7489,0.39594,0.99
8330.52,11.1253,0.38663,0.99
8151.03,10.86,0.37122,0.8123
7554.41,10.7817,0.36785,0.605255
7962.12,10.3861,0.35724,0.56473
9028.72,10.2015,0.34972,0.55172
10808.86,4.5881,0.11196,0
10751.7,4.5513,0.11282,0
10710.79,4.519,0.11337,0.035295
10872.2,4.1049,0.11265,0
10897.4,4.0118,0.10919,0
10977.27,3.9356,0.1101,0
11008.46,3.8364,0.11331,0
11384.64,3.2422,0.08697,0
11142.65,3.1489,0.0887,0
11484.75,1.9937,0.0257,0
11685.47,1.9427,0.0264,0
11789.1,1.8891,0.0271,0
11571.79,1.8013,0.02853,0
11693.35,1.6,0.03204,0
11869.83,1.5277,0.03401,0
6926.82,5.5034,0.54818,0.597485
7249.39,5.4288,0.54558,0.666665
7229,5.1147,0.5222,0.56604
7988.81,4.8543,0.52787,0.99
7304.54,4.8342,0.52584,0.580645
6317.17,4.5342,0.511,0.41259
6982.89,4.457,0.51348,0.65909
7635.57,4.4001,0.50889,0.92857
7165.45,3.9392,0.51701,0.99
7605.3,3.3898,0.44052,0.99
7768.34,3.3423,0.43475,0.99
9931.07,93.9025,0.41353,0.706085
10005.59,93.4079,0.41337,0.755755
16043.92,92.5861,0.41307,0.763855
7862.74,8.0363,0.43562,0.902255
8258.87,8.0218,0.43491,0.930235
6895.41,7.9883,0.43303,0.67478
8041.21,7.7706,0.42685,0.99
8067.33,7.5708,0.42072,0.99
7547.96,7.3554,0.4065,0.88679
7631.08,7.2931,0.40363,0.80531
8134.44,7.1119,0.4039,0.99
8080.67,6.8232,0.39762,0.98734
8053.96,6.6447,0.39566,0.92857
7946.7,6.3753,0.39533,0.94231
7520.11,5.9951,0.41211,0.841465
8002.35,5.9429,0.41055,0.944445
7496.82,5.0911,0.44351,0.99
7689.23,4.9421,0.43202,0.99
7495.62,4.3566,0.45802,0.99
8225.27,4.3225,0.45396,0.99
7798.85,3.7859,0.47241,0.99
7797.21,3.1158,0.49299,0.99
8952.61,84.2774,0.41032,0.66164
8584.03,82.2072,0.40565,0.560855
8369.36,81.8702,0.40444,0.545675
8503.09,80.0117,0.40597,0.555235
8442.94,79.3125,0.40294,0.45598
8421.86,78.5387,0.4,0.5158
7457.26,77.5969,0.39769,0.495555
8524.13,75.9621,0.39506,0.67806
8223.11,75.6713,0.39403,0.219285
6898.36,28.5471,0.38766,0.77698
7180.37,28.3803,0.38695,0.665445
6464.18,28.0741,0.38643,0.60417
6224.9,26.8315,0.39299,0.676925
6862.32,26.5279,0.38907,0.56224
6782.32,26.1217,0.38547,0.534245
6409.32,25.5606,0.38391,0.609755
6715.98,24.8917,0.39198,0.612905
6345.45,23.1392,0.36941,0.563025
5914.58,22.8081,0.37151,0.55944
5179.48,21.9943,0.37658,0.54535
5730.87,21.8887,0.37512,0.588235
6070.72,21.3061,0.37158,0.73077
5918.19,19.1574,0.38003,0.72222
6506.7,18.4126,0.38132,0.99
5901.35,18.1994,0.37603,0.718445
6342.49,18.0648,0.37499,0.80613
6591.83,17.2755,0.37341,0.78083
7190.61,16.5642,0.36547,0.80263
7219.61,14.124,0.36656,0.71554
8303.31,13.9195,0.36042,0.90687
7944.26,13.8542,0.35745,0.600915
9096.78,2.4644,0.29032,0
10186.66,2.4578,0.29074,0.99
10351.14,2.4218,0.28109,0.94872
9891.81,2.3995,0.27499,0.83721
9994.49,2.3564,0.26531,0.857145
9537.3,2.2934,0.25193,0.6875
9062.1,2.215,0.22978,0.601445
8447.31,2.1244,0.20067,0.503605
8884.97,2.0011,0.17017,0.814285
9721.5,1.8505,0.12783,0.61017
6810.5,11.0234,0.36844,0.3125
6301.1,10.5102,0.36931,0.73803
6748.63,10.4555,0.36723,0.85457
8213.15,9.6531,0.34473,0.60858
7659.1,9.5679,0.34011,0.545735
10136.33,9.2448,0.32779,0.99
7691.4,3.8846,0.25502,0.99
7624.76,3.8614,0.25052,0.97222
6197.8,3.8285,0.24443,0.592375
6468.98,3.7894,0.24077,0.44737
7024.45,3.7363,0.23799,0.329085
5850.82,46.6372,0.39943,0.538315
6044.08,46.18,0.39837,0.395175
7575.93,45.6033,0.40056,0.142425
7976.53,44.9148,0.40636,0.25791
7621.19,43.6549,0.41641,0.602275
7096.54,41.5246,0.42674,0.284485
8683.68,41.1111,0.42763,0.467855
8996.23,40.6411,0.43125,0.61634
8962.43,37.9351,0.44335,0.99
9138.74,37.1891,0.44277,0.99
9410.38,34.3322,0.43931,0.99
9398.33,33.9993,0.43677,0.99
8879.08,33.5236,0.43281,0.9802
8606.19,32.496,0.42591,0.99
8883.59,32.1793,0.42014,0.99
10146.63,30.772,0.40529,0.99
10278.8,30.4659,0.40078,0.99
9746.39,30.174,0.39626,0.99
10965.49,29.8112,0.38923,0.93048
11171.87,28.558,0.37526,0.99
10887.42,27.0454,0.37496,0.828125
11104.49,26.688,0.37162,0.98131
10037.29,26.1286,0.36311,0.778525
10434.68,9.3103,0.31572,0.955555
10586.31,16.6075,0.39013,0.959595
10101.58,16.5297,0.38793,0.89394
11154.83,16.4401,0.3859,0.913385
10482.88,16.2387,0.3836,0.99
10832.24,15.0611,0.34524,0.99
9664.68,13.2507,0.33471,0.99
9370.84,13.1299,0.32856,0.880435
9945.39,12.8984,0.32008,0.91971
9652.07,12.7023,0.31604,0.99
9099.67,12.4765,0.30882,0.82558
9578.17,11.815,0.30505,0.99
9556.54,11.5521,0.30049,0.99
9121.3,10.6212,0.29992,0.895835
9420.65,9.8468,0.30531,0.99
9824.57,7.9136,0.26349,0.666665
9577.15,7.8943,0.26342,0.258335
9802.59,7.8269,0.2626,0.492575
9629.89,7.7334,0.26129,0.538145
9267.89,7.6818,0.26036,0.441205
8977.64,7.2412,0.26039,0.42763
6343.9,20.4768,0.25096,0
6497.49,9.8686,0.30787,0
6995.17,9.6977,0.31399,0.02857
6983.26,9.5391,0.31595,0.141025
7203.34,9.442,0.31396,0
7027.46,9.3125,0.3175,0.065935
6939.98,9.1584,0.32047,0.3
6133.19,8.5072,0.3327,0.29285
6123.53,8.4519,0.33337,0.2403
5834.48,8.3032,0.33677,0.55714
6177.23,6.943,0.30108,0.397505
6345.68,6.8895,0.30075,0.115885
5805.03,6.7408,0.30657,0.1412
5533.53,6.6513,0.30961,0.379165
5256.35,10.5189,0.19878,0
5911.32,10.4979,0.19916,0
5637.58,10.0737,0.20739,0
5736.92,9.5458,0.21874,0.09434
5473.91,9.4601,0.22007,0.21416
5382.26,6.9374,0.16688,0.17051
5598.29,6.8577,0.16803,0.114955
4750.18,6.0495,0.18929,0.2037
4829.89,5.8623,0.19702,0.185725
4576.97,5.763,0.19706,0.15778
4690.21,5.7135,0.19782,0
4099.36,4.4172,0.20078,0
4076.02,4.3913,0.20193,0
4261.68,4.1246,0.21447,0
4264.49,4.0818,0.21688,0
111134.47,639.84741,0.12721,0
116938.58,637.96808,0.12758,0
121898.53,636.92139,0.12779,0.299435
115762.17,636.05872,0.12778,0.11837
124808.84,632.34167,0.12828,0.1537
121956.32,631.45172,0.12836,0
114121.51,625.89758,0.12925,0
110822.3,625.65527,0.12929,0
121602.34,622.25317,0.12997,0.112405
150000,620.21021,0.13031,0.00926
135909.63,618.49329,0.13063,0.09091
141547.53,617.95947,0.13074,0.0898
134031.06,613.78583,0.13152,0.109695
114735.03,613.26349,0.13158,0.28065
97617.53,612.28632,0.13166,0.242025
106280.13,611.6076,0.13177,0.27602
113187.16,610.94421,0.13179,0.141175
102630.28,610.04651,0.13188,0.09518
114791.89,606.91193,0.13245,0.573085
108718.32,606.0733,0.13252,0.298315
97859.13,605.78833,0.13254,0.219445
25101.68,17.5881,0.00041,0.068965
26308.87,17.4234,0.0001,0.02778
26190.14,17.0899,0,0
22829.12,16.4774,0,0
24907.04,16.2806,0,0
23200.12,15.7705,0,0
23368.63,15.269,0,0
21862.22,15.0539,0,0
20909.07,13.6992,0,0
21380.38,13.6517,0,0
18820.18,3.3963,0,0
20519.39,3.3312,0,0
17907.96,3.2365,0,0
17179.82,3.1018,0,0
17103.08,2.8756,0,0
17163.3,2.7071,0,0
17101.22,2.6076,0,0
17257.54,2.491,0,0
16484.59,1.313,0,0
16454.4,1.2982,0,0
22674.03,10.1286,0,0
23167.15,10.1085,0,0
22432.38,9.7211,0,0
99173.39,587.61469,0.13651,0.074665
120452.73,587.1496,0.13661,0.093215
104579.6,586.19263,0.1368,0.092515
94403.67,585.03302,0.13706,0.0424
106799.65,583.93201,0.13731,0.013945
95224.22,582.72021,0.13755,0.261435
92644.26,579.59692,0.13813,0.239565
89690.04,578.93622,0.1382,0.16235
92142.41,578.65942,0.13821,0.25089
93057.42,575.57971,0.13883,0.245775
18335.12,10.0819,0.03136,0
21122.55,9.991,0.03169,0
19133.07,9.9454,0.03184,0
19019.44,9.9159,0.03192,0
19689.91,8.5948,0.03678,0
19135.9,8.5647,0.03691,0
18936.42,8.4165,0.03757,0
26806.75,6.0974,0.03211,0
18439.96,6.0291,0.03244,0
19267.44,5.5748,0.02461,0
20905.87,5.5347,0.02479,0.309315
18142.79,5.3519,0.01931,0.205555
18187.55,5.2814,0.01753,0.121765
18820.14,4.9336,0.01799,0.216375
91284.21,565.36267,0.14075,0.192185
91253.92,564.46539,0.14091,0.112075
92979.72,564.12769,0.14096,0.2456
95472.25,563.10107,0.14113,0.052895
90040.38,562.82391,0.14119,0.01348
55962.19,199.2063,0.08861,0.238625
69036.56,198.6823,0.08861,0.44187
71781.36,198.1642,0.08837,0.203635
53486.92,197.55611,0.08841,0.202615
54187.9,193.6947,0.0888,0.174405
61548.51,193.19881,0.08874,0.142545
56597.5,192.56779,0.08877,0.128085
61463.6,191.28529,0.08854,0.395385
56120.52,191.1485,0.08829,0.21265
54047.28,190.45959,0.0881,0.21212
53684.52,187.8696,0.08859,0.0857
45855.75,187.5332,0.08872,0.086545
48361.18,186.6778,0.08903,0.25
51386.23,185.2756,0.08888,0.12823
55630.34,184.5824,0.08907,0.17509
58961.58,182.6189,0.08956,0.234575
19194.11,3.8625,0.18282,0.145835
17655.63,3.8257,0.1843,0
16066.82,3.8158,0.18478,0
16450.24,3.7502,0.18816,0
15428.9,3.7283,0.18925,0
15380.32,3.687,0.19139,0
11756.5,3.665,0.19204,0
55217.97,178.2041,0.08759,0.19479
57518.93,176.7375,0.08792,0.26087
52677.13,175.9922,0.08809,0.2034
63064.03,175.2285,0.08801,0.17388
62465.95,173.8806,0.08806,0.16255
65294.51,173.45419,0.08803,0.15142
57857.73,169.0372,0.08877,0.153795
38314.82,168.08411,0.08904,0.18194
35660.07,32.529,0.03649,0.097725
36879.36,32.4206,0.03639,0.122335
36542.27,32.0175,0.0363,0
37800.75,31.1519,0.03724,0
35509.88,27.5549,0.03995,0
35205.19,27.4553,0.04005,0.068495
34568.58,27.1904,0.04021,0.06
34663.58,27.1314,0.0402,0.053045
32218.82,135.1031,0.10175,0.10106
32770.93,134.11909,0.1018,0.083085
32008.45,133.4446,0.10191,0.12239
28989.65,132.8058,0.10227,0.23843
31495.56,132.3324,0.10242,0.38383
32156.25,131.7813,0.10191,0.57639
31017.28,130.9512,0.1023,0.458335
29685.26,129.3645,0.10242,0.26694
28037.03,129.11659,0.10231,0.230575
29280.89,128.2478,0.10173,0.22222
18122.88,7.1786,0.11878,0.18216
18133.53,7.1372,0.11875,0.302945
18233.53,7.054,0.11352,0.381935
18504.08,6.9286,0.10991,0.67647
18714.67,6.5931,0.10439,0.67347
30207.03,120.5726,0.10027,0.294835
26244.71,120.2723,0.09999,0.396605
27556.36,119.9191,0.09956,0.49148
26698.92,119.1146,0.09927,0.269575
26618.57,118.3678,0.09918,0.509195
27422.63,117.9306,0.09868,0.676925
30385.79,117.2042,0.09749,0.757575
30233.63,116.8884,0.09634,0.892855
29052.18,10.2957,0.07915,0.96774
26567.36,10.2558,0.07587,0.76389
26660.14,8.8298,0.05139,0.20202
27779.24,8.8211,0.05124,0
29881.91,8.8095,0.05132,0
26548.37,8.7168,0.0519,0
25072.96,8.585,0.05265,0
28675.68,3.9603,0.06612,0
27929.38,3.9395,0.06647,0
25379.2,3.7409,0.06999,0
24882.6,3.6638,0.07148,0
24974.1,3.6377,0.07198,0
24835.06,3.4095,0.07678,0
26274.75,2.8232,0.0927,0
26505.07,2.729,0.09588,0
25451.01,2.6182,0.10055,0
25506.31,2.5963,0.10118,0
25016.81,106.5532,0.09793,0.57143
23598.66,106.108,0.09759,0.58837
18227.34,20.3994,0.10639,0.080555
16945.44,20.3298,0.10659,0.034105
16712.82,20.172,0.10724,0.078975
17330.68,20.0596,0.10758,0.19591
18120.6,19.68,0.10671,0.39798
17543.18,19.5012,0.10554,0.194515
14697.74,19.3307,0.1054,0.12128
14517.03,18.75,0.10297,0.285715
14259.16,18.4173,0.10225,0.155645
15409.95,18.201,0.10163,0.398945
15796.85,17.6144,0.09995,0.42921
23314.46,17.4445,0.09822,0.16992
16298.66,17.2852,0.09869,0.087865
15479,16.6335,0.09663,0.15625
15082.88,15.8488,0.09843,0.088765
15052.41,15.6432,0.09715,0.08097
14567.03,15.2738,0.09725,0.3125
15075.52,9.5194,0.08027,0.296875
14746.93,9.4839,0.08014,0.20524
14800.06,9.004,0.07821,0.291665
14451.28,8.7686,0.07987,0.28125
14970.08,8.4105,0.08194,0.153845
15040.87,8.3285,0.08183,0.11453
15743.78,7.8344,0.08663,0.08034
15070.11,7.4893,0.08966,0.373335
16350.83,7.1185,0.09289,0.085105
15755.93,7.0593,0.09303,0.01449
15051.24,6.9226,0.09524,0
20469.59,85.4363,0.09504,0.32407
21202.96,84.5007,0.09581,0.164445
20622.95,83.0271,0.09721,0.127725
20696.53,82.7247,0.09737,0.110295
20019.11,79.9815,0.09925,0.129695
15692.64,18.1832,0.13671,0.11197
15519.66,18.0039,0.13778,0.18182
15755.02,17.9315,0.13765,0
15466.49,17.6189,0.14012,0
15645.16,17.5472,0.14066,0
15503.86,17.4286,0.14158,0.02659
12364.38,13.1582,0.17452,0.21235
11751.14,13.0158,0.17498,0
12287.34,12.7753,0.17722,0
12346.11,12.678,0.17845,0
12286.8,12.276,0.18362,0.06379
11705.56,11.1133,0.19788,0.282435
11923.47,10.9395,0.19985,0.361755
11396.16,7.9691,0.23882,0.291255
11480.3,7.8013,0.24003,0.19231
11273.8,7.7325,0.2418,0.392115
10946.17,7.3081,0.2449,0.31565
10439.24,7.2379,0.24383,0.27143
10475.04,6.5242,0.24514,0.313255
10422.35,6.3983,0.24008,0.38426
11669.58,6.3275,0.24211,0.363635
8803.56,2.8637,0.20698,0
8952.5,2.7962,0.21205,0
19873.34,61.6058,0.08831,0.22609
20439.46,60.7618,0.08898,0.190905
18470.85,60.0697,0.08926,0.134015
18439.39,58.7377,0.09092,0.171175
21501.24,57.6525,0.09208,0.24279
19718.65,56.6351,0.09086,0.0874
20044.49,52.5516,0.09087,0.346415
19149.53,51.8647,0.09049,0.265965
21072.4,42.5338,0.08315,0.165215
23991.98,42.0624,0.08314,0.180755
20338.92,41.6361,0.08179,0.11956
13327.02,4.6032,0.0153,0.09855
13441.97,4.5783,0.01499,0
13322.21,4.5601,0.01504,0
13017.55,4.4357,0.01543,0
13176.64,4.2655,0.01606,0
13251.92,3.7061,0.01867,0
12973.74,3.6835,0.01875,0
12728.51,3.6402,0.01892,0
12906.15,3.546,0.01929,0
12686.94,3.4799,0.01958,0
12563.3,3.4071,0.01997,0
12608,3.3693,0.02018,0
12499,3.3165,0.02052,0
12614.22,3.1436,0.02154,0
12012.3,3.072,0.02197,0
10932.42,3.0127,0.02243,0
10820.09,2.9228,0.02356,0
10866.27,2.8271,0.02402,0
10558.18,2.4053,0.02794,0.183635
10374.8,2.0951,0.02164,0.490545
19027.53,36.5546,0.0906,0.120535
20086.41,36.2825,0.09115,0.1617
12858.97,6.8613,0.07373,0
12503.58,6.8358,0.07384,0
12407.85,6.8168,0.07403,0
11944,6.7809,0.07438,0
12364.28,6.7277,0.07496,0
12215.1,6.6024,0.07639,0.01961
11776.27,6.5499,0.07677,0.07792
11648.22,6.06,0.07441,0.176015
12272.68,5.9971,0.07399,0.33602
11952.65,3.969,0.06582,0.315945
12097.68,3.9331,0.06415,0.211255
12305.38,3.8869,0.06256,0
12130.84,3.7884,0.06416,0
12065.37,3.7079,0.0656,0.01316
11627.2,3.1633,0.062,0.691745
12480.74,3.133,0.05665,0.56845
12179.79,3.0282,0.04904,0.254545
29145.84,29.2542,0.09533,0.238775
19600.57,29.0345,0.09498,0.158255
19202.09,28.8384,0.09518,0.173955
18441.09,11.3236,0.14988,0.188405
18143.83,11.2493,0.14949,0.316685
18805.83,11.187,0.14892,0.10341
16324.16,11.0866,0.14954,0.102125
16516.69,10.9459,0.15092,0.107995
15378.49,10.7861,0.15248,0.130535
14722.42,10.6376,0.15345,0.08712
20545.89,17.2825,0.05982,0.15025
19741.72,17.1117,0.06003,0.23995
19864.63,16.9471,0.05955,0.335035
18722.82,16.7176,0.05793,0.34455
19813.66,16.3874,0.05583,0
19422.1,15.0871,0.06058,0
20079.2,14.9192,0.06136,0.09091
19780.25,12.9718,0.06984,0.1875
18930.1,12.7597,0.07009,0.48429
18876.85,12.6249,0.0667,0.529345
18611.67,11.2626,0.06432,0.611015
18976.34,11.1541,0.06103,0.318255
19987.49,11.0001,0.05969,0.432775
17579.5,10.7279,0.05243,0
17871.1,10.5254,0.05292,0.02174
17930.28,10.344,0.05317,0
17910.44,10.0403,0.05471,0
17300.33,9.6364,0.05698,0
15921.22,9.4262,0.05762,0.157525
16632.92,7.6479,0.04695,0.025315
16178.28,7.3936,0.04819,0.26623
15404.94,7.2095,0.03649,0.378505
14298.42,7.0968,0.03214,0.352405
15712.99,5.5563,0.01411,0
15845.34,5.4953,0.01424,0
15148.78,5.4424,0.01436,0
14529.48,5.0396,0.01553,0
14723.71,4.9375,0.01588,0
14408.66,3.4394,0.00052,0
23772.84,2.7709,0.00065,0
24010.57,2.7172,0.00066,0
24374.16,2.6548,0.00068,0
24664.87,2.5508,0.0007,0
52915.43,362.70731,0.17041,0.134915
50077.35,361.55661,0.17086,0.14196
53442.61,361.20432,0.17094,0.20178
51561.29,360.3584,0.17124,0.1575
52186.57,359.89801,0.1714,0.15433
52005.43,357.8511,0.17231,0.47027
51648.57,357.7565,0.17222,0.27434
58969.8,353.75211,0.17373,0.11107
53744.84,353.23019,0.17395,0.098695
56370.15,351.34421,0.174,0.14073
11924.4,13.6411,0.11467,0.035
11531.89,13.6027,0.11502,0
11850.8,13.5241,0.11572,0
11814.86,13.3523,0.11718,0
9342.73,9.5613,0.15503,0
9034.14,9.4879,0.15598,0
8222.74,8.7139,0.16799,0
8421.42,8.6147,0.16966,0
8043.65,8.5395,0.17143,0.18889
8190.64,8.4199,0.17198,0.22785
8056.8,8.2205,0.17387,0.225
7604.6,8.1327,0.17496,0.212765
7110.8,7.6368,0.18509,0.041665
6993.25,6.4289,0.17027,0
7711.3,5.8964,0.1643,0
11349.24,5.8469,0.16569,0
12270.07,5.7398,0.1701,0
11812.22,5.3717,0.16664,0
11550.21,4.7534,0.18732,0
11406.82,4.7451,0.18771,0.096505
10331.55,2.9447,0.2303,0.596175
11274.48,2.8387,0.21911,0.482145
54058.75,337.52289,0.17646,0.130155
54711.01,337.22491,0.17655,0.093395
58272.86,335.59119,0.17714,0.103915
52712.91,333.7576,0.17767,0.05943
51501.7,333.11331,0.17797,0.06322
32594.93,17.5496,0.10397,0
31265.67,17.47,0.10439,0.12329
31168.31,17.3551,0.10374,0
32638.83,16.7424,0.10317,0
33194.27,16.6827,0.10354,0
36858.81,16.5542,0.10434,0
34465.22,15.2474,0.11008,0
35993.26,13.8938,0.11631,0
32820.98,13.6758,0.11818,0
36924.34,13.54,0.11932,0
36089.78,13.3242,0.1213,0
35556.74,13.0077,0.12424,0
35738.31,12.8702,0.12549,0
31313.21,11.5133,0.1371,0
29615.31,11.3856,0.13862,0
31250.92,11.2215,0.14057,0
28434.02,10.2067,0.15133,0
28804.73,10.1457,0.15186,0
19775.48,2.5287,0.20376,0
20060.94,2.5032,0.20573,0
21287.25,2.4822,0.2079,0
18962.89,2.4268,0.21212,0.4057
12509.99,2.2459,0.22254,0.205125
32075.37,7.5027,0.13736,0
36280.54,6.7122,0.14118,0
36088.81,6.6091,0.14352,0
36393.47,6.3968,0.14496,0
36592.91,6.3775,0.14527,0.191175
37595.34,6.1743,0.13739,0
37283.11,5.9276,0.13735,0
40500.7,5.3106,0.14755,0.137615
39478,5.1335,0.14837,0.43484
41913.16,5.1053,0.1469,0.085105
42283.66,5.0127,0.14889,0
53392.97,314.8949,0.18233,0.05797
50705.79,313.035,0.18297,0
54961.53,311.17691,0.18374,0.02809
55336.35,308.8042,0.18491,0
52597.66,307.86841,0.18471,0
79162.94,307.1087,0.18472,0
50970.71,303.69351,0.18537,0
55189.95,303.27649,0.18562,0.004545
53544.35,299.1217,0.18685,0.080385
54890.96,298.54459,0.18711,0
55232.55,297.28571,0.18782,0
10586.64,9.0755,0.17525,0.05
9775.99,9.0537,0.17551,0.25
9915.35,8.9998,0.1749,0.42052
10631.01,8.8697,0.17481,0.466245
8963.43,7.4299,0.18224,0.480355
8859.1,7.1671,0.17158,0.565485
8241.14,7.0976,0.16785,0.519315
7877.05,6.8183,0.16926,0.24803
8011.94,6.6888,0.16916,0.194325
8446.95,6.4685,0.16711,0.45956
8459.65,6.2038,0.16196,0.639535
8919.14,6.0599,0.1506,0.99
9059.83,5.8622,0.13909,0.985715
54993.1,288.10901,0.18828,0.093925
18501.5,5.9581,0.15853,0
20752.83,5.9516,0.1587,0
19878.5,5.8292,0.16213,0
19441.45,5.7604,0.16397,0
17278.64,5.2792,0.18014,0
17701.51,5.2057,0.18127,0
18317.27,4.0712,0.23101,0
20838.27,4.0649,0.23137,0
15804.15,4.053,0.23209,0
13246.71,3.9196,0.24021,0
12090.95,3.8908,0.24138,0
11754.52,3.718,0.2512,0
9069.22,3.4478,0.27154,0
7810.17,3.4172,0.27397,0
7463.15,3.4073,0.27476,0
6994.33,3.4028,0.27513,0
6865.48,3.3965,0.27549,0
6911.46,3.3571,0.27918,0
6882.14,3.3126,0.28189,0
6735.44,3.2499,0.28788,0
7427.48,3.1565,0.29656,0
10267.28,3.0623,0.30676,0
10342.07,2.9257,0.31558,0
10559.18,2.8096,0.33355,0.10952
11348.14,2.6059,0.35494,0.589285
54157.88,281.71851,0.18912,0
52725.46,280.45889,0.18993,0
50109.45,279.70859,0.19046,0.05747
52261.55,276.93201,0.19178,0.333335
51614.34,275.31671,0.19259,0.177085
45677.99,269.96771,0.19201,0.03322
9512.57,12.682,0.33913,0.145835
9509.06,12.6757,0.33923,0.328945
8837.85,12.5839,0.3415,0.25412
8486.77,12.5421,0.34174,0.39119
9473.67,4.2304,0.2913,0.883115
9030.56,4.2074,0.28816,0.385935
9048.56,4.1277,0.28828,0.057145
9589.68,4.0179,0.29663,0.418705
8856.4,3.8399,0.3083,0.389655
8577.28,3.8037,0.30786,0.076925
8190.94,3.718,0.31356,0.52406
8230.86,3.675,0.3131,0.419665
7713.92,3.5889,0.31493,0.14028
6290.31,3.2644,0.33796,0.18421
6484.7,3.1999,0.34163,0.46509
7293.89,8.2257,0.36737,0.69466
7203.73,8.1337,0.36615,0.474155
5707.3,7.9755,0.37024,0.210855
5677.64,7.8681,0.37358,0.199075
5040.82,6.9599,0.39938,0.297495
5298.9,6.8996,0.40081,0.534205
42426.54,256.92181,0.185,0.006025
42116.93,256.4209,0.18513,0
41332.04,255.5325,0.18538,0.115385
41833.56,254.5363,0.18599,0.295565
41450.36,253.9339,0.18611,0.17431
47921.16,252.7764,0.18688,0.04065
38793.13,251.7868,0.18749,0.095695
38710.46,247.7019,0.18902,0.28095
32292.97,243.5062,0.1913,0.47093
40002.7,243.16541,0.1914,0.31314
33105.92,242.7588,0.19133,0.477375
33439.94,242.2948,0.19126,0.558685
33838.69,240.6006,0.1903,0.825
33090.66,234.02589,0.19463,0.615965
12655.35,83.4017,0.19352,0.12957
22352.08,81.9381,0.19548,0.32114
14218.33,81.1729,0.19644,0.079835
13915.25,80.3332,0.19791,0.218695
11547.69,79.0387,0.1986,0.40271
11059.2,78.3692,0.19765,0.442505
12856.79,77.0091,0.19668,0.817305
6959.25,10.5519,0.22589,0.88889
6973.55,10.5024,0.22332,0.761565
7046.13,10.2875,0.22221,0.849055
7236.35,9.8452,0.22055,0.955555
7235.69,9.6431,0.21667,0.935485
7347.38,9.4189,0.21358,0.99
7383.5,9.2301,0.20712,0.98718
7210.69,9.0864,0.20121,0.99
7624.28,7.577,0.17478,0.99
7772.31,7.4728,0.16883,0.99
8139.94,7.3734,0.16197,0.99
9740.7,66.1723,0.19145,0.56313
9116.25,64.1198,0.19724,0.651395
9208.01,63.3342,0.19753,0.716935
9709.89,63.1591,0.19605,0.767035
9785.73,62.5622,0.19261,0.463885
11397.42,60.4544,0.19484,0.666665
11440.95,60.1823,0.19396,0.526315
9730.73,56.3964,0.18989,0.161845
9570.74,53.9721,0.19389,0.13961
9430.1,51.4577,0.19397,0.463615
9033.05,50.9355,0.19547,0.38662
9169.45,50.3594,0.19389,0.18266
9641.42,48.1717,0.20023,0.241165
9439.42,46.9974,0.2033,0.331265
9850.31,46.5546,0.20423,0.25263
9274.89,45.782,0.20672,0.49338
9379.24,45.0689,0.20709,0.333335
10079.16,11.7397,0.27034,0
9475.62,11.7084,0.27096,0
9201.7,11.6248,0.27309,0
8651.54,11.5354,0.27509,0.131405
7956.48,11.369,0.27826,0.37681
7868.75,11.26,0.27908,0.189875
7665.18,10.7582,0.27831,0.285715
8554.9,10.5099,0.28436,0.80089
8451.35,10.447,0.28184,0.73721
6899.35,10.1989,0.2818,0.565555
7137.23,9.973,0.2783,0.478265
6883.23,8.7892,0.29119,0.60863
6088.16,4.104,0.25615,0.6034
7453.94,4.0113,0.24899,0.40745
7040.85,3.5028,0.24938,0.41349
12155.26,3.1658,0.24912,0.47942
12526.98,3.138,0.24719,0.598215
7264.8,4.5731,0.31691,0.13158
7592.38,3.9729,0.35167,0.551945
8291.16,3.9379,0.35014,0.49014
8566.47,3.1885,0.33701,0.892855
9041.35,33.3269,0.18483,0.216835
9314.55,32.2632,0.18946,0.139915
9181.8,30.117,0.19621,0.352825
9795.51,27.6935,0.20491,0.58629
9415.04,27.4883,0.20593,0.414685
9364.02,27.1394,0.2063,0.247835
9129.65,26.7599,0.20852,0.472265
9610.3,20.749,0.23566,0.34299
8990.02,20.0856,0.2336,0.383335
8445.12,19.4975,0.23876,0.207855
8429.48,19.276,0.24007,0.236865
7702.34,3.8269,0.03819,0.544645
7786.69,3.8152,0.03711,0.641305
8478.15,3.7384,0.02801,0.99
8019.37,3.6761,0.01916,0.569565
8236.86,3.6374,0.01317,0.203305
9278.27,15.2416,0.29276,0.560345
8868.55,14.5482,0.30118,0.53846
8914.47,14.4327,0.30377,0.565535
8892.51,14.2813,0.29998,0.53172
10694.33,2.8544,0.12799,0.99
10991.21,2.8126,0.11828,0.99
10825.02,2.1869,0.09447,0.99
10671.71,2.1369,0.07267,0.99
11109.99,2.0823,0.05195,0.931945
12006.02,1.9832,0.02193,0.636365
13307.95,1.7554,0.01291,0.45956
13171.99,1.7122,0.00527,0.275
8330.22,11.0979,0.343,0.54612
8318.11,11.0376,0.34074,0.600945
8904.64,10.7609,0.34435,0.76147
9091.62,10.5094,0.3413,0.827585
9024.64,10.3609,0.3377,0.623
9380.09,8.5727,0.38965,0.469865
9425.95,8.397,0.39746,0.5303
8990.6,8.236,0.39919,0.62238
7972.21,7.4312,0.42071,0.469255
7934.09,7.3332,0.4234,0.4
6772.47,4.159,0.36955,0.839555
7152.25,4.0904,0.36432,0.886365
7602.24,4.0023,0.35823,0.90476
43158.26,150.14191,0.19491,0.43214
23999.99,148.12,0.1927,0.447415
26041.8,147.84309,0.19178,0
25760.23,147.7095,0.19122,0.05
22058.84,146.8765,0.19017,0.331405
27056.55,146.5612,0.19014,0.17757
6947.36,6.2646,0.19557,0.25447
6998.99,6.2085,0.19518,0.21875
7713.09,6.1066,0.193,0.57143
7843.95,5.1548,0.19264,0.62006
7816.15,4.9619,0.1922,0.296755
7795.17,4.7863,0.19405,0.205125
7596.85,4.6478,0.18577,0
7486.5,4.3357,0.17174,0.298965
7674.18,4.2205,0.16958,0.260455
7592.81,4.0944,0.17189,0.69836
8232.42,4.0141,0.15919,0.57547
8514.63,3.8567,0.15693,0.891565
24905.25,139.6653,0.1884,0.140925
22634.47,139.09081,0.18883,0.56605
28886.3,138.5061,0.18825,0.141245
11747.55,10.8033,0.16588,0
10929.45,10.7658,0.16632,0.15476
10699.86,10.5103,0.16953,0.25517
10438.47,10.207,0.17264,0.29543
10016.57,10.1171,0.17202,0.461905
10198.43,9.89,0.16877,0.51776
10278.01,9.7276,0.16498,0.32502
18520.32,127.3781,0.19029,0.678425
18442.09,126.7247,0.18939,0.455455
20972.27,125.5137,0.18693,0.402435
18244,122.8683,0.1865,0.571585
19422.68,122.5726,0.18593,0.439635
18097.88,121.6666,0.18626,0.367675
14067.28,24.6392,0.14633,0.3737
15517.88,24.5842,0.14587,0.71901
15026.33,24.4038,0.14285,0.47392
14862.34,23.9733,0.14153,0.598215
14841.35,23.6114,0.13984,0.64151
15869.67,23.3391,0.13917,0.76923
13840.94,23.1368,0.13694,0.598945
13821.83,22.4001,0.13589,0.54976
14740.56,22.0924,0.13381,0.856055
14075.04,21.3296,0.1282,0.99
14083.03,20.772,0.12507,0.89091
14376.43,20.4905,0.12063,0.86747
12634.23,19.6391,0.11381,0.730335
12148.88,19.1661,0.11268,0.538125
11409.2,18.4292,0.11278,0.56017
10885.05,17.9491,0.1062,0.522795
11652.88,17.8338,0.1047,0.555375
10805.26,17.546,0.10179,0.538515
11165.48,16.6887,0.10053,0.92414
10752.71,15.8817,0.09815,0.923075
11425.98,6.0809,0.1364,0.5314
11550.32,6.0577,0.13484,0.520835
11584.06,5.8921,0.13306,0.17285
11430.27,5.6001,0.13793,0.507475
11323.32,5.5032,0.1357,0.692525
11732.81,5.3183,0.13216,0.41146
11401.31,5.1226,0.13287,0.6307
11003.23,4.5025,0.12752,0.68254
11301.7,4.4431,0.12202,0.36264
11084.75,4.3822,0.11721,0.033335
15354.91,96.9291,0.19628,0.83278
15930.94,95.7309,0.19505,0.813685
14645.95,18.4948,0.1846,0.563975
15179.9,18.3856,0.18171,0.720125
14236.67,18.2404,0.17749,0.654635
14235.95,17.7525,0.17055,0.441435
14432.07,17.3177,0.16498,0.42392
13717.78,16.9427,0.16208,0.572945
14801.6,16.8207,0.16004,0.71642
14420.39,16.3803,0.1559,0.59649
13559.02,16.1493,0.15504,0.18644
13200.88,15.5778,0.14895,0.403385
12988.16,15.389,0.14759,0.52323
14895.4,15.2175,0.14408,0.946235
13918.53,14.9185,0.1404,0.885055
12532.06,14.2065,0.13217,0.91209
12618.72,13.9608,0.12495,0.912
11972.87,13.2874,0.11589,0.742425
11688.28,13.0603,0.11214,0.56247
11797.91,12.8753,0.10698,0.71642
10380.17,12.1541,0.09743,0.50987
10129.44,11.9765,0.09558,0.28758
10605.36,11.6717,0.0935,0.79798
11223.87,11.3837,0.08254,0.97647
11308.01,11.144,0.07453,0.895695
10318.98,10.4777,0.06965,0.567675
10751.15,10.102,0.06142,0.38314
11590.39,9.0815,0.05913,0.34296
12116.31,8.9794,0.05777,0.26348
13626.51,77.1798,0.19722,0.42288
12758.13,75.679,0.19902,0.5391
12065.31,17.7802,0.16541,0.210015
11552.95,17.7212,0.16504,0.516885
12526.52,17.4738,0.15691,0.43771
12398.43,17.2986,0.15571,0.31901
9731.34,16.9767,0.15368,0.262745
9079.24,16.2567,0.15043,0.3713
10101.45,15.8254,0.14708,0.20929
9432.09,15.4337,0.14763,0.337645
9758.59,15.1178,0.14395,0.201025
8981.9,15.036,0.14385,0.290595
8619.71,14.5577,0.14217,0.564105
7963.81,13.8249,0.13867,0.68466
9955.56,13.7728,0.13617,0.90909
10379.67,13.477,0.12834,0.69369
11482.19,13.0832,0.11751,0.57983
11820.55,57.6789,0.20822,0.25708
11770.53,56.7356,0.20763,0.367385
11949.25,56.4427,0.20825,0.53846
12616.49,54.5226,0.21529,0.24917
12636.05,53.7512,0.21625,0.243205
13182.65,21.7268,0.20419,0.12304
12325.72,21.5866,0.20452,0.263345
12456.04,21.2851,0.20285,0.491875
12486.79,21.0308,0.20187,0.37143
12385.24,20.6167,0.19697,0.46091
13388.33,20.2164,0.19271,0.37862
12165.06,19.1262,0.19703,0.23217
10395.03,18.7955,0.19257,0.263965
8837.12,18.3408,0.18655,0.037315
8838.18,17.1944,0.1729,0.015685
10305.39,16.6808,0.16643,0.255355
11552.17,16.0059,0.1685,0.433925
12860.82,15.9097,0.16629,0.15278
12543.28,15.294,0.1499,0.23021
13275.96,8.4596,0.15502,0.39935
13288.13,8.4081,0.15202,0.11645
13275.48,8.3387,0.15046,0.151515
14632.56,7.7561,0.1034,0.422305
15383.18,7.6619,0.09749,0.233845
16567.54,7.5102,0.09315,0.617055
16962.7,7.3874,0.08523,0.86108
16814.34,7.1449,0.06965,0.529165
19114.66,6.7212,0.06468,0.923075
18069.33,6.5672,0.06442,0.385305
17425.52,6.4758,0.06247,0.170275
17568.36,5.0537,0.07747,0.44419
17908.86,4.9843,0.07426,0.56176
19643.94,3.1611,0.08454,0.742425
21210.25,3.0844,0.07592,0.685715
21843.3,3.005,0.05993,0.666665
28605.63,2.8756,0.05119,0.59722
30887.15,2.5999,0.03495,0.534485
29726.67,2.4502,0.00593,0.37931
31016.76,2.3537,0,0
12851.76,31.766,0.22468,0.28914
11602.14,31.2124,0.22611,0.467855
12175.24,30.4092,0.22609,0.218135
8807.59,30.1513,0.22632,0.418105
8878,29.4222,0.22243,0.128975
8828.72,28.697,0.21523,0.39228
9043.08,27.1921,0.2201,0.663985
8254.39,26.7552,0.22192,0.465855
7507.25,26.4991,0.22043,0.39772
8070.72,9.4549,0.20965,0.154165
7398.5,9.4108,0.20994,0.375
8076,8.4446,0.22258,0.458105
7872.28,8.3865,0.22144,0.513015
7480.57,8.2807,0.21897,0.591825
7725,8.1526,0.21229,0.62207
7178.28,7.9003,0.19477,0.75682
7028.17,7.7682,0.19144,0.674785
5994.59,7.4897,0.17541,0.587905
6834.35,7.4182,0.1721,0.85357
9456.64,6.972,0.1646,0.99
9664.44,6.8519,0.15394,0.99
15246.3,5.901,0.15047,0.61211
16406.47,5.3052,0.14259,0.92
21886.47,3.658,0.13076,0.90164
22152.41,3.6183,0.12348,0.867925
22826.79,3.5542,0.11072,0.779815
23049,3.4607,0.09781,0.7753
22003.38,3.0869,0.08027,0.547285
22589.48,3.0162,0.07359,0.44525
23108.87,2.9025,0.0678,0.41026
8086.23,16.7556,0.2261,0.55509
8301.49,16.6036,0.22318,0.716255
8141.55,16.3929,0.21888,0.574145
7243.42,15.799,0.20768,0.64025
7318.08,15.6816,0.20424,0.358245
7514.41,15.1485,0.19901,0.55647
10215.4,14.6811,0.19665,0.627305
11002.29,14.0297,0.1856,0.42035
11941.42,13.4615,0.18655,0.18401
10637.24,13.1837,0.17762,0.326195
10657.63,13.041,0.17286,0.42857
11703.37,12.5935,0.16106,0.475
12547.64,12.4135,0.15677,0.747915
11891.72,11.728,0.15021,0.71617
20483.1,11.3305,0.13869,0.86607
19368.74,11.2023,0.13367,0.78993
10113.21,4.7664,0.15826,0.45103
10321.51,4.6982,0.15531,0.46642
11894.82,4.5356,0.15452,0.753835
13133.37,4.3386,0.13918,0.65517
14074.61,4.2051,0.11679,0.595505
14649.17,4.0799,0.10811,0.675
14396.54,3.6151,0.117,0.488405
14267.38,3.5811,0.11435,0.36
15314.23,3.4149,0.0938,0.366195
15659.46,3.2882,0.08047,0.32916
18332.1,3.049,0.07108,0
15818.91,2.3652,0.08963,0
16967.88,2.3631,0.08969,0.26061
16838.73,2.2678,0.08842,0.234955
22856.64,6.3353,0.10677,0.566655
23361.98,6.2736,0.1021,0.714285
25146.61,6.2384,0.1004,0.916665
26091.19,6.1379,0.09252,0.90909
26242.5,5.8109,0.08196,0.833575
26956.93,5.4537,0.07782,0.649125
27359.14,5.3672,0.06791,0.549155
30428.36,4.9915,0.0634,0.40171
30270.67,4.6978,0.03337,0
30416.45,4.6625,0.03362,0
30553.85,4.5258,0.0346,0
32715.81,3.9181,0.03999,0
32774.76,3.8034,0.0412,0
10197.92,12.1555,0.20972,0.05134
9999.09,12.0009,0.21206,0.05565
9516.33,10.1866,0.24755,0.06857
8348.38,10.1035,0.24942,0.07962
7866.73,9.2916,0.26963,0.16807
7760.72,9.2062,0.27172,0.03818
7594.32,9.1323,0.27378,0.03277
6614.55,8.7973,0.27499,0.03522
7099.37,8.6694,0.27681,0.08258
6510.72,8.3339,0.27903,0.0375
6169.87,8.1367,0.2643,0.15625
5800.02,7.6158,0.27886,0.061185
5418.19,7.5344,0.2811,0.14847
5502.65,7.4691,0.28278,0.239025
5733.33,7.3517,0.28538,0.037085
6017.19,6.7846,0.26071,0.075845
5878.33,6.0865,0.24091,0.060715
5717.54,6.0178,0.2428,0.107465
6311.81,5.9559,0.24461,0.188045
11590.39,36.4576,0.19545,0.0863
11493.08,34.4806,0.20552,0.06271
11931,34.3796,0.20603,0.052595
13352.5,34.12,0.20751,0.0347
12626.03,32.6148,0.21482,0.008065
11941.67,32.0106,0.21806,0.071715
12215.95,30.0401,0.22732,0.16667
11146.56,29.8141,0.2289,0.124835
10770.2,29.6585,0.22981,0.06676
11011.03,28.5912,0.23807,0.07681
11180.11,27.3933,0.24722,0.016805
9924.07,27.2029,0.24895,0.21513
10745.79,26.2002,0.25725,0.15451
10169.51,25.7539,0.26114,0
10985.81,2.9427,0.00061,0
10394.06,2.9213,0.00062,0
9962.49,2.8665,0.00063,0
9899.07,2.8021,0.00064,0
10083.59,2.714,0.00066,0
9345.49,2.513,0.00071,0
9431.07,2.4473,0.00073,0
11462.46,22.6798,0.29643,0
12544.37,20.6285,0.31047,0
13768.96,20.4871,0.31263,0
12457.78,18.0131,0.33668,0.117645
12340.48,15.9778,0.3506,0.035295
12280.83,15.8631,0.35294,0
11990.06,15.73,0.35572,0
10863.33,13.6724,0.39787,0
10634.47,10.5316,0.40907,0
10385.43,10.3685,0.41391,0
10546.81,10.2024,0.41911,0
9913.31,9.865,0.43308,0.025425
9924.45,9.5939,0.43402,0.2093
9842.41,9.5233,0.43589,0
9647.82,9.1579,0.42661,0.44186
8901.46,11.0253,0.38382,0.04185
8896.52,10.9244,0.38725,0
6930.94,10.6053,0.38514,0.266665
7360.39,9.8128,0.38739,0.270835
7146.13,9.3198,0.38476,0.269565
6915.86,9.0473,0.37525,0.166665
7058.45,8.874,0.37302,0.609075
7317.83,8.5489,0.36127,0.52485
6932.17,8.3703,0.35423,0.22256
6508.16,7.9554,0.34928,0.490305
6434.69,7.7204,0.34004,0.318715
6432.16,7.6355,0.33963,0.36709
5502.27,6.2604,0.3482,0.376035
5947.18,6.0978,0.34906,0.333335
5841.37,5.8925,0.34403,0.40625
6294.33,5.4215,0.33411,0.67335
6170.25,5.349,0.33132,0.75087
6605.08,4.3136,0.39307,0.083365
6952.89,3.8795,0.42161,0
6933.11,3.7943,0.42908,0
7197.74,3.7488,0.4343,0
7506.38,3.6818,0.44352,0
7499.64,3.5789,0.45736,0
6820.5,3.3158,0.49267,0
7736.15,10.0239,0.44021,0
7939.23,9.9871,0.44175,0
9307.93,9.6664,0.4549,0
9280.54,9.6436,0.45592,0
9276.72,9.2216,0.47767,0
8068.39,7.3224,0.48173,0
8286.32,7.2652,0.48545,0
8338.57,7.2125,0.48899,0
7877.18,5.3929,0.48486,0
7818.61,5.3728,0.48665,0.14634
8279.41,5.3372,0.48867,0.226985
8117.26,5.2942,0.49046,0.06331
9261.65,4.5803,0.56037,0.185185
9289.08,4.5647,0.56122,0.078125
9339.01,4.3417,0.57234,0.10694
9548.32,4.2576,0.579,0.4652
10574.22,4.2268,0.58035,0.69697
11119.67,4.1995,0.5788,0.61111
11262.06,3.3911,0.53014,0.588315
11792.45,71.1767,0.31921,0.4625
10688.4,70.9963,0.3199,0.052195
14484.03,70.6509,0.32134,0.08244
12614.09,68.7868,0.32944,0.086155
11662.98,67.9565,0.33311,0.126665
13807.29,66.8494,0.33397,0.1046
12780.77,63.7769,0.34494,0.149335
10068.63,60.0763,0.36126,0.11384
12719.21,59.6773,0.36239,0.222785
14025.09,58.1164,0.36711,0.171105
10784.38,57.5671,0.36846,0.128855
9615.9,55.1475,0.37842,0.0936
10189.38,54.5035,0.38108,0.11633
10293.9,53.7005,0.38518,0.20746
10210.46,53.151,0.38688,0.27
9558.09,52.7812,0.38701,0.22443
14302.16,52.2232,0.39042,0.0875
14502.95,50.6167,0.39764,0.19618
8242.25,50.2435,0.39818,0.34978
7846.81,49.7145,0.39813,0.508675
8191.25,49.127,0.39851,0.53186
8287.97,48.7347,0.39969,0.52608
8440.9,48.0699,0.40272,0.6
8848.92,46.5795,0.41102,0.99
8175.03,46.3744,0.41281,0.56734
8483.8,46.1334,0.41434,0.135755
7310,43.5911,0.40479,0.40714
7537.82,43.3104,0.4068,0.177545
7668.25,42.8091,0.41012,0.372255
6864.98,42.5227,0.41137,0.362355
6726.68,40.304,0.41276,0.198875
7280.55,40.0772,0.41428,0.18419
6552.45,39.9713,0.41505,0.298745
6440.33,38.575,0.41779,0.57784
6849.26,38.1985,0.41496,0.43188
6968.37,36.5204,0.42025,0.67258
6773.5,36.3277,0.41881,0.243995
6490.01,35.7882,0.41817,0.38585
5831.29,33.9841,0.41006,0.5641
6077.84,32.1406,0.40604,0.99
6127.73,31.0799,0.39311,0.480875
7920.9,30.5038,0.39113,0.180055
6099.01,29.8309,0.38712,0.528325
6868.35,29.6035,0.3855,0.777055
6912.8,27.6861,0.37638,0.538315
7472.78,24.7494,0.38291,0.727015
7243.19,24.6535,0.38157,0.606385
6762.15,24.4362,0.37943,0.600795
7089.78,24.0323,0.37809,0.568835
7121.53,8.2612,0.3031,0.767855
6873.04,8.236,0.3017,0.13148
7307.19,7.9692,0.30184,0.32502
6519.54,7.8014,0.29469,0.472855
8197,7.2413,0.2811,0.99
8586.1,6.9478,0.26126,0.9
7482.13,6.7511,0.25156,0.11111
7985.73,6.5425,0.23867,0
8359.52,6.5204,0.23887,0.6875
9144.26,6.3904,0.22888,0.85313
6341.43,15.5532,0.41879,0.54412
6636.62,15.427,0.41925,0.52176
6229.82,15.1282,0.41894,0.38655
6337.18,14.6915,0.42008,0.1127
8733.86,11.1816,0.34051,0.14731
10172.2,3.5686,0.05541,0
9464.19,3.5508,0.05564,0
8466.22,3.5071,0.05627,0
8558.98,3.441,0.0575,0.03896
7301.8,3.3873,0.05691,0.48106
7029.22,3.335,0.05109,0.31579
6409.11,3.2247,0.04927,0.04706
5480.09,3.0353,0.05127,0
5508.6,3.0017,0.05181,0.28017
4969.48,2.9069,0.04821,0.265
23366.79,10.5933,0.07949,0
20965.52,10.5268,0.08,0
19641.34,10.4372,0.08079,0
22493.93,10.2782,0.08147,0.009615
18941.58,10.0293,0.07608,0
5873.1,8.7499,0.12098,0
5457.64,8.7077,0.1215,0.09091
4763.27,8.626,0.12171,0
4917.12,8.5228,0.12286,0.014085
5050.38,8.4377,0.12406,0.060605
4274.57,7.9674,0.12856,0.11111
7463.3,4.5625,0.2056,0.276655
6777.55,4.5286,0.20497,0.475515
8248.51,4.4432,0.20417,0.59815
8636.29,4.3765,0.2009,0.496425
8374.56,4.0827,0.20066,0.453335
8256.48,3.9401,0.18451,0.58679
9052.74,3.2003,0.21113,0.99
19915,20.867,0.37497,0
19702.32,18.715,0.38559,0.052565
25369.53,18.2675,0.39183,0
17320.93,12.7968,0.36331,0.01923
16197.07,12.6443,0.36741,0.021505
16114.27,12.2525,0.37214,0
12335.74,11.461,0.38388,0
11520.86,11.2619,0.38806,0
10461.62,11.0822,0.39433,0
9101.09,10.7565,0.40112,0.02299
8711.18,10.6422,0.40393,0.19815
8695.6,10.2224,0.39285,0.155545
8751.88,9.9518,0.39265,0.61875
9936.03,9.8415,0.389,0.64706
10144.18,9.5772,0.38147,0.658825
9813.24,9.2201,0.37569,0.99
9844.42,8.3242,0.3637,0.99
9770.15,8.3005,0.3617,0.99
9880.13,8.2381,0.35689,0.97561
3933.4,45.3212,0.46248,0
7181.71,44.9006,0.46461,0
7194.29,42.783,0.45955,0
8484.64,41.0318,0.46573,0.013395
9213.79,40.6623,0.46658,0.215605
11462.98,2.4291,0.65479,0
9861.2,2.4253,0.65576,0.22222
9651.52,2.4048,0.66191,0.575
9745.81,2.3798,0.66073,0.526975
9915.27,2.3411,0.66397,0.572545
9792.38,2.3237,0.6646,0.433335
9949.15,2.3026,0.66614,0.3125
9856.41,2.2756,0.67155,0.555555
9806.12,2.2291,0.67259,0.49183
9929.36,2.1521,0.68207,0.503605
9960.89,2.0864,0.69661,0.633335
9661.21,37.992,0.45509,0.272725
9391.95,36.6015,0.44999,0.200835
9749.72,35.8003,0.45292,0.38857
10242.49,35.517,0.45465,0.640445
10135.27,33.6626,0.45101,0.18332
9155.27,32.9034,0.45937,0.085715
8075.77,32.163,0.46137,0.15029
6066.36,4.0267,0.46422,0
5642.76,4.0133,0.46641,0
5625.71,3.9989,0.46778,0
5585.66,3.9461,0.47408,0
5156.49,3.9107,0.47801,0
4722.61,3.85,0.4855,0
4660.59,3.8107,0.49218,0
4482.79,3.7571,0.49928,0.136365
4453.74,3.7169,0.50206,0.25
5155.32,3.671,0.50847,0.709675
5333.14,3.6464,0.50802,0.81579
8637.37,27.9265,0.46225,0.25093
9234.21,24.7256,0.464,0.66667
8745.83,22.6799,0.46165,0.294045
7910.08,22.5467,0.46334,0.11679
8221.58,22.421,0.46524,0.38028
8107.59,19.9128,0.43586,0
8062.87,19.8268,0.43776,0.071435
7721.88,17.8489,0.46234,0.294505
7586.78,17.5334,0.46409,0.60955
6797.67,17.291,0.46281,0.56225
6851.56,15.6433,0.46352,0.679245
7428.07,15.5407,0.46161,0.99
7149.94,14.7137,0.46663,0.97541
7020.6,14.0766,0.45956,0.99
7498.3,14.0026,0.45696,0.923555
6712.81,11.7675,0.47475,0.49658
6217.43,11.6471,0.47508,0.587365
6806.3,9.6801,0.45551,0.9
6698.83,9.0653,0.42202,0.80303
7016.79,8.9389,0.41799,0.99
7090.09,8.6357,0.41366,0.99
7029.85,8.5586,0.40911,0.99
5921.24,6.0941,0.39473,0.99
6544.45,5.8366,0.3717,0.99
6647.16,5.8021,0.36771,0.99
7114.89,5.5236,0.33077,0.99
7336.12,5.4451,0.32313,0.99
7246.97,5.3808,0.31243,0.99
7883.11,4.9114,0.275,0.99
7913.27,4.8713,0.26805,0.99
8664.1,4.604,0.23308,0.99
9491.89,4.5342,0.22224,0.99
9709.45,3.8234,0.18326,0.666665
9868.59,3.5703,0.13474,0.402115
9871.41,3.5203,0.13462,0.43721
11566.83,3.2491,0.13218,0.591135
12417.02,3.135,0.12152,0.698415
10815.17,3.0525,0.10574,0.49415
10739.21,2.9965,0.0987,0.72
22991.14,108.7076,0.38958,0.21948
23816.57,108.1841,0.39048,0.45251
24404.26,108.0936,0.39048,0.58499
24940.5,107.4079,0.38922,0.408825
29669.94,106.8717,0.38843,0.144345
22595.74,103.6076,0.38727,0.10142
23102.72,103.1133,0.38637,0.125275
23930.96,102.3265,0.38501,0.380955
32347.63,102.0457,0.38493,0.441745
28240.88,101.794,0.38519,0.51076
26507.43,101.2311,0.38419,0.368095
27740.03,99.8025,0.37834,0.833335
29866.27,98.9164,0.37541,0.87597
35561.58,98.2765,0.37486,0.402235
29489.34,95.225,0.36538,0.280915
31656.46,94.7369,0.36551,0.18509
13368.72,9.3339,0.16345,0.05083
12614.8,8.784,0.16275,0
12562.04,8.775,0.16291,0
12150.55,8.7487,0.1634,0
12375.1,8.6748,0.16485,0
25734.19,85.2792,0.38798,0.091305
27131.07,84.9028,0.38947,0.249595
25692.87,83.8469,0.38855,0.11045
27314.47,80.6709,0.40038,0.452615
20904.86,4.7117,0.51022,0.933335
20091.06,4.6941,0.5091,0.857145
18472.28,4.6851,0.50874,0.17111
18305.09,4.6451,0.51211,0
17868.93,4.5984,0.51772,0
17678.99,4.5498,0.52253,0.11111
17585.13,4.4999,0.52792,0.745835
15919.93,4.4676,0.52669,0.329165
15307.39,4.4442,0.52816,0.17857
14009.78,4.4067,0.53167,0.22
11779.38,4.3735,0.53368,0.01613
8593.83,3.9875,0.60375,0
8387.93,3.7169,0.62282,0.085715
8482.27,3.6948,0.62527,0.251625
8836.18,3.667,0.62742,0.25647
8526.11,2.6652,0.73533,0.44857
7953.59,2.6308,0.74147,0.469075
8338.99,2.587,0.74904,0.60952
8348.14,2.3995,0.76281,0.676065
9807.3,2.25,0.80431,0.99
9477.25,2.0803,0.80104,0.81818
9511.54,2.0368,0.80309,0.64516
9817.94,1.9882,0.81349,0.65625
9660.78,1.758,0.80371,0.578945
26754.18,75.6009,0.39345,0.857145
28869.79,75.3079,0.39244,0.740115
28838.35,74.4958,0.39095,0.37377
26501.07,69.6065,0.39178,0.073975
27226.21,69.2395,0.39343,0.27445
26993.05,65.9243,0.40301,0.221245
27308.96,64.6018,0.4051,0.346665
27446.79,61.5811,0.40273,0.39702
28121.45,55.6942,0.41316,0.41452
27080.39,55.0863,0.41653,0.15063
26454.99,54.1091,0.42173,0.34979
25817.62,51.6947,0.4318,0.268745
26850.23,47.239,0.44451,0.498625
18930.62,7.3605,0.56526,0.169935
19056.26,7.3481,0.56594,0
18193,7.322,0.56801,0
24761.83,39.024,0.42457,0.26729
18948.17,4.503,0.30054,0.03896
18478.21,4.4671,0.3027,0.214285
19754.31,4.2469,0.28162,0.07792
19191.85,4.1532,0.28324,0
19248.93,4.1505,0.28342,0
25521.46,4.1118,0.28609,0
19062.06,4.0983,0.28703,0
19268.31,4.0108,0.29276,0
19295.27,3.9037,0.2885,0
20433.09,2.8478,0.30073,0
18732.44,2.8064,0.30517,0
17971.27,2.7009,0.3172,0
18573.55,2.6235,0.32657,0
16923.76,2.6163,0.32747,0
16092.53,2.5352,0.33784,0
16168.74,2.4014,0.35586,0
16668.26,2.3762,0.35964,0
26017.3,34.3167,0.44045,0.213045
26250.54,34.1184,0.44215,0.342305
26168.86,32.9302,0.43953,0.27152
40245.83,8.9621,0.48451,0.26923
35825.98,7.4487,0.49395,0.03226
34087.56,7.4316,0.49496,0
31382.82,7.3857,0.49801,0
21826.29,6.0965,0.57015,0
19831.99,6.0446,0.57495,0.24138
16850.4,5.9646,0.58057,0.493785
16504.13,5.9322,0.58236,0.30213
16985.76,5.7831,0.59272,0
10033.18,5.4097,0.6171,0
8385.49,5.3998,0.61821,0.24405
10230.33,5.3049,0.62747,0
8930.22,5.2922,0.62885,0.2336
10037.12,4.504,0.62461,0.166235
7810.41,4.1069,0.66389,0.266665
10936.4,2.1653,0.70355,0.269095
9061.26,2.1107,0.71822,0.72222
9225.7,2.0487,0.71404,0.72222
27626.36,23.8439,0.42401,0.109705
26871.37,23.6888,0.42674,0.09217
32248.45,23.5924,0.4282,0.12624
26123.32,23.3705,0.43156,0.176275
25573.69,23.2781,0.43272,0.134605
22787.78,19.7732,0.43616,0.06235
22351.05,19.5311,0.44132,0.024795
22773.32,19.4534,0.44294,0.096745
22671.34,18.6633,0.45538,0.10185
21688.92,18.5725,0.4574,0.043095
21278.78,18.4949,0.45893,0.013335
21161.41,18.2622,0.46237,0.014195
22704.86,18.1098,0.46587,0.079365
21572.81,18.0185,0.46803,0.34282
22896.21,16.6303,0.4826,0.170795
23248.76,16.5661,0.48373,0.19858
23690.9,16.1485,0.49112,0.519085
23585.49,15.6151,0.49364,0.564815
22248.32,15.2902,0.49252,0.436465
22256.21,15.0695,0.49509,0.30503
22674.86,14.9059,0.49723,0.605675
22987.62,13.86,0.47107,0.89041
24000.4,13.7528,0.4682,0.95588
23339.42,13.5655,0.46137,0.865385
23211,13.4132,0.45856,0.809525
22859.38,13.293,0.45633,0.69388
23478.59,12.6044,0.46491,0.99
23987.52,12.3378,0.45559,0.506295
23489.96,12.2566,0.45542,0.20982
22112.74,10.7782,0.41869,0.07229
22100.85,9.9371,0.40712,0
23403.94,9.1732,0.40229,0
22253.12,8.8279,0.40361,0
22226.43,8.776,0.40638,0.02469
21119.78,8.3499,0.41789,0
20839.54,7.7898,0.41507,0
19357.84,7.5221,0.42523,0
0,0,0,0
150000,750,1,1
137732.73,548.60681,0.21608,0.055255
146193.01,547.20142,0.21649,0.186815
16792.25,52.3832,0.20939,0.064775
16625.66,44.6188,0.20996,0
14491.76,44.4605,0.21063,0
11541.81,11.1833,0.30211,0.076925
11540.97,11.1317,0.30385,0
10980.14,11.0555,0.30556,0.185185
10656.01,9.7057,0.31693,0.188935
10322.22,9.65,0.31769,0.136365
10986.59,8.7313,0.30786,0.111115
11013.14,8.6068,0.30301,0.44463
10713.65,8.4123,0.29803,0.49707
12134.19,7.9303,0.26845,0.68116
10994.11,7.8093,0.26208,0.587155
11465.53,7.542,0.26562,0.764705
11025.24,7.3697,0.25214,0.62313
9771.57,7.0373,0.24815,0.325
8752.02,6.5474,0.25189,0.14815
8728.05,6.179,0.23127,0.466385
14232.91,32.7868,0.18263,0.059315
14306.65,32.6283,0.18328,0.117145
13453.95,32.4254,0.18391,0.04795
14206.39,32.2115,0.18509,0.12407
19348.34,27.6621,0.18594,0.04216
14197.85,26.9704,0.19023,0.169565
19139.09,26.6144,0.19238,0.10286
12931.31,26.2724,0.19454,0.139805
14061.54,25.1558,0.1892,0.098745
13515.18,25.0055,0.18926,0.1468
12250.59,24.1266,0.19446,0.341825
12445.48,23.8169,0.19375,0.189805
12675.06,22.6051,0.19032,0.12086
11954,22.5325,0.19063,0.091235
14050.27,22.3257,0.19188,0.238915
10436.55,15.3608,0.16358,0.661435
9092.28,15.0357,0.16301,0.22271
9000.81,14.7172,0.16051,0
9013.56,14.5655,0.15988,0
8863.29,14.032,0.16558,0
9199.97,13.497,0.16656,0
9213.57,13.1582,0.16602,0
9428.76,12.7361,0.16451,0
9526.27,12.4545,0.16414,0
9475.61,12.2442,0.16679,0.032525
8567.43,10.8076,0.18437,0.42246
8782.96,10.5235,0.18621,0
8647.25,10.4057,0.18783,0
8793.8,8.9131,0.18649,0.0625
9562.41,7.2059,0.18793,0.21739
9684.93,7.1141,0.18905,0.239555
10238.23,6.7694,0.1969,0.477445
9261.82,6.5494,0.19876,0.41795
9171.14,6.4604,0.19843,0.554385
10040.65,5.135,0.22432,0.75498
10460.93,4.9743,0.23125,0.51875
148136.24,494.77759,0.21725,0
150000,494.49249,0.21738,0
142899.25,494.31009,0.21745,0.09918
117708.93,493.94611,0.21754,0.43707
139914.83,493.22241,0.2177,0.03226
141530.94,492.91739,0.21768,0.146005
142753.98,492.35641,0.21746,0.050575
139241.2,490.7796,0.21799,0.06426
134170.55,489.7359,0.2184,0.277175
131265.11,488.74469,0.21845,0.20636
134722.93,488.22339,0.21859,0.105265
122986.97,482.27811,0.21855,0.071175
119875.17,481.6752,0.21876,0.255305
107995.84,481.27802,0.21878,0.27005
114217.75,479.86801,0.21927,0.08955
112007.04,479.37039,0.21946,0.07738
120650.29,478.6059,0.2198,0.05488
108500.89,478.15079,0.21997,0.092235
105899.73,477.46469,0.22018,0.25332
103906.7,472.9754,0.22079,0.471325
93806.88,471.5881,0.22017,0.39074
26010.83,123.8797,0.18544,0.206555
25963.85,123.1324,0.18676,0.1452
27738.16,122.8607,0.18699,0.090245
26950.01,122.4516,0.18751,0.090345
27620.7,120.7069,0.18769,0.105525
22513.69,119.8996,0.18862,0.216955
22208.56,118.7754,0.1877,0.44543
22122.75,118.0469,0.18666,0.720945
20850.61,117.32,0.18473,0.621965
20967.87,115.9727,0.18007,0.736895
21468.98,115.0329,0.17776,0.493815
22389.89,113.6339,0.17748,0.4029
19482.39,112.988,0.17742,0.23683
20027.7,111.7364,0.17671,0.484215
17963.44,110.534,0.17615,0.461345
17542.69,109.1468,0.17537,0.568525
14752.31,13.6515,0.1377,0.5617
14508.54,13.5605,0.13462,0.44519
14545.39,13.423,0.13148,0.25175
12703.93,4.1415,0.09675,0.390875
13986.05,9.1415,0.1469,0.725
14030.89,9.1256,0.14612,0.459445
11845.89,8.9613,0.14476,0.44988
12188.71,8.8742,0.14386,0.36352
12957.03,8.5579,0.14486,0.15545
14292.31,8.3422,0.14756,0.46818
13576.35,8.2737,0.14556,0.368045
14176.54,7.8669,0.15019,0.066665
14222.62,7.757,0.15159,0.28846
13969.49,7.628,0.15339,0.633335
14241.97,7.4707,0.15169,0.762295
18069.49,95.2446,0.18009,0.36691
20495.04,94.6441,0.18002,0.606065
22835.92,87.715,0.18928,0.369235
17624.32,22.8848,0.12499,0.101655
17594.45,22.6989,0.12572,0.03077
21844.02,22.4585,0.127,0.292225
15680.74,22.2325,0.12662,0.42553
16371.57,21.9883,0.12531,0.34382
16596.91,21.8902,0.12448,0.232015
13549.67,14.3967,0.10896,0.103275
14175.15,13.6877,0.10703,0.439335
12899.16,13.3289,0.10632,0.29864
13772.09,12.8827,0.10753,0.160055
12313.04,12.7016,0.10562,0.137035
12345.7,10.2385,0.10576,0.42262
11050.91,9.1862,0.10934,0.389765
11411.11,9.1297,0.10796,0.14286
11878.02,9.0465,0.10801,0.10643
10478.56,8.7534,0.11048,0
8823.45,8.5403,0.11317,0.117425
18734.53,64.1782,0.21253,0.06496
17867.16,63.8818,0.21321,0.1562
19311.54,62.5888,0.21468,0
18333.15,57.5376,0.21549,0.21
10758.89,7.268,0.21897,0
10627.36,7.2413,0.21979,0
10636.33,7.2,0.22114,0.01695
10654.58,7.152,0.22243,0.085725
10499.86,7.0834,0.22376,0.073115
10680.29,7.0084,0.22545,0.09179
10282.43,6.9174,0.22766,0.055325
9803.18,6.8008,0.23119,0.239535
9519.87,6.6799,0.23227,0.24855
9722.75,6.4796,0.23738,0.306665
8892.86,6.0579,0.24859,0.46296
8477.03,5.7986,0.25051,0.374825
8293.64,5.5312,0.25247,0.525975
8143.63,5.2938,0.25881,0.72078
7541.6,4.2071,0.24403,0.727975
8034.86,4.1286,0.23993,0.723685
7966.33,3.9171,0.24039,0.751805
7937.05,3.7494,0.23377,0.44197
7868.33,3.5505,0.23635,0.37915
8483.56,3.1462,0.23957,0.767835
8920.28,2.9479,0.23249,0.8044
9689.3,2.789,0.23199,0.88889
10219.29,2.5331,0.2305,0.918365
13165.62,50.1496,0.21496,0.105265
10120.79,18.5697,0.29057,0
9621.1,18.4563,0.29216,0
9964.38,18.2341,0.29485,0.039475
10208.56,17.8914,0.29797,0.25118
9630.18,17.4884,0.29947,0.262945
9215.49,17.0492,0.29812,0.16418
9224.59,16.6356,0.30156,0
8730.47,16.5016,0.30355,0
9270.7,16.3381,0.30644,0.531265
9341.78,7.2743,0.3337,0.64256
9722.85,7.2267,0.33205,0
9736.65,7.1764,0.33413,0.054055
9323.56,6.8659,0.34326,0
8651.01,6.8134,0.34512,0.298075
9230.25,6.7314,0.34665,0.097345
9108.07,6.2414,0.35188,0.364405
9318.62,6.1338,0.34698,0.142855
8058.46,5.2855,0.37955,0
8084.68,5.0904,0.38528,0
6517.34,4.9685,0.39288,0.01282
5676.8,4.7337,0.40594,0
6382.7,4.6236,0.41441,0
5083.82,4.2943,0.44535,0.188885
5515.73,8.6282,0.28927,0.364585
5380.69,8.5823,0.28995,0.190475
5365.42,8.4063,0.29251,0.13889
5241.27,8.3152,0.29333,0.157895
5014.58,7.9909,0.29776,0.042255
4866,7.8972,0.29984,0
4683.26,7.7787,0.30456,0
4386.29,7.5791,0.31211,0.0375
3980.59,7.3628,0.32098,0.30769
3813.18,7.2163,0.32379,0.415385
3600.83,7.1032,0.3237,0.462965
3575.12,7.0393,0.32272,0.447815
4333.56,6.6536,0.33681,0.615385
4457.72,6.5465,0.33031,0.69565
3951.59,6.2243,0.32865,0.561405
13514.08,31.4418,0.17076,0.080355
14911.41,31.3275,0.17104,0.112995
11318.58,31.0956,0.17172,0.055675
11685.91,30.2884,0.17427,0.142345
11123.34,29.7494,0.17409,0.20408
10036.56,29.3936,0.17256,0.399035
10478.77,28.6389,0.1726,0.166665
10745.67,28.2599,0.173,0
9282.45,26.8473,0.17785,0.285715
8679.38,26.2955,0.18149,0.208955
8660.66,26.2177,0.18167,0.009435
8145.79,23.3621,0.17537,0.08108
8590.72,18.1122,0.13285,0.02794
8360.68,17.9908,0.13361,0.22034
9332.6,17.8545,0.13401,0.168225
7873.99,17.2736,0.13605,0.123455
9709.83,11.4836,0.13911,0.286255
9635.57,11.4304,0.13872,0.01818
9945.87,11.284,0.13952,0
10114.84,11.0656,0.13805,0
11042.28,10.5965,0.14447,0.398335
11534.81,10.3755,0.13742,0.57778
7193.58,8.8445,0.14739,0.52751
7274.93,8.7917,0.14598,0.358335
7267.89,8.5424,0.14346,0.420835
7059.76,4.0739,0.06756,0.314815
7514.88,4.0408,0.06596,0.284465
7489.11,3.9486,0.06376,0.44626
7185.5,3.895,0.06082,0.50303
7134.67,3.8342,0.05699,0.15314
7351.03,3.7295,0.05581,0.178825
12637.58,4.4105,0.21155,0.275
12945.29,4.3166,0.21248,0.139635
13427.28,3.3345,0.20546,0.099035
13506.7,3.2688,0.20834,0.120395
13764.41,3.1388,0.21832,0.109975
81388.47,347.44019,0.23235,0.06463
80642.27,347.27271,0.23243,0.113035
77852.92,347.0484,0.23254,0.466865
81508.07,346.7735,0.23246,0.313875
85051.8,346.1384,0.23262,0.20422
88063.49,345.58099,0.23283,0.169465
100050.58,345.0538,0.23317,0.12558
84265.26,344.46011,0.23313,0.451575
86188.63,343.9299,0.23308,0.193345
87006.62,343.2547,0.23339,0.037145
85688.78,342.7374,0.23375,0
89103.21,334.8154,0.23283,0.321005
32150.55,157.11079,0.24955,0.2563
25401.06,156.80721,0.2492,0.463255
28507.41,156.3734,0.24811,0.205745
10912.25,41.4948,0.20461,0.60343
13000.29,41.3364,0.2029,0.57582
11130.9,41.0748,0.20009,0.214965
12582.61,40.3231,0.20116,0.666665
11841.29,39.6268,0.19855,0.274655
11814.22,39.145,0.19537,0.892345
12216.98,38.7246,0.19126,0.71815
11409.06,38.2485,0.18931,0.565215
12279.71,37.2481,0.18994,0.439575
13818.97,36.6998,0.18558,0.398215
12322.54,36.3671,0.18576,0.338785
10668.52,35.0624,0.18284,0.20171
10211.55,32.9996,0.18912,0.328785
9853.72,32.2209,0.19207,0.298255
10229.29,31.2792,0.19268,0.322345
9492.31,28.154,0.2001,0.436185
8498.16,27.9784,0.1987,0.084285
8410.44,27.0209,0.20369,0.51449
8850.63,25.7987,0.21014,0.12224
8728.1,25.5841,0.21113,0.17937
8509.91,25.2688,0.21224,0.097105
7658.77,24.6102,0.21339,0.27175
7377.83,24.3319,0.21162,0.37247
6647.26,21.9878,0.21956,0.30902
6619.73,21.8178,0.21877,0.347905
6398.23,21.0807,0.22419,0.4182
6874.02,20.4355,0.22633,0.09412
6725.79,19.8677,0.231,0.316295
7055.36,19.3369,0.23454,0.50306
6880.08,19.2273,0.23386,0.193795
6963.09,18.637,0.23948,0.08741
7099.18,18.4287,0.24113,0.223725
8992.41,15.0366,0.1974,0.48901
9160.78,14.4331,0.17951,0.517645
9383.7,14.3618,0.17772,0.43124
8868.39,12.3741,0.1694,0.28889
9279.77,11.7839,0.17837,0.460255
9575.51,11.7201,0.17667,0.4721
16140.18,10.5964,0.15423,0.217785
15686.2,10.4331,0.15581,0.161185
16917.8,9.8566,0.16251,0.312775
16724.62,9.3536,0.16943,0.488905
15561.53,8.8044,0.17566,0.14232
15499.38,8.6205,0.17802,0.31222
16797.5,8.066,0.18428,0.62712
18721.49,6.1342,0.13935,0.031525
19170.87,6.1028,0.13986,0
19214.3,5.9343,0.1439,0.046875
18854.21,5.6476,0.15024,0.26923
19098.05,5.5947,0.14853,0.17143
23307.08,114.4659,0.26274,0.353695
26470.36,114.0018,0.26222,0.392125
19288.73,113.3166,0.26204,0.60712
19630.3,112.5978,0.26151,0.866335
19283.87,111.9809,0.25976,0.897945
19248.67,109.5707,0.25915,0.99
19364.41,109.0462,0.25802,0.99
19442.2,108.3557,0.25842,0.9375
19849.08,107.7991,0.25914,0.944785
19365.74,106.9819,0.25949,0.80155
18552.49,103.9138,0.26319,0.77922
18997.34,102.2068,0.26254,0.705385
7509.9,9.5183,0.4205,0.6914
8120.12,9.4557,0.41986,0.39386
8301.08,9.3752,0.42098,0.329835
9025,9.3107,0.42275,0.20059
7905.63,9.2017,0.42517,0.04415
8059.36,8.9758,0.42765,0.0625
7291.97,8.6797,0.43367,0.11905
7219.16,8.5843,0.43515,0.377215
7407.93,8.3811,0.42749,0.324325
7868.04,7.0087,0.46089,0.45718
8002.63,6.9055,0.45919,0.475095
8463.04,6.6332,0.44665,0.660205
9528.11,6.4366,0.44243,0.73016
9925.33,6.2379,0.42977,0.99
9249.36,5.3546,0.4422,0.99
8923.05,5.0062,0.43258,0.99
9021.6,4.8684,0.4199,0.99
9386.86,4.6955,0.40667,0.99
9174.01,4.4346,0.38866,0.99
9025.31,3.8056,0.41722,0.99
21756.88,92.2541,0.24577,0.73208
17702.35,91.4116,0.24627,0.950355
15780.38,78.9449,0.22761,0.634345
16821.19,2.6542,0.29447,0.551135
17076.28,2.6384,0.29394,0.42072
16293.66,76.1945,0.22498,0.57353
14712.44,75.9659,0.22431,0.493085
14989.46,75.6987,0.22371,0.41538
12353.12,4.796,0.15918,0.34375
12657.8,4.7831,0.15894,0.42328
12672.18,4.7334,0.15742,0.34375
13278.89,4.6463,0.15917,0.507545
14618.87,4.5135,0.14956,0.384925
15809.49,4.0498,0.12132,0.77647
14325.4,3.9727,0.11679,0.465805
14120.53,3.8931,0.11403,0.360715
13910.14,3.8321,0.11029,0.258065
13757.39,3.7687,0.11014,0.291665
13318.9,3.6666,0.10831,0.28431
12390.69,3.3179,0.09168,0.195075
12595.88,3.2203,0.09218,0.21875
12455.51,3.0653,0.09542,0.250715
11598.72,2.8244,0.08422,0.433335
10640.5,2.4882,0.08959,0.444445
15364.82,70.1368,0.22749,0.26461
7384.38,6.5752,0.22617,0.166665
6665.56,6.551,0.22671,0.39785
6952.1,6.4592,0.22284,0.50582
6802.99,6.3736,0.22055,0.63946
7454.5,6.2652,0.2177,0.793105
7496.25,6.1756,0.21586,0.8125
7330.15,6.1325,0.21436,0.349485
6792.69,5.99,0.21653,0.35441
6402.06,5.86,0.2194,0.397725
6488.68,5.8055,0.21876,0.42197
6214.01,5.7381,0.21813,0.232955
6338.95,5.7054,0.21823,0.403125
5827.31,5.671,0.21713,0.35823
6103.48,5.6279,0.21599,0.3745
15913.68,63.486,0.22765,0.554745
14376.83,62.9216,0.22639,0.38095
14670.18,62.1635,0.22319,0.81356
15229.36,59.8776,0.21805,0.87574
14626.68,59.6163,0.21674,0.78989
12948.47,18.9466,0.20584,0.99
11971.88,16.9488,0.21661,0.99
11309.72,15.8942,0.21335,0.98148
10288.32,9.7148,0.24694,0.69665
9256.74,9.2577,0.2449,0.429135
9269.48,9.1349,0.24279,0.42623
7852.1,6.6872,0.26143,0.60889
7938.87,6.6121,0.25663,0.714285
7389.27,6.5487,0.25183,0.393055
8318.66,6.4599,0.24699,0.29963
7935.69,6.3392,0.2429,0.64706
14934.06,40.1882,0.21649,0.99
13124.95,39.7874,0.21693,0.84778
14259.89,39.6494,0.21497,0.813725
13868.55,39.4922,0.21362,0.77711
12421.54,38.6673,0.21383,0.960265
12119.94,36.6936,0.20775,0.971965
11851.47,35.6339,0.20521,0.924
10858.1,33.8925,0.19809,0.95946
10152.05,32.9762,0.19327,0.857145
10016.04,32.5224,0.19506,0.786665
16629.95,14.7834,0.133,0.57885
16703.7,14.7378,0.13138,0.72583
16230.57,14.5132,0.12859,0.75263
16216.86,14.4438,0.12542,0.631865
16340.59,14.1666,0.11661,0.55074
17136.38,13.9435,0.11491,0.77686
15228.68,13.8136,0.11149,0.38608
11152.83,2.8653,0.22246,0.180555
10701.75,2.8563,0.22274,0
10640.27,2.84,0.22351,0.207015
10353.63,2.7005,0.23645,0.301475
11193.7,2.6547,0.23661,0.290325
11396.55,2.6322,0.23564,0.781315
12897.87,10.8682,0.0805,0.11464
12341.23,10.7013,0.081,0.048195
10172.15,17.6537,0.24382,0.417165
10338.86,17.586,0.24301,0.627585
7672.93,17.0611,0.2464,0.56994
7478.78,16.9953,0.24485,0.53791
7694.35,16.8614,0.24227,0.529915
9549.48,4.9184,0.32815,0.88889
9412.11,4.9008,0.32555,0.588235
8963.68,11.7466,0.20568,0.515875
6288.27,8.1347,0.27728,0.381015
6204.69,8.0714,0.27697,0.429825
7132.84,7.7653,0.28305,0.885055
7989.8,7.7192,0.2796,0.77143
7835.24,3.8354,0.18657,0.49123
7867.23,3.8128,0.18447,0.68276
8313.65,3.1024,0.20652,0.73077
9002.54,3.0785,0.20607,0.944445
7911.12,3.0613,0.20223,0.564105
7870.06,3.0155,0.20202,0.25
7383.57,2.9943,0.20156,0.458335
58801.26,177.13921,0.21822,0.39487
69672.02,174.1129,0.2144,0.4151
14206.64,11.8034,0.26048,0.70645
14455.39,11.7619,0.25888,0.419645
14825.68,11.6808,0.25703,0.32308
23688.44,11.6111,0.25614,0.68421
11779.78,11.2644,0.23902,0.105555
11250.91,10.405,0.20769,0.32821
10911.4,10.2467,0.19972,0
9879.85,9.811,0.18173,0
11050.43,9.8064,0.18181,0.779205
12508,9.72,0.17703,0.99
12688.37,9.6502,0.1708,0.99
12132.88,9.4842,0.15985,0.99
11892.41,9.2726,0.14365,0.98795
10088,9.162,0.13533,0.77343
10199.68,6.0898,0.11775,0.533335
10796.76,5.6797,0.10213,0.387595
10917.62,5.6353,0.10003,0.46574
63077.44,162.1738,0.21092,0.464415
45221.19,161.7695,0.21083,0.167835
45635.28,160.4874,0.21151,0.28726
51960.37,160.2209,0.21149,0.533835
38832.64,157.77361,0.2103,0.465335
55843.58,157.1769,0.2085,0.52008
56765.16,154.42979,0.20459,0.523925
54223.48,152.9422,0.20105,0.767855
22914.31,8.2751,0.14341,0
29005.01,6.8984,0.0686,0
58166.68,163.29041,0.11861,0.10639
14928.9,3.1614,0.21957,0
