{
  "urn" : "local:stefano.balbi:im.alice.spain:radiation-fireseason",
  "version" : "0.0.1",
  "adapterType" : "wcs",
  "localPath" : "im.alice.spain/resources/radiation-fireseason.v0.0.1",
  "geometry" : "S2(43199,21599){bbox=[-180.0 179.99999998559997 -89.99999999279999 90.0],proj=EPSG:4326}",
  "projectName" : "im.alice.spain",
  "localName" : "radiation-fireseason",
  "type" : "NUMBER",
  "resourceTimestamp" : 1605805170771,
  "metadata" : { },
  "parameters" : {
    "wcsIdentifier" : "im-ecology-fire-data__northern_hemisphere_fireseason_solar_radiation",
    "serviceUrl" : "https://integratedmodelling.org/dev-geoserver/ows",
    "band" : "0",
    "nodata" : "-3.402823E38",
    "wcsVersion" : "2.0.1"
  },
  "localPaths" : [ ],
  "history" : [ ],
  "notifications" : [ ],
  "attributes" : [ ],
  "spatialExtent" : {
    "east" : 179.99999998559997,
    "west" : -180.0,
    "north" : 90.0,
    "south" : -89.99999999279999,
    "gridResolution" : null,
    "gridUnit" : null
  },
  "dependencies" : null,
  "outputs" : null,
  "exportFormats" : { }
}