{
  "urn" : "local:amarquez:im.alice.spain:cantabria_mean_max_temperature_dryseason_cclm_85_2045_2055",
  "version" : "0.0.1",
  "adapterType" : "wcs",
  "localPath" : "im.alice.spain/resources/cantabria_mean_max_temperature_dryseason_cclm_85_2045_2055.v0.0.1",
  "geometry" : "S2(75,46){bbox=[-4.035 -3.2750000000000004 43.035 43.505],proj=EPSG:4326}",
  "projectName" : "im.alice.spain",
  "localName" : "cantabria_mean_max_temperature_dryseason_cclm_85_2045_2055",
  "type" : "NUMBER",
  "resourceTimestamp" : 1601284879907,
  "metadata" : { },
  "parameters" : {
    "wcsIdentifier" : "im-alice-spain__cantabria_mean_max_temperature_dryseason_cclm_85_2045_2055",
    "serviceUrl" : "https://integratedmodelling.org/dev-geoserver/ows/",
    "band" : "0",
    "nodata" : "-3.4E38",
    "wcsVersion" : "2.0.1"
  },
  "localPaths" : [ ],
  "history" : [ ],
  "notifications" : [ ],
  "attributes" : [ ],
  "spatialExtent" : {
    "east" : -3.2750000000000004,
    "west" : -4.035,
    "north" : 43.505,
    "south" : 43.035,
    "gridResolution" : null,
    "gridUnit" : null
  },
  "dependencies" : null,
  "outputs" : null,
  "exportFormats" : { }
}