{
  "urn" : "local:amarquez:im.alice.spain:divaqua.lulc_2049_9c",
  "version" : "0.0.1",
  "adapterType" : "wcs",
  "localPath" : "im.alice.spain/resources/divaqua.lulc_2049_9c",
  "geometry" : "S2(10008,5869){bbox=[286350.067146 386440.067146 4761150.04992 4819850.04992],proj=EPSG:25830}",
  "projectName" : "im.alice.spain",
  "localName" : "divaqua.lulc_2049_9c",
  "type" : "NUMBER",
  "resourceTimestamp" : 1652688913789,
  "metadata" : { },
  "parameters" : {
    "wcsIdentifier" : "divaqua__lulc_2049_9c",
    "transform" : "",
    "serviceUrl" : "http://192.168.250.122:8600/geoserver/divaqua/wcs",
    "nodata" : "15.0",
    "wcsVersion" : "2.0.1"
  },
  "localPaths" : [ ],
  "history" : [ ],
  "notifications" : [ ],
  "attributes" : [ ],
  "spatialExtent" : {
    "east" : -4.393097451803236,
    "west" : -5.642727475901654,
    "north" : 43.52295729872318,
    "south" : 42.97302317839436,
    "gridResolution" : null,
    "gridUnit" : null
  },
  "dependencies" : null,
  "outputs" : null,
  "categorizables" : [ ],
  "codelists" : [ ],
  "availability" : null,
  "exportFormats" : { }
}