{
  "urn" : "local:amarquez:im.alice.spain:current_gepmod",
  "version" : "0.0.1",
  "adapterType" : "raster",
  "localPath" : "im.alice.spain/resources/current_gepmod.v0.0.1",
  "geometry" : "S2(1668,1015){bbox=[-4.025733474805253 -3.276196987728739 43.03557140392725 43.49167424228616],proj=EPSG:4326}",
  "projectName" : "im.alice.spain",
  "localName" : "current_gepmod.tif",
  "type" : "NUMBER",
  "resourceTimestamp" : 1605879075184,
  "metadata" : { },
  "parameters" : {
    "nodata" : "-3.4028234663852886E38"
  },
  "localPaths" : [ "im.alice.spain/resources/current_gepmod.v0.0.1/current_gepmod.tif.ovr", "im.alice.spain/resources/current_gepmod.v0.0.1/current_gepmod.tfw", "im.alice.spain/resources/current_gepmod.v0.0.1/current_gepmod.tif.aux.xml", "im.alice.spain/resources/current_gepmod.v0.0.1/current_gepmod.tif" ],
  "history" : [ ],
  "notifications" : [ ],
  "attributes" : [ ],
  "spatialExtent" : {
    "east" : -3.276196987728739,
    "west" : -4.025733474805253,
    "north" : 43.49167424228616,
    "south" : 43.03557140392725,
    "gridResolution" : null,
    "gridUnit" : null
  },
  "dependencies" : null,
  "outputs" : null,
  "exportFormats" : {
    "tiff" : "GeoTiff"
  }
}