{
  "urn" : "local:stefano.balbi:im.alice.spain:futureBGIN_TMeSum",
  "version" : "0.0.1",
  "adapterType" : "raster",
  "localPath" : "im.alice.spain/resources/futureBGIN_TMeSum.v0.0.1",
  "geometry" : "S2(1596,857){bbox=[-4.010455153126236 -3.293272759017053 43.05174845041092 43.436852029202626],proj=EPSG:4326}",
  "projectName" : "im.alice.spain",
  "localName" : "futureBGIN_TMeSum.tif",
  "type" : "NUMBER",
  "resourceTimestamp" : 1611656583777,
  "metadata" : { },
  "parameters" : {
    "nodata" : "-3.4028234663852886E38"
  },
  "localPaths" : "im.alice.spain/resources/futureBGIN_TMeSum.v0.0.1/futureBGIN_TMeSum.tif",
  "history" : [ ],
  "notifications" : [ ],
  "attributes" : [ ],
  "spatialExtent" : {
    "east" : -3.293272759017053,
    "west" : -4.010455153126236,
    "north" : 43.436852029202626,
    "south" : 43.05174845041092,
    "gridResolution" : null,
    "gridUnit" : null
  },
  "dependencies" : null,
  "outputs" : null,
  "exportFormats" : {
    "tiff" : "GeoTiff"
  }
}