@relation fry_salmonidae_biomass_of_reach_instances

@attribute fry_salmonidae_biomass_of_reach numeric
@attribute water_temperature_during_summer numeric
@attribute omass_from_primary_production numeric
@attribute minimum_omass_to_water_volume_ratio numeric
@attribute stream_width numeric
@attribute width_of_habitat_region numeric
@attribute adult_salmonidae_biomass numeric

@data
0.07,5,1,6,10.79,26554.43527,0
0.06,15,4,1,10.79,26554.43527,1.09
0.02,7,2,4,10.79,26554.43527,2.13
0.01,12,3,5,10.79,26554.43527,0
0.45,5,4,4,7.92,26554.43527,0
0,17,1,7,7.92,26554.43527,0
0.47,5,5,3,10.79,26554.43527,0.71
0.21,20,4,13,10.79,26554.43527,2.08
0.06,10,4,5,10.9,2061.96245,0.78
0.18,5,2,6,5.19,15773.43344,2.06
0.14,7,3,6,10.06,11484.52691,0.32
0.2,5,2,5,10.06,253.64894,1
0.08,17,2,7,10.06,253.64894,1.77
1.18,5,1,7,10.06,253.64894,0.32
0.08,5,3,2,10.06,253.64894,1.53
0.1,18,4,6,8.78,904.33567,0
0,5,3,2,8.78,904.33567,0.81
0.09,15,2,1,8.78,904.33567,0.67
0.07,17,3,2,8.78,151.45787,0
0.02,13,2,5,22.5,21988.76168,6.35
0.04,19,1,5,22.5,13592.18469,2.88
0.52,5,1,1,16.48,17151.89228,0.37
0.05,9,2,6,16.48,17151.89228,0.36
0.51,5,4,2,16.48,17151.89228,2.63
0.43,19,2,2,16.48,17151.89228,1.77
0.81,19,4,3,16.48,17151.89228,0.89
1.01,12,1,3,16.48,17151.89228,0
0.13,5,2,5,16.48,17151.89228,1.42
0.52,11,5,1,16.48,17151.89228,2.18
0.83,7,5,2,13.98,11461.89404,0.35
0.05,16,1,5,13.98,11461.89404,3.97
0.15,5,3,2,13.98,11461.89404,3.32
0.28,5,3,6,11.99,19807.59262,1.2
0.1,18,5,3,11.99,19807.59262,2.74
0.4,10,1,1,11.99,19807.59262,1.98
0.6,8,3,4,11.99,19807.59262,2
0.03,10,3,4,11.99,19807.59262,1.3
0.12,5,4,3,11.99,19807.59262,0
0.06,18,1,4,11.99,19807.59262,0.19
0.6,5,1,2,10.94,19807.59262,0.96
0,7,2,3,5.94,28500,0
0.64,8,2,1,5.94,28500,1.56
0.54,5,3,1,5.94,28500,1.56
0.2,16,4,4,5.94,28500,0.52
0.06,12,2,3,5.94,28500,7.98
1.06,5,5,7,8.26,28500,7.76
0.23,11,2,4,8.26,28500,1.82
0.32,12,5,5,8.26,28500,3.22
0.17,5,4,7,8.26,28500,2.03
0.61,23,1,1,8.26,28500,1.97
0.25,16,1,5,5.86,26209.01713,5.12
0.21,16.64,2.18,8.77,18.89,8683.42945,0.28
0.25,19,4,3,18.93,8683.42945,0.98
0.33,5,5,6,18.93,8683.42945,3.71
1.1,5,1,4,18.93,8683.42945,0.95
0.6,17.25,21,8.74,18.89,8683.42945,0.22
1.13,15.97,4.48,9.24,18.89,8683.42945,0.92
0.65,15,2,1,18.89,8683.42945,0.72
0.16,5,3,5,17.03,28500,6.15
0.04,16,1,6,14.52,4244.7988,3.24
0.19,15,1,7,14.52,4244.7988,1.26
0.61,5,2,3,14.52,4244.7988,3.66
0.43,15,5,3,14.52,4244.7988,2.88
0.34,19,3,2,14.52,4244.7988,6.94
0.05,5,3,2,14.52,4244.7988,0
0.33,5,1,4,14.52,4244.7988,0.27
2.04,16,1,3,14.52,4244.7988,4.25
0.54,10,1,1,9.14,10695.011,2.83
0.49,9,2,4,9.14,10695.011,1.5
1.77,5,1,2,9.14,10695.011,1.52
1.01,18,5,1,9.14,10695.011,0.98
0.94,11,2,1,9.14,10695.011,0
0.1,8,4,6,9.14,10695.011,0
0.69,5,3,7,9.14,10695.011,0
1.81,10,2,6,9.14,10695.011,1.6
0.18,14,1,5,10.76,5454.43292,1.07
0.4,5,5,4,10.76,5454.43292,0.21
0.53,19,3,4,10.76,5454.43292,1.89
0.32,19,5,3,10.76,5454.43292,0.83
0.15,13,3,2,10.76,5454.43292,3.76
0.05,5,4,4,10.76,5454.43292,0.5
0.03,16,5,3,10.76,5454.43292,0.14
0.42,5,3,5,10.76,5454.43292,0.36
0.09,18,3,5,8.56,28500,4.61
0.17,5,3,2,8.56,28500,3.06
0.35,5,2,5,8.56,28500,4
0,5,5,6,22.5,2195.28869,0.38
0.25,12,5,3,22.5,10404.72496,1.9
0.06,8,5,6,22.5,10404.72496,0
0.14,7,5,1,19,1834,8.22
0.27,12,4,4,19,15468,7.7
0.04,12,5,6,15,10307,2.8
0,12,3,5,3,17608,5.96
0.03,9,1,7,17,15592,5.68
0.21,5,3,3,22,200,1.64
0,19,1,4,19,5900,0.98
0.01,5,3,3,3,13716,2.28
0,15,5,3,15,13913,3.44
0.15,17,4,2,1,17288,1.05
0.2,5,5,5,19,11181,0.3
0.07,5,4,2,14,8268,4.13
0.08,5,3,4,7,7735,0.36
0.14,8,2,4,9,14505,0.91
0.26,5,2,5,2,20016,1.01
0.08,12,3,6,15,13882,5.74
0.1,15,4,3,16,3640,1.02
0.45,19.65,4.37,7.89,14.99,28500,1.11
0.38,11,2,6,6,3684,3.82
6,13,2,5,16,15126,2.81
0.05,5,3,2,6,3984,1.1
0.87,7,4,6,12,16779,1.63
0.33,5,1,5,4,10937,0.83
0,5,5,5,8,11814,0.64
0.19,5,4,4,4,1807,0.98
0.58,12,5,4,17,10283,1.78
0.07,18,5,4,13,6419,1.27
1.05,12,5,4,14.99,28500,9
1.04,19,2,3,14.99,28500,9
1.3,12,1,5,14.99,28500,9
0.84,11,4,3,14.99,28500,9
6,12,3,5,14.99,28500,4.84
0.17,18,5,2,14.99,28500,0.5
0.25,18,2,5,16.2,28500,2.17
0.42,5,3,5,16.2,28500,1.8
1.93,17,2,4,16.2,28500,1.64
0.34,10,4,3,20.65,28500,4.42
0.73,15,1,7,20.65,28500,3.45
0.16,7,2,2,20.65,28500,8.63
0.15,12,2,4,22,14679,0.46
0.63,6,3,1,15,4487,0.29
0.23,18.9,5.43,8.1,14.99,28500,1.83
1.96,18.42,2.93,8.36,14.99,28500,1.18
0.93,18.87,1.76,8.02,14.99,28500,3.58
0.35,5,4,2,14.99,28500,0.5
1.97,6,4,2,14.99,28500,0.57
1.55,16.14,1.43,8.51,11.71,12430.41292,18
0.16,10,1,4,20,9359,0.45
2.25,15.4,2.83,9.49,11.18,28500,6.76
0.26,16.23,4.53,8.66,22.5,28500,1.03
1.58,14.88,4.75,8.87,22.5,28500,1.05
0.82,14.72,3.72,9.14,22.5,28500,0.38
2.25,14.62,2.7,9.04,22.5,28500,1.44
2.25,13.38,4.07,9.79,22.5,28500,1.15
2.04,12.6,2.18,10.02,22.5,28500,1.11
0,15.13,1.75,9.64,3.54,28500,0
2.25,9.32,5,1,20.6,28500,0.24
2.25,17,6.71,8.52,22.5,28500,1.22
2.25,16.66,1.79,9.1,22.5,28500,1.61
1.43,18.5,2.16,8.34,22.5,28500,1.69
2.25,16.46,1.71,8.57,22.5,28500,2.09
0,5,4,7,2.5,28500,0
0,13,5,2,2.7,28500,0
0,5,4,5,4.39,28500,1.56
0.7,18,2,7,2.22,28500,0
0,6,2,4,2.43,28500,0
0,7,3,6,1.39,28500,0
2.25,15,2,3,3.18,28500,0
0,16,3,5,5.32,28500,1.19
0,5,2,6,22.5,28500,1.31
0.72,19,3,6,22.5,28500,1.97
0.08,10,5,3,22.5,28500,1.21
0.19,15,2,1,22.5,28500,0.82
0.95,6,2,1,22.5,28500,5.7
0,15,1,1,22.5,28500,2.42
0,18,1,1,22.5,28500,0.84
0.87,11,5,4,22.5,28500,0
0.04,12,4,3,22.5,28500,1.03
0.25,8,4,4,22.5,28500,0
0.4,12,1,2,22.5,28500,0.64
0.03,10,3,4,22.5,28500,1.86
0.41,5,4,2,22.5,28500,0
1.04,5,3,2,22.5,28500,1.06
0.09,11,1,4,22.5,28500,1.18
0.57,8,3,7,22.5,28500,1.92
0.12,5,3,4,8.63,28500,0.86
1.9,14,1,2,8.63,28500,2.78
0.18,14,3,3,8.63,28500,0.5
1.09,8,2,5,8.63,28500,2.32
0.43,14,5,4,8.63,28500,0.71
0.4,12,5,6,8.63,28500,1.04
1.97,15.51,1,8.39,22.5,28500,0
0.6,16.43,1,8.06,22.5,28500,0.59
0.68,5,3,2,22.5,28500,0.59
0.07,12,1,5,22.5,28500,3.2
0.33,5,3,1,22.5,28500,0.06
2.25,14,5,5,22.5,28500,0.48
2.19,5,4,5,8.63,28500,2.33
0.79,15,1,6,8.63,28500,1.27
0,5,2,2,2.49,28500,0
0.54,11,3,4,8.1,12247.2708,9
1.89,11.22,1.19,10.5,8.1,12247.2708,18
0.54,14.03,2.68,9.32,8.1,12247.2708,4.07
0.32,15.03,2.74,9.42,8.1,12247.2708,5.79
0.17,14.16,3.86,9.22,8.1,12247.2708,7.06
0.31,12.11,2.48,10.24,8.1,12247.2708,4.17
0.39,13.49,1.29,9.29,8.1,12247.2708,4.4
0,5,5,2,10.51,28500,0
1.11,14.66,2.46,9.8,7.43,28500,2.61
0.22,9.06,2,3,16.89,28500,1.7
0.45,14.69,1.43,8.49,7.43,28500,3.4
0.51,14.27,3.56,9.83,7.43,28500,4.58
0.62,12.97,2.29,10.46,7.43,28500,0.92
0.69,14.09,1.73,9.92,7.43,28500,0.87
0.8,9,1,3,7.43,28500,5.61
1.9,18,5,3,7.43,28500,6.24
1.04,13.24,2.21,9.66,10.51,28500,0
0.24,14.02,4.88,9.4,10.51,28500,1.08
0.2,14.26,2.82,9.65,10.51,28500,0.9
2.25,14.01,5.07,9.53,10.51,28500,0.6
0.74,13.23,4.26,10.08,10.51,28500,0.88
0.35,13.83,0.76,9.7,10.51,28500,3.46
2.25,17,1,5,7.93,28500,7.96
0,16,5,3,3.63,28500,0
0.32,9.63,3.02,9.94,7.93,28500,4.78
0.64,11.08,3.71,9.82,7.93,28500,0.48
0.05,11.75,2.42,9.77,7.93,28500,2.6
0.26,11.35,3.09,9.58,7.93,28500,2.73
0.08,10.26,4.78,10.2,7.93,28500,3.98
0.22,11.02,5.27,9.69,7.93,28500,4.3
0.04,13.44,5,3,14.11,28500,4.64
0.75,5,3,2,4.8,28500,0
0,9,2,4,4.86,28500,1.35
0.34,8.53,0.28,10.59,4.8,28500,1.18
0.13,8.41,0.23,10.67,4.8,28500,0
0.29,8.6,0.34,13,4.8,28500,0
0.04,8.54,0.41,13,4.8,28500,0
0.2,9.14,0.69,13,4.8,28500,0.38
0.21,8.31,0.19,10.5,4.8,28500,0.19
0.33,16,5,1,11,12358,0.88
0,17,3,4,11,10161,0
1.51,8,6,5,8.58,28500,2.26
0,13.93,0.31,8.95,3.55,28500,0
2.25,15,3,4,19,12283,7
0,11,4,1,1.58,28500,0
0,5,5,3,1.43,28500,0
0,5,5,1,3.93,28500,0
0,15,1,2,2.77,28500,0
0,12,5,6,2.51,28500,0
0.4,7,4,1,2.5,28500,0
0,18,5,6,1,1454,1.45
0,5,1,6,16,5115,0.79
0.01,8,1,4,14,4739,0.43
0.02,7,4,6,16,11826,0
0.1,5,4,6,1,1151,1.84
0,18,2,5,21,6488,0.25
0.98,9.01,0.75,9.9,8.58,28500,1.71
0.47,13.86,0.74,8.36,8.58,28500,1.42
0.21,11.02,0.63,8.42,8.58,28500,3.36
0.8,13.86,0.35,8.97,8.58,28500,1.14
0.76,14.34,0.29,8.7,8.58,28500,0.45
0.54,13.69,0.34,8.49,8.58,28500,0.3
0.06,5,4,7,4.08,21271.49513,0.25
1.71,13.85,1.15,9.4,4.3,17361.67782,3.64
0.8,16.4,1.85,8.55,15.25,28500,0.77
0.71,15.5,0.58,8.95,11.7,28500,0
0,5,5,6,2.33,28500,0
0.08,14,3,1,15.26,28500,0.9
1.03,6,2,3,15.26,28500,3.01
0,17,3,6,15.26,28500,1.66
0,13,1,4,15.26,28500,2.98
0.41,11,3,3,15.26,28500,2.52
0,8,1,4,15.26,28500,3.44
0.43,8,2,2,15.26,28500,2.41
0.05,19,3,1,15.26,28500,2.31
1.16,14.24,0.12,9.13,3.36,8263.56302,0.78
0,19,1,2,11.43,14190.2249,0
0,16,5,5,3.95,21856.31302,0
0,5,3,3,2.5,21856.31302,0
0.06,14.94,0.15,9.17,6.96,28500,0
0.11,11,2,4,15,2391,3.17
0,5,1,6,10,9636,0
2,10,4,2,19,303,0
1.72,13.66,2.2,8.47,20.47,4996.80857,3.03
0.03,7,5,1,15.73,4996.80857,2.39
0.2,6,3,5,15.73,4996.80857,9
0.35,17,4,5,15.73,4996.80857,5.97
0,16,1,2,14.31,14950.71901,0.58
0.55,8,3,5,14.31,14950.71901,1.73
1.39,16,5,3,14.31,14950.71901,0.67
0.15,16,5,6,14.31,14950.71901,1.14
0.76,5,1,5,14.31,14950.71901,3.85
0.09,7,3,5,14.31,14950.71901,1.26
1.2,5,1,4,14.31,14950.71901,6.73
0.73,9,6,3,14.3,14950.71901,2.87
0.58,13.46,0.9,9.17,13.43,3098.52905,6.22
0.17,13.19,0.23,9.57,9,21443.74113,2.95
0.64,12.68,0.32,9.07,9.36,3034.40437,4.83
0.83,10,2,2,5.49,4622.55521,0
0,7,1,1,5.45,1048.797,0.93
0,14.87,0.5,8.13,3.23,14120.33315,0
0,20,3,2,3.19,27274.40153,0
0,5,4,1,1.48,27274.40153,0
0,13,2,6,6.43,28500,0.31
0.78,12.29,0.69,8.35,4.06,10474.48223,1.27
0.08,16.24,0.41,9.12,14.78,28500,0.31
0.35,13.18,0.53,9.32,15.49,28500,0.38
0.01,15,2,6,4.15,28500,1.84
0.04,8,3,3,15.55,28500,0.7
1.62,5,5,3,15.55,28500,3.31
0.11,15,3,1,15.55,28500,2.15
0.25,9,5,2,15.55,28500,5.65
0.51,9,2,7,15.55,28500,9
0.04,16.42,0.61,9.08,14.78,28500,2.63
0.46,17.11,1.85,8.84,14.78,28500,1.1
0.16,15.59,0.63,9.07,14.78,28500,1.75
0.81,10.65,0.1,10.3,4.15,28500,0.63
0.5,12.54,0.19,9.79,4.15,28500,0.65
0.04,12.9,0,9.82,4.15,28500,1.92
0.06,12.65,0.05,9.75,4.15,28500,1.17
0.06,12.42,0.25,10.15,4.15,28500,0.28
0.04,12.84,0,9.55,4.15,28500,3.45
0.08,13.25,0.6,9.54,11.89,28500,5.9
0.24,19,2,3,11,20512,0.54
0.42,14,2,4,2.3,28500,0
0.02,15,1,6,11.74,28500,4.93
0.63,5,4,2,11.74,28500,4.85
0.22,8,4,3,11.74,28500,7.64
0.18,18,4,1,11.74,28500,9
0.09,5,2,6,11.74,28500,3.95
0.18,9,5,5,11.74,28500,3.7
0.49,11,3,1,11.74,28500,5.29
0.37,15,2,6,11.74,28500,6.17
1.91,15,2,6,4.52,25557.756,0.89
0.05,17,5,4,4.52,25557.756,0.56
0.31,11.49,0.19,9.47,4.52,25557.756,0.2
0.49,12.52,0.19,9.2,4.52,25557.756,0.84
0.1,12.24,0.06,9.42,4.52,25557.756,1.39
0.16,13.02,0.17,9.22,4.52,25557.756,0.24
0,9.66,0.04,13,4.52,25557.756,2.05
0,13,2,4,5.94,18034.45652,0
0,8.24,0.22,9.7,5.94,18034.45652,0
0,8.38,0.6,9.76,5.94,18034.45652,0
0,8.79,0.12,10.16,5.94,18034.45652,0
0,8.57,0.2,10.34,5.94,18034.45652,0
0,9.34,0.16,9.76,5.94,18034.45652,0
0,8.69,0.07,9.67,5.94,18034.45652,0
0.04,13,3,1,7,11145,3.43
2.25,5,3,6,18,4382,1
0.31,5,5,1,2,17922,1.44
0.07,14,2,3,19.27,28500,3.32
0.08,16,4,3,19.38,28500,0
0.14,12,5,2,19.38,28500,5.51
0.23,11,3,5,19.38,28500,5.85
0.17,13,4,2,19.38,28500,2.68
0.03,12,2,1,19.38,28500,2.08
0,13,3,3,19.38,28500,1.37
0,17,5,1,19.38,28500,0
0.01,12,4,1,19.38,28500,1.51
0.39,15,2,6,16.89,164.43254,5.39
0.22,5,5,2,16.89,164.43254,7.86
2.01,17,2,4,16.89,164.43254,9
0.17,5,4,2,16.89,164.43254,2.5
0.38,16,1,5,16.89,164.43254,1.66
0.2,17,2,2,16.89,164.43254,2.55
0.16,10,2,1,16.89,164.43254,0.18
1.08,7,4,4,16.89,164.43254,6.99
0.01,19.58,7.76,7.09,16.7,15116.11064,0.31
0.02,16.47,7.71,8.66,16.7,15116.11064,0
0,17.11,1,8.96,16.7,15116.11064,0.3
0.13,17.01,0.7,8.55,16.7,15116.11064,0.38
0.23,14.83,1.53,9.68,14,28500,2.24
0.28,13,5,4,14.26,28500,1.17
0.21,16,1,1,14.26,28500,2.15
0.23,6,1,1,14.26,28500,1.63
0.43,6,1,4,14.26,28500,1.97
0.16,14,3,1,14.26,28500,1.2
0.07,5,1,2,14.26,28500,0.18
0.29,10,5,6,15.31,28500,0.41
0.35,19,5,1,15.31,28500,0.2
0.3,5,1,4,15.31,28500,0.77
0.05,11,5,5,14.26,28500,0
0.42,17,5,6,14.26,28500,0.12
0.34,10,1,1,9.9,28500,1.09
0.49,13,2,2,9.9,28500,0.92
0.24,5,2,1,9.9,28500,0.85
0.2,9,3,2,9.9,28500,0.65
0.09,12,2,7,9.9,28500,1.41
0.01,8,2,7,9.9,28500,1.03
0.47,8,3,2,13.46,28500,0.98
0.08,15,1,5,9.9,28500,0.89
0.39,18,4,7,7.93,28500,1.55
1.29,15.67,5,9.17,22.5,6610.55421,0.28
1.2,17.09,2,8.51,22.5,6610.55421,0.6
0.06,19,2,6,5.82,28500,1.18
0,6,5,5,6.7,28500,9
0.16,5,5,4,5.82,28500,2.21
0.04,9,5,6,5.82,28500,0
0.04,10.01,0.45,9.79,5.82,28500,0
0.15,9.91,0.84,9.83,5.82,28500,2.64
0.09,9.86,0.95,9.76,5.82,28500,0.38
0,9.87,0.32,9.34,5.82,28500,0.43
0.03,14,2,7,6.7,28500,4.21
0,11.81,0.69,9.41,6.7,28500,1.2
0.19,11.42,0.35,9.73,6.7,28500,1.26
0.06,11.31,0.39,9.8,6.7,28500,1.32
0.44,11.25,0.3,9.83,6.7,28500,2.78
0,11.44,0.42,9.21,6.7,28500,3.45
0.41,15.56,0.63,9.61,17.47,28500,3.58
2.25,15.03,1.49,9.46,17.47,28500,1.75
2.25,14.68,1.08,9.84,17.47,28500,0.65
1.52,14.99,0.68,9.26,17.47,28500,1.61
0.02,6,4,4,7.43,28500,1.41
0.16,10.81,0.18,10.19,7.43,28500,0.78
0.02,14.34,0.26,9.45,7.43,28500,0
0.06,14.28,0.19,9.6,7.43,28500,0.2
0.11,13.92,0.26,9.64,7.43,28500,0.39
0.07,12.94,0.24,9.97,7.43,28500,0.89
0.07,13.77,0.1,9.5,7.43,28500,0.95
0,18,2,1,9.81,28500,3.36
0.08,7,2,6,7.64,830.3223,0
0,12,5,5,4.83,20427.08605,0
0.97,15,2,1,14,15800,0.48
0.07,19,2,4,3,5041,0.39
0.79,9,1,4,20,16139,0
2.25,9,1,2,10,4926,0
0.15,5,5,6,20,864,0.14
0.48,9,1,5,12,6438,0
0.85,12,2,5,10.45,28500,2.04
2.25,13,1,2,10.45,28500,3.62
0.19,10,4,1,10.45,28500,0.38
0.41,6,2,4,10.45,28500,2.27
0.66,5,3,2,11.82,28500,0.51
1.16,12,4,5,11.82,28500,0.19
0.16,10,5,1,11.82,28500,0
1.89,12,2,2,10.65,28500,0.43
0.73,5,5,3,10.65,28500,1.14
0.13,8,2,4,2,3896,1.51
0.8,16,2,1,7,10872,4.61
0.02,14,2,1,13,17205,3.33
1.18,5,5,7,10.65,28500,0.46
1.01,11,2,2,10.45,28500,0
0.37,14.12,2.1,9.26,6.39,28500,1.14
0.38,6,5,3,7.17,28500,0.75
0.63,9,1,4,5.02,28500,0
0.26,7,5,2,9.99,28500,0.76
0.3,5,5,4,9.99,28500,1.79
0.06,18,2,5,9.99,28500,3.08
0.26,7,5,2,9.99,28500,0.62
2.25,17,2,3,9.99,28500,2.29
0,14,3,3,9.99,28500,1.24
0.32,14,4,1,9.99,28500,0.16
0.09,19,3,3,9.99,28500,1.61
0.35,15,3,6,2,14308,2.14
0.86,5,5,6,2,17441,1.74
0.51,13,4,5,22,6460,1.48
0.66,6,3,2,2,11102,4.39
0.68,5,2,4,4,12091,2.45
0.18,7,3,5,12,20486,1.7
0.2,8,5,6,8,15709,2.57
0.29,5,1,3,7,20239,3.32
0.36,5,5,7,1,6230,1.92
0.22,10,5,5,9,1495,0.63
0,5,3,5,11,6711,0
0.19,18,1,1,12,18409,0.33
0.04,17,3,5,22,10562,0
0.01,11,4,5,5,12940,0
0.32,13,2,2,8,17931,0.21
0,18,4,7,11,12026,0
0.05,18,3,3,2,2798,0
0.14,5,1,7,3,9059,0
0.09,19,5,7,0,15181,0
0.21,8,5,3,21,17595,4.47
0.13,17,4,5,19,4878,3.73
0.04,5,5,2,17,11029,0
0.02,7,3,2,9,1395,3.1
0.06,16,4,2,22.5,960.85124,5.86
0.28,15,4,4,22.5,960.85124,5.13
0.09,8,4,5,22.5,960.85124,3.23
2.25,8,1,2,22.5,960.85124,2.13
0.14,18,1,1,22.5,960.85124,7.87
0,11,2,6,22.5,960.85124,1.14
0,18,5,2,22.5,960.85124,0.56
0.03,18,2,3,22.5,960.85124,0.06
0.03,8,4,4,22.5,28500,4.85
2.25,10,5,6,7.09,28500,0.3
0.13,5,4,4,7.09,28500,1.34
0.01,5,2,3,7.09,28500,5.37
0.3,5,5,2,7.09,28500,1.25
0,10,1,7,7.09,28500,0.8
0.29,13,5,5,7.09,28500,1.48
0.44,5,5,6,7.09,28500,0
1.06,19,2,1,22.5,1363.15901,9
0.36,15,1,6,22.5,1363.15901,6.91
0.2,16,1,2,21.46,15468.59242,3.11
1.46,5,1,1,21.46,15468.59242,3.2
0.39,8,5,2,21.46,15468.59242,2.52
0.16,5,4,4,21.46,15468.59242,2.73
0.28,15,3,7,21.46,15468.59242,0.28
0.01,5,1,4,21.46,15468.59242,0.62
0.1,18,3,6,22.5,15468.59242,1.27
0.05,18,4,1,21.49,15468.59242,1.57
0.51,5,2,4,21.49,15468.59242,2.05
0.11,10,5,5,9.66,28280.59643,9
2.25,13,1,2,9.66,28280.59643,3.88
0.02,15,1,6,9.66,28280.59643,0
0.55,8,3,1,9.66,28280.59643,1.69
1.19,8,4,6,9.66,28280.59643,3.75
2.25,7,4,7,10.32,28500,1.07
0.32,15,2,6,10.32,28500,2.1
1.78,15,1,3,10.32,28500,0.75
1.08,11,4,2,10.32,28500,1.75
0.3,14,2,2,10.32,28500,0.82
0.01,19,4,3,10.32,28500,1.23
0.71,12,3,1,10.32,28500,2.53
0.87,15.85,0.57,9.01,9.19,28500,0.74
0.6,8,2,3,17.86,6883.80226,5.03
0.81,6,2,4,17.86,6883.80226,4.95
0.05,16,1,4,17.86,6883.80226,4.65
0.09,16,5,1,17.86,6883.80226,4.9
0.69,9,2,5,17.86,6883.80226,0.77
0.02,12,5,3,17.86,6883.80226,1.75
0.02,7,4,3,17.86,6883.80226,1.15
0.6,5,4,3,17.86,6883.80226,0.92
0.46,5,2,5,8.1,28500,7.13
2.25,16,5,5,21,124,3
0.76,13,5,6,15.36,28500,3.45
2.25,5,1,7,15.36,28500,5.96
2.25,5,4,4,19,13481,5.8
0.25,8,3,6,6,5416,1.09
1.08,15,1,4,8,6605,4.95
1.2,5,3,1,16,20476,0
0.18,10,2,5,19,14760,0.53
0.86,15,4,1,9,8146,0.42
1.33,14,1,2,11,14404,0
0.66,16,1,4,11.21,8279.36696,1.45
1.46,17,1,6,8.31,16742.26327,4.22
0.05,17,3,3,22.5,8314.68457,4.95
0.28,8,2,1,22.5,8314.68457,7.7
0.05,5,5,7,22.5,8314.68457,4.69
0.05,5,3,1,22.5,8314.68457,2.97
0.03,19,1,3,22.5,8314.68457,1.83
0,5,5,5,22.5,8314.68457,1.46
0.02,5,2,2,22.5,8314.68457,1.63
0.03,16,3,1,22.5,8314.68457,3.7
0.03,19,2,4,22.5,28500,2.12
0.13,14,4,1,22.5,28500,3.02
0.34,17,4,2,22.5,28500,9
0.25,15,2,4,22.5,28500,9
0.07,14,3,4,22.5,28500,6.96
0.39,5,6,4,22.5,28500,5.22
0,5,2,4,22.5,28500,2.46
0.13,12,1,3,22.5,28500,1.95
0.15,19,4,4,22.5,28500,1.83
0.13,6,2,5,22.5,1965.30997,2.84
0.13,11,2,3,22.5,1965.30997,2.29
0.23,15.87,0.17,9.2,5.64,28500,1.23
0.25,5,1,4,2,0,1.51
0.05,5,5,4,7.74,28500,2.1
0.04,10,3,1,10.98,28500,2.69
0.75,17,3,6,10.98,28500,9
0.1,6,1,7,10.98,28500,4.23
0.25,18,4,1,10.98,28500,6.61
1.06,5,4,5,10.98,28500,2.85
0.12,5,1,5,10.98,28500,3.14
0.1,8,1,1,18.35,28500,0.85
1.04,10,3,5,18.35,28500,6.22
0.05,5,1,6,18.35,28500,5
0.27,7,5,1,18.35,28500,9
0.63,5,5,1,18.35,28500,4.34
0.13,8,4,4,18.35,28500,2.93
0.14,9,5,4,20.81,28500,0.77
0.97,11,1,3,20.81,28500,5.98
0.25,6,1,2,20.81,28500,1.94
0.13,12,4,3,10.98,28500,1.92
0.22,11,3,5,10.98,28500,1.96
0.3,14,3,6,18.35,28500,6.06
0.45,6,1,6,18.35,28500,2.96
0.08,16.16,2.03,8.94,13.73,15119.54155,7
0.38,5,1,1,13.73,15119.54155,8.49
1.04,5,4,1,13.73,15119.54155,6.13
0.06,13,2,1,13.73,15119.54155,5.28
0.26,5,5,5,13.73,15119.54155,8.58
1.09,8,1,6,13.73,15119.54155,4.58
0.05,5,3,3,13.73,15119.54155,5.33
0.79,16,3,2,13.82,15119.54155,4.2
0.01,17,2,2,13.82,15119.54155,6.06
0.17,15.99,1.93,8.92,13.73,15119.54155,5.79
0.42,16.1,1.59,9.06,13.73,15119.54155,1.46
0.17,15.49,1.12,9.6,13.73,15119.54155,3.91
0.1,5,2,6,13.73,15119.54155,2.32
0.49,6,3,3,13.73,15119.54155,2.53
0.22,8,3,4,13.82,15119.54155,2.43
0.63,8,3,4,13.82,15119.54155,2.79
0.18,7,3,6,11.45,28500,5.68
0.92,8,3,6,11.6,28500,8.03
0.11,14,4,6,11.6,28500,2.58
