@relation potential_probability_of_forest_fire_instances-weka.filters.unsupervised.attribute.Discretize-Y-B10-M-1.0-R1-precision6-weka.filters.unsupervised.attribute.Discretize-Y-B10-M-1.0-R2-precision6-weka.filters.unsupervised.attribute.Discretize-Y-B10-M-1.0-R3-precision6-weka.filters.unsupervised.attribute.Discretize-Y-B10-M-1.0-R4-precision6-weka.filters.unsupervised.attribute.Discretize-Y-B10-M-1.0-R5-precision6-weka.filters.unsupervised.attribute.Discretize-Y-B10-M-1.0-R6-precision6-weka.filters.unsupervised.attribute.Discretize-Y-B10-M-1.0-R7-precision6

@attribute potential_probability_of_forest_fire {'\'B1of10\'','\'B2of10\'','\'B3of10\'','\'B4of10\'','\'B5of10\'','\'B6of10\'','\'B7of10\'','\'B8of10\'','\'B9of10\'','\'B10of10\''}
@attribute slope {'\'B1of10\'','\'B2of10\'','\'B3of10\'','\'B4of10\'','\'B5of10\'','\'B6of10\'','\'B7of10\'','\'B8of10\'','\'B9of10\'','\'B10of10\''}
@attribute aspect {'\'B1of10\'','\'B2of10\'','\'B3of10\'','\'B4of10\'','\'B5of10\'','\'B6of10\'','\'B7of10\'','\'B8of10\'','\'B9of10\'','\'B10of10\''}
@attribute elevation {'\'B1of10\'','\'B2of10\'','\'B3of10\'','\'B4of10\'','\'B5of10\'','\'B6of10\'','\'B7of10\'','\'B8of10\'','\'B9of10\'','\'B10of10\''}
@attribute maximum_atmospheric_temperature_during_dry_season {'\'B1of10\'','\'B2of10\'','\'B3of10\'','\'B4of10\'','\'B5of10\'','\'B6of10\'','\'B7of10\'','\'B8of10\'','\'B9of10\'','\'B10of10\''}
@attribute precipitation_volume_during_dry_season {'\'B1of10\'','\'B2of10\'','\'B3of10\'','\'B4of10\'','\'B5of10\'','\'B6of10\'','\'B7of10\'','\'B8of10\'','\'B9of10\'','\'B10of10\''}
@attribute mean_solar_radiation_during_dry_season {'\'B1of10\'','\'B2of10\'','\'B3of10\'','\'B4of10\'','\'B5of10\'','\'B6of10\'','\'B7of10\'','\'B8of10\'','\'B9of10\'','\'B10of10\''}

@data
'\'B1of10\'','\'B2of10\'','\'B1of10\'','\'B7of10\'','\'B3of10\'','\'B1of10\'','\'B10of10\''
'\'B1of10\'','\'B2of10\'','\'B2of10\'','\'B7of10\'','\'B3of10\'','\'B1of10\'','\'B10of10\''
'\'B1of10\'','\'B2of10\'','\'B2of10\'','\'B7of10\'','\'B3of10\'','\'B1of10\'','\'B10of10\''
'\'B1of10\'','\'B2of10\'','\'B2of10\'','\'B7of10\'','\'B3of10\'','\'B1of10\'','\'B10of10\''
'\'B1of10\'','\'B2of10\'','\'B2of10\'','\'B6of10\'','\'B3of10\'','\'B1of10\'','\'B9of10\''
'\'B1of10\'','\'B2of10\'','\'B2of10\'','\'B6of10\'','\'B3of10\'','\'B1of10\'','\'B9of10\''
'\'B1of10\'','\'B2of10\'','\'B2of10\'','\'B7of10\'','\'B3of10\'','\'B1of10\'','\'B9of10\''
'\'B1of10\'','\'B3of10\'','\'B4of10\'','\'B7of10\'','\'B3of10\'','\'B2of10\'','\'B9of10\''
'\'B1of10\'','\'B2of10\'','\'B2of10\'','\'B5of10\'','\'B3of10\'','\'B1of10\'','\'B8of10\''
'\'B1of10\'','\'B3of10\'','\'B6of10\'','\'B6of10\'','\'B3of10\'','\'B1of10\'','\'B8of10\''
'\'B1of10\'','\'B3of10\'','\'B2of10\'','\'B7of10\'','\'B3of10\'','\'B2of10\'','\'B8of10\''
'\'B1of10\'','\'B2of10\'','\'B7of10\'','\'B5of10\'','\'B3of10\'','\'B1of10\'','\'B8of10\''
'\'B1of10\'','\'B5of10\'','\'B7of10\'','\'B5of10\'','\'B3of10\'','\'B1of10\'','\'B8of10\''
'\'B1of10\'','\'B2of10\'','\'B6of10\'','\'B6of10\'','\'B3of10\'','\'B1of10\'','\'B8of10\''
'\'B1of10\'','\'B4of10\'','\'B1of10\'','\'B7of10\'','\'B3of10\'','\'B3of10\'','\'B8of10\''
'\'B1of10\'','\'B5of10\'','\'B7of10\'','\'B4of10\'','\'B3of10\'','\'B1of10\'','\'B7of10\''
'\'B1of10\'','\'B3of10\'','\'B10of10\'','\'B5of10\'','\'B3of10\'','\'B1of10\'','\'B7of10\''
'\'B1of10\'','\'B3of10\'','\'B10of10\'','\'B5of10\'','\'B3of10\'','\'B1of10\'','\'B7of10\''
'\'B1of10\'','\'B4of10\'','\'B10of10\'','\'B5of10\'','\'B3of10\'','\'B1of10\'','\'B7of10\''
'\'B1of10\'','\'B4of10\'','\'B1of10\'','\'B5of10\'','\'B3of10\'','\'B1of10\'','\'B7of10\''
'\'B1of10\'','\'B3of10\'','\'B1of10\'','\'B5of10\'','\'B3of10\'','\'B1of10\'','\'B7of10\''
'\'B1of10\'','\'B2of10\'','\'B10of10\'','\'B5of10\'','\'B3of10\'','\'B1of10\'','\'B7of10\''
'\'B1of10\'','\'B3of10\'','\'B1of10\'','\'B5of10\'','\'B3of10\'','\'B1of10\'','\'B7of10\''
'\'B1of10\'','\'B5of10\'','\'B1of10\'','\'B6of10\'','\'B3of10\'','\'B2of10\'','\'B7of10\''
'\'B1of10\'','\'B5of10\'','\'B10of10\'','\'B5of10\'','\'B3of10\'','\'B1of10\'','\'B7of10\''
'\'B1of10\'','\'B3of10\'','\'B2of10\'','\'B7of10\'','\'B3of10\'','\'B2of10\'','\'B8of10\''
'\'B1of10\'','\'B4of10\'','\'B4of10\'','\'B6of10\'','\'B3of10\'','\'B2of10\'','\'B7of10\''
'\'B1of10\'','\'B4of10\'','\'B7of10\'','\'B6of10\'','\'B2of10\'','\'B3of10\'','\'B7of10\''
'\'B1of10\'','\'B2of10\'','\'B3of10\'','\'B5of10\'','\'B3of10\'','\'B2of10\'','\'B8of10\''
'\'B1of10\'','\'B5of10\'','\'B5of10\'','\'B4of10\'','\'B3of10\'','\'B1of10\'','\'B6of10\''
'\'B1of10\'','\'B4of10\'','\'B7of10\'','\'B4of10\'','\'B3of10\'','\'B1of10\'','\'B7of10\''
'\'B1of10\'','\'B2of10\'','\'B6of10\'','\'B6of10\'','\'B3of10\'','\'B2of10\'','\'B8of10\''
'\'B1of10\'','\'B2of10\'','\'B6of10\'','\'B6of10\'','\'B3of10\'','\'B2of10\'','\'B8of10\''
'\'B1of10\'','\'B5of10\'','\'B6of10\'','\'B6of10\'','\'B3of10\'','\'B2of10\'','\'B7of10\''
'\'B1of10\'','\'B2of10\'','\'B4of10\'','\'B5of10\'','\'B3of10\'','\'B2of10\'','\'B6of10\''
'\'B1of10\'','\'B4of10\'','\'B8of10\'','\'B5of10\'','\'B3of10\'','\'B2of10\'','\'B8of10\''
'\'B1of10\'','\'B2of10\'','\'B8of10\'','\'B4of10\'','\'B3of10\'','\'B1of10\'','\'B7of10\''
'\'B1of10\'','\'B3of10\'','\'B2of10\'','\'B4of10\'','\'B3of10\'','\'B1of10\'','\'B6of10\''
'\'B2of10\'','\'B3of10\'','\'B4of10\'','\'B4of10\'','\'B2of10\'','\'B2of10\'','\'B6of10\''
'\'B1of10\'','\'B5of10\'','\'B7of10\'','\'B6of10\'','\'B2of10\'','\'B3of10\'','\'B7of10\''
'\'B1of10\'','\'B3of10\'','\'B8of10\'','\'B4of10\'','\'B3of10\'','\'B2of10\'','\'B6of10\''
'\'B2of10\'','\'B6of10\'','\'B2of10\'','\'B7of10\'','\'B2of10\'','\'B3of10\'','\'B7of10\''
'\'B1of10\'','\'B5of10\'','\'B8of10\'','\'B5of10\'','\'B3of10\'','\'B2of10\'','\'B7of10\''
'\'B1of10\'','\'B3of10\'','\'B4of10\'','\'B5of10\'','\'B3of10\'','\'B2of10\'','\'B6of10\''
'\'B1of10\'','\'B3of10\'','\'B1of10\'','\'B4of10\'','\'B3of10\'','\'B2of10\'','\'B6of10\''
'\'B1of10\'','\'B4of10\'','\'B1of10\'','\'B6of10\'','\'B2of10\'','\'B3of10\'','\'B7of10\''
'\'B1of10\'','\'B3of10\'','\'B4of10\'','\'B3of10\'','\'B3of10\'','\'B1of10\'','\'B5of10\''
'\'B1of10\'','\'B4of10\'','\'B7of10\'','\'B7of10\'','\'B2of10\'','\'B4of10\'','\'B7of10\''
'\'B1of10\'','\'B6of10\'','\'B9of10\'','\'B6of10\'','\'B2of10\'','\'B3of10\'','\'B7of10\''
'\'B1of10\'','\'B4of10\'','\'B9of10\'','\'B5of10\'','\'B2of10\'','\'B3of10\'','\'B7of10\''
'\'B1of10\'','\'B4of10\'','\'B3of10\'','\'B4of10\'','\'B2of10\'','\'B3of10\'','\'B7of10\''
'\'B1of10\'','\'B4of10\'','\'B3of10\'','\'B4of10\'','\'B2of10\'','\'B3of10\'','\'B7of10\''
'\'B1of10\'','\'B5of10\'','\'B3of10\'','\'B4of10\'','\'B2of10\'','\'B2of10\'','\'B6of10\''
'\'B1of10\'','\'B2of10\'','\'B2of10\'','\'B5of10\'','\'B3of10\'','\'B2of10\'','\'B6of10\''
'\'B2of10\'','\'B3of10\'','\'B9of10\'','\'B7of10\'','\'B2of10\'','\'B3of10\'','\'B7of10\''
'\'B1of10\'','\'B4of10\'','\'B7of10\'','\'B5of10\'','\'B2of10\'','\'B3of10\'','\'B7of10\''
'\'B2of10\'','\'B4of10\'','\'B2of10\'','\'B6of10\'','\'B2of10\'','\'B3of10\'','\'B6of10\''
'\'B1of10\'','\'B2of10\'','\'B10of10\'','\'B7of10\'','\'B3of10\'','\'B3of10\'','\'B7of10\''
'\'B1of10\'','\'B4of10\'','\'B9of10\'','\'B5of10\'','\'B2of10\'','\'B3of10\'','\'B6of10\''
'\'B4of10\'','\'B6of10\'','\'B1of10\'','\'B8of10\'','\'B2of10\'','\'B4of10\'','\'B8of10\''
'\'B1of10\'','\'B5of10\'','\'B2of10\'','\'B5of10\'','\'B2of10\'','\'B3of10\'','\'B6of10\''
'\'B4of10\'','\'B7of10\'','\'B1of10\'','\'B6of10\'','\'B2of10\'','\'B4of10\'','\'B8of10\''
'\'B2of10\'','\'B3of10\'','\'B10of10\'','\'B7of10\'','\'B2of10\'','\'B4of10\'','\'B8of10\''
'\'B2of10\'','\'B1of10\'','\'B10of10\'','\'B7of10\'','\'B2of10\'','\'B4of10\'','\'B8of10\''
'\'B1of10\'','\'B5of10\'','\'B7of10\'','\'B6of10\'','\'B2of10\'','\'B3of10\'','\'B7of10\''
'\'B1of10\'','\'B3of10\'','\'B7of10\'','\'B5of10\'','\'B2of10\'','\'B3of10\'','\'B7of10\''
'\'B1of10\'','\'B5of10\'','\'B8of10\'','\'B5of10\'','\'B3of10\'','\'B2of10\'','\'B7of10\''
'\'B1of10\'','\'B1of10\'','\'B1of10\'','\'B3of10\'','\'B2of10\'','\'B2of10\'','\'B6of10\''
'\'B1of10\'','\'B4of10\'','\'B3of10\'','\'B5of10\'','\'B3of10\'','\'B2of10\'','\'B7of10\''
'\'B1of10\'','\'B5of10\'','\'B7of10\'','\'B4of10\'','\'B2of10\'','\'B2of10\'','\'B6of10\''
'\'B4of10\'','\'B6of10\'','\'B6of10\'','\'B6of10\'','\'B2of10\'','\'B3of10\'','\'B7of10\''
'\'B2of10\'','\'B7of10\'','\'B2of10\'','\'B6of10\'','\'B2of10\'','\'B3of10\'','\'B7of10\''
'\'B1of10\'','\'B4of10\'','\'B9of10\'','\'B4of10\'','\'B3of10\'','\'B1of10\'','\'B7of10\''
'\'B1of10\'','\'B5of10\'','\'B7of10\'','\'B5of10\'','\'B3of10\'','\'B2of10\'','\'B7of10\''
'\'B1of10\'','\'B5of10\'','\'B8of10\'','\'B4of10\'','\'B2of10\'','\'B2of10\'','\'B6of10\''
'\'B3of10\'','\'B5of10\'','\'B7of10\'','\'B5of10\'','\'B2of10\'','\'B3of10\'','\'B7of10\''
'\'B2of10\'','\'B3of10\'','\'B2of10\'','\'B7of10\'','\'B2of10\'','\'B3of10\'','\'B7of10\''
'\'B5of10\'','\'B5of10\'','\'B7of10\'','\'B7of10\'','\'B2of10\'','\'B4of10\'','\'B7of10\''
'\'B1of10\'','\'B3of10\'','\'B3of10\'','\'B4of10\'','\'B3of10\'','\'B2of10\'','\'B6of10\''
'\'B2of10\'','\'B5of10\'','\'B7of10\'','\'B5of10\'','\'B2of10\'','\'B3of10\'','\'B7of10\''
'\'B1of10\'','\'B3of10\'','\'B3of10\'','\'B5of10\'','\'B3of10\'','\'B2of10\'','\'B6of10\''
'\'B3of10\'','\'B5of10\'','\'B7of10\'','\'B6of10\'','\'B2of10\'','\'B3of10\'','\'B7of10\''
'\'B1of10\'','\'B3of10\'','\'B3of10\'','\'B6of10\'','\'B3of10\'','\'B2of10\'','\'B7of10\''
'\'B2of10\'','\'B3of10\'','\'B8of10\'','\'B6of10\'','\'B2of10\'','\'B3of10\'','\'B7of10\''
'\'B1of10\'','\'B4of10\'','\'B7of10\'','\'B5of10\'','\'B3of10\'','\'B2of10\'','\'B7of10\''
'\'B1of10\'','\'B5of10\'','\'B8of10\'','\'B4of10\'','\'B2of10\'','\'B3of10\'','\'B7of10\''
'\'B2of10\'','\'B5of10\'','\'B1of10\'','\'B6of10\'','\'B2of10\'','\'B5of10\'','\'B8of10\''
'\'B1of10\'','\'B4of10\'','\'B6of10\'','\'B4of10\'','\'B3of10\'','\'B1of10\'','\'B6of10\''
'\'B1of10\'','\'B1of10\'','\'B3of10\'','\'B6of10\'','\'B3of10\'','\'B2of10\'','\'B7of10\''
'\'B1of10\'','\'B1of10\'','\'B2of10\'','\'B6of10\'','\'B3of10\'','\'B2of10\'','\'B7of10\''
'\'B1of10\'','\'B5of10\'','\'B8of10\'','\'B4of10\'','\'B3of10\'','\'B1of10\'','\'B6of10\''
'\'B1of10\'','\'B4of10\'','\'B7of10\'','\'B4of10\'','\'B2of10\'','\'B2of10\'','\'B6of10\''
'\'B7of10\'','\'B6of10\'','\'B8of10\'','\'B5of10\'','\'B2of10\'','\'B3of10\'','\'B7of10\''
'\'B2of10\'','\'B3of10\'','\'B2of10\'','\'B4of10\'','\'B2of10\'','\'B2of10\'','\'B6of10\''
'\'B1of10\'','\'B7of10\'','\'B10of10\'','\'B5of10\'','\'B2of10\'','\'B4of10\'','\'B7of10\''
'\'B1of10\'','\'B2of10\'','\'B10of10\'','\'B4of10\'','\'B3of10\'','\'B2of10\'','\'B6of10\''
'\'B2of10\'','\'B4of10\'','\'B2of10\'','\'B4of10\'','\'B2of10\'','\'B2of10\'','\'B6of10\''
'\'B1of10\'','\'B1of10\'','\'B1of10\'','\'B4of10\'','\'B3of10\'','\'B2of10\'','\'B6of10\''
'\'B1of10\'','\'B1of10\'','\'B2of10\'','\'B4of10\'','\'B3of10\'','\'B2of10\'','\'B6of10\''
'\'B1of10\'','\'B5of10\'','\'B1of10\'','\'B8of10\'','\'B3of10\'','\'B7of10\'','\'B8of10\''
'\'B1of10\'','\'B3of10\'','\'B9of10\'','\'B6of10\'','\'B3of10\'','\'B2of10\'','\'B7of10\''
'\'B1of10\'','\'B2of10\'','\'B9of10\'','\'B5of10\'','\'B3of10\'','\'B2of10\'','\'B7of10\''
'\'B1of10\'','\'B5of10\'','\'B8of10\'','\'B5of10\'','\'B3of10\'','\'B2of10\'','\'B7of10\''
'\'B3of10\'','\'B5of10\'','\'B5of10\'','\'B4of10\'','\'B2of10\'','\'B3of10\'','\'B6of10\''
'\'B1of10\'','\'B4of10\'','\'B10of10\'','\'B4of10\'','\'B3of10\'','\'B2of10\'','\'B6of10\''
'\'B1of10\'','\'B5of10\'','\'B7of10\'','\'B3of10\'','\'B2of10\'','\'B3of10\'','\'B6of10\''
'\'B2of10\'','\'B3of10\'','\'B9of10\'','\'B4of10\'','\'B3of10\'','\'B2of10\'','\'B6of10\''
'\'B1of10\'','\'B2of10\'','\'B9of10\'','\'B5of10\'','\'B2of10\'','\'B3of10\'','\'B7of10\''
'\'B1of10\'','\'B3of10\'','\'B2of10\'','\'B3of10\'','\'B3of10\'','\'B2of10\'','\'B6of10\''
'\'B1of10\'','\'B2of10\'','\'B7of10\'','\'B3of10\'','\'B2of10\'','\'B2of10\'','\'B6of10\''
'\'B2of10\'','\'B1of10\'','\'B2of10\'','\'B5of10\'','\'B2of10\'','\'B3of10\'','\'B6of10\''
'\'B1of10\'','\'B5of10\'','\'B8of10\'','\'B5of10\'','\'B3of10\'','\'B2of10\'','\'B7of10\''
'\'B3of10\'','\'B4of10\'','\'B7of10\'','\'B7of10\'','\'B2of10\'','\'B4of10\'','\'B7of10\''
'\'B1of10\'','\'B5of10\'','\'B7of10\'','\'B5of10\'','\'B3of10\'','\'B2of10\'','\'B7of10\''
'\'B5of10\'','\'B5of10\'','\'B6of10\'','\'B6of10\'','\'B2of10\'','\'B3of10\'','\'B6of10\''
'\'B1of10\'','\'B7of10\'','\'B3of10\'','\'B7of10\'','\'B3of10\'','\'B6of10\'','\'B7of10\''
'\'B2of10\'','\'B2of10\'','\'B7of10\'','\'B4of10\'','\'B3of10\'','\'B2of10\'','\'B7of10\''
'\'B4of10\'','\'B5of10\'','\'B7of10\'','\'B6of10\'','\'B2of10\'','\'B3of10\'','\'B7of10\''
'\'B4of10\'','\'B5of10\'','\'B7of10\'','\'B8of10\'','\'B2of10\'','\'B4of10\'','\'B7of10\''
'\'B2of10\'','\'B6of10\'','\'B7of10\'','\'B4of10\'','\'B3of10\'','\'B2of10\'','\'B6of10\''
'\'B1of10\'','\'B5of10\'','\'B6of10\'','\'B4of10\'','\'B3of10\'','\'B2of10\'','\'B6of10\''
'\'B1of10\'','\'B1of10\'','\'B1of10\'','\'B5of10\'','\'B3of10\'','\'B3of10\'','\'B6of10\''
'\'B1of10\'','\'B3of10\'','\'B10of10\'','\'B4of10\'','\'B2of10\'','\'B3of10\'','\'B6of10\''
'\'B1of10\'','\'B3of10\'','\'B9of10\'','\'B4of10\'','\'B3of10\'','\'B2of10\'','\'B6of10\''
'\'B4of10\'','\'B5of10\'','\'B5of10\'','\'B6of10\'','\'B2of10\'','\'B3of10\'','\'B7of10\''
'\'B2of10\'','\'B6of10\'','\'B7of10\'','\'B3of10\'','\'B3of10\'','\'B2of10\'','\'B6of10\''
'\'B1of10\'','\'B4of10\'','\'B8of10\'','\'B3of10\'','\'B2of10\'','\'B3of10\'','\'B5of10\''
'\'B1of10\'','\'B3of10\'','\'B7of10\'','\'B4of10\'','\'B2of10\'','\'B2of10\'','\'B6of10\''
'\'B2of10\'','\'B5of10\'','\'B4of10\'','\'B3of10\'','\'B3of10\'','\'B2of10\'','\'B5of10\''
'\'B2of10\'','\'B5of10\'','\'B7of10\'','\'B3of10\'','\'B3of10\'','\'B2of10\'','\'B5of10\''
'\'B1of10\'','\'B3of10\'','\'B7of10\'','\'B3of10\'','\'B3of10\'','\'B2of10\'','\'B6of10\''
'\'B5of10\'','\'B4of10\'','\'B8of10\'','\'B7of10\'','\'B2of10\'','\'B4of10\'','\'B7of10\''
'\'B4of10\'','\'B1of10\'','\'B9of10\'','\'B6of10\'','\'B2of10\'','\'B3of10\'','\'B7of10\''
'\'B2of10\'','\'B3of10\'','\'B9of10\'','\'B5of10\'','\'B2of10\'','\'B3of10\'','\'B7of10\''
'\'B1of10\'','\'B4of10\'','\'B8of10\'','\'B3of10\'','\'B3of10\'','\'B2of10\'','\'B5of10\''
'\'B3of10\'','\'B5of10\'','\'B7of10\'','\'B3of10\'','\'B2of10\'','\'B3of10\'','\'B6of10\''
'\'B4of10\'','\'B4of10\'','\'B7of10\'','\'B4of10\'','\'B2of10\'','\'B2of10\'','\'B6of10\''
'\'B1of10\'','\'B2of10\'','\'B4of10\'','\'B5of10\'','\'B3of10\'','\'B3of10\'','\'B6of10\''
'\'B4of10\'','\'B3of10\'','\'B7of10\'','\'B4of10\'','\'B2of10\'','\'B3of10\'','\'B5of10\''
'\'B1of10\'','\'B6of10\'','\'B10of10\'','\'B6of10\'','\'B2of10\'','\'B4of10\'','\'B7of10\''
'\'B1of10\'','\'B2of10\'','\'B4of10\'','\'B4of10\'','\'B3of10\'','\'B2of10\'','\'B5of10\''
'\'B1of10\'','\'B4of10\'','\'B4of10\'','\'B2of10\'','\'B3of10\'','\'B2of10\'','\'B5of10\''
'\'B2of10\'','\'B4of10\'','\'B7of10\'','\'B3of10\'','\'B2of10\'','\'B3of10\'','\'B5of10\''
'\'B2of10\'','\'B3of10\'','\'B8of10\'','\'B5of10\'','\'B2of10\'','\'B3of10\'','\'B6of10\''
'\'B1of10\'','\'B3of10\'','\'B9of10\'','\'B6of10\'','\'B2of10\'','\'B3of10\'','\'B7of10\''
'\'B2of10\'','\'B3of10\'','\'B9of10\'','\'B5of10\'','\'B2of10\'','\'B3of10\'','\'B6of10\''
'\'B1of10\'','\'B4of10\'','\'B10of10\'','\'B5of10\'','\'B2of10\'','\'B4of10\'','\'B7of10\''
'\'B1of10\'','\'B4of10\'','\'B8of10\'','\'B8of10\'','\'B2of10\'','\'B6of10\'','\'B9of10\''
'\'B1of10\'','\'B4of10\'','\'B3of10\'','\'B9of10\'','\'B1of10\'','\'B8of10\'','\'B9of10\''
'\'B2of10\'','\'B6of10\'','\'B1of10\'','\'B6of10\'','\'B3of10\'','\'B6of10\'','\'B7of10\''
'\'B1of10\'','\'B4of10\'','\'B8of10\'','\'B4of10\'','\'B2of10\'','\'B2of10\'','\'B6of10\''
'\'B1of10\'','\'B7of10\'','\'B8of10\'','\'B8of10\'','\'B2of10\'','\'B6of10\'','\'B8of10\''
'\'B1of10\'','\'B3of10\'','\'B3of10\'','\'B5of10\'','\'B3of10\'','\'B2of10\'','\'B6of10\''
'\'B1of10\'','\'B3of10\'','\'B5of10\'','\'B5of10\'','\'B2of10\'','\'B4of10\'','\'B7of10\''
'\'B1of10\'','\'B4of10\'','\'B3of10\'','\'B3of10\'','\'B3of10\'','\'B2of10\'','\'B6of10\''
'\'B5of10\'','\'B4of10\'','\'B7of10\'','\'B4of10\'','\'B2of10\'','\'B3of10\'','\'B6of10\''
'\'B1of10\'','\'B4of10\'','\'B3of10\'','\'B3of10\'','\'B3of10\'','\'B3of10\'','\'B5of10\''
'\'B1of10\'','\'B5of10\'','\'B6of10\'','\'B4of10\'','\'B2of10\'','\'B4of10\'','\'B6of10\''
'\'B1of10\'','\'B6of10\'','\'B9of10\'','\'B8of10\'','\'B2of10\'','\'B6of10\'','\'B8of10\''
'\'B2of10\'','\'B6of10\'','\'B1of10\'','\'B8of10\'','\'B1of10\'','\'B5of10\'','\'B7of10\''
'\'B3of10\'','\'B4of10\'','\'B6of10\'','\'B5of10\'','\'B2of10\'','\'B3of10\'','\'B6of10\''
'\'B1of10\'','\'B5of10\'','\'B1of10\'','\'B4of10\'','\'B3of10\'','\'B6of10\'','\'B4of10\''
'\'B4of10\'','\'B4of10\'','\'B6of10\'','\'B7of10\'','\'B2of10\'','\'B6of10\'','\'B8of10\''
'\'B1of10\'','\'B4of10\'','\'B8of10\'','\'B7of10\'','\'B2of10\'','\'B6of10\'','\'B8of10\''
'\'B5of10\'','\'B6of10\'','\'B6of10\'','\'B5of10\'','\'B2of10\'','\'B4of10\'','\'B6of10\''
'\'B1of10\'','\'B4of10\'','\'B1of10\'','\'B8of10\'','\'B1of10\'','\'B6of10\'','\'B8of10\''
'\'B2of10\'','\'B4of10\'','\'B1of10\'','\'B3of10\'','\'B2of10\'','\'B3of10\'','\'B5of10\''
'\'B2of10\'','\'B5of10\'','\'B6of10\'','\'B6of10\'','\'B2of10\'','\'B5of10\'','\'B7of10\''
'\'B1of10\'','\'B4of10\'','\'B9of10\'','\'B4of10\'','\'B3of10\'','\'B2of10\'','\'B6of10\''
'\'B1of10\'','\'B2of10\'','\'B8of10\'','\'B2of10\'','\'B2of10\'','\'B3of10\'','\'B5of10\''
'\'B4of10\'','\'B4of10\'','\'B9of10\'','\'B5of10\'','\'B2of10\'','\'B3of10\'','\'B7of10\''
'\'B2of10\'','\'B3of10\'','\'B6of10\'','\'B3of10\'','\'B2of10\'','\'B4of10\'','\'B5of10\''
'\'B7of10\'','\'B3of10\'','\'B8of10\'','\'B5of10\'','\'B2of10\'','\'B4of10\'','\'B6of10\''
'\'B9of10\'','\'B6of10\'','\'B6of10\'','\'B6of10\'','\'B2of10\'','\'B4of10\'','\'B7of10\''
'\'B9of10\'','\'B6of10\'','\'B7of10\'','\'B6of10\'','\'B2of10\'','\'B4of10\'','\'B7of10\''
'\'B4of10\'','\'B6of10\'','\'B7of10\'','\'B8of10\'','\'B2of10\'','\'B8of10\'','\'B10of10\''
'\'B1of10\'','\'B3of10\'','\'B2of10\'','\'B4of10\'','\'B2of10\'','\'B3of10\'','\'B6of10\''
'\'B2of10\'','\'B3of10\'','\'B7of10\'','\'B4of10\'','\'B2of10\'','\'B4of10\'','\'B5of10\''
'\'B2of10\'','\'B3of10\'','\'B9of10\'','\'B8of10\'','\'B1of10\'','\'B6of10\'','\'B8of10\''
'\'B1of10\'','\'B2of10\'','\'B1of10\'','\'B4of10\'','\'B3of10\'','\'B6of10\'','\'B5of10\''
'\'B1of10\'','\'B3of10\'','\'B1of10\'','\'B6of10\'','\'B3of10\'','\'B2of10\'','\'B7of10\''
'\'B1of10\'','\'B3of10\'','\'B10of10\'','\'B4of10\'','\'B3of10\'','\'B3of10\'','\'B6of10\''
'\'B7of10\'','\'B5of10\'','\'B6of10\'','\'B5of10\'','\'B2of10\'','\'B4of10\'','\'B6of10\''
'\'B1of10\'','\'B3of10\'','\'B7of10\'','\'B3of10\'','\'B2of10\'','\'B3of10\'','\'B6of10\''
'\'B7of10\'','\'B6of10\'','\'B6of10\'','\'B5of10\'','\'B2of10\'','\'B4of10\'','\'B6of10\''
'\'B2of10\'','\'B4of10\'','\'B6of10\'','\'B8of10\'','\'B2of10\'','\'B5of10\'','\'B7of10\''
'\'B2of10\'','\'B5of10\'','\'B9of10\'','\'B9of10\'','\'B2of10\'','\'B7of10\'','\'B10of10\''
'\'B2of10\'','\'B4of10\'','\'B6of10\'','\'B8of10\'','\'B2of10\'','\'B4of10\'','\'B7of10\''
'\'B4of10\'','\'B7of10\'','\'B6of10\'','\'B8of10\'','\'B2of10\'','\'B5of10\'','\'B7of10\''
'\'B4of10\'','\'B8of10\'','\'B6of10\'','\'B8of10\'','\'B2of10\'','\'B5of10\'','\'B7of10\''
'\'B1of10\'','\'B5of10\'','\'B8of10\'','\'B10of10\'','\'B2of10\'','\'B6of10\'','\'B10of10\''
'\'B1of10\'','\'B4of10\'','\'B3of10\'','\'B5of10\'','\'B1of10\'','\'B5of10\'','\'B7of10\''
'\'B6of10\'','\'B4of10\'','\'B7of10\'','\'B5of10\'','\'B2of10\'','\'B3of10\'','\'B6of10\''
'\'B9of10\'','\'B4of10\'','\'B7of10\'','\'B5of10\'','\'B2of10\'','\'B3of10\'','\'B6of10\''
'\'B7of10\'','\'B6of10\'','\'B6of10\'','\'B6of10\'','\'B2of10\'','\'B4of10\'','\'B6of10\''
'\'B5of10\'','\'B2of10\'','\'B8of10\'','\'B6of10\'','\'B2of10\'','\'B5of10\'','\'B6of10\''
'\'B5of10\'','\'B4of10\'','\'B10of10\'','\'B6of10\'','\'B2of10\'','\'B5of10\'','\'B6of10\''
'\'B1of10\'','\'B2of10\'','\'B5of10\'','\'B3of10\'','\'B2of10\'','\'B3of10\'','\'B5of10\''
'\'B4of10\'','\'B3of10\'','\'B9of10\'','\'B4of10\'','\'B2of10\'','\'B3of10\'','\'B6of10\''
'\'B3of10\'','\'B6of10\'','\'B6of10\'','\'B9of10\'','\'B2of10\'','\'B7of10\'','\'B8of10\''
'\'B2of10\'','\'B6of10\'','\'B6of10\'','\'B9of10\'','\'B2of10\'','\'B6of10\'','\'B8of10\''
'\'B1of10\'','\'B5of10\'','\'B8of10\'','\'B10of10\'','\'B2of10\'','\'B7of10\'','\'B9of10\''
'\'B2of10\'','\'B6of10\'','\'B9of10\'','\'B9of10\'','\'B2of10\'','\'B6of10\'','\'B8of10\''
'\'B1of10\'','\'B1of10\'','\'B6of10\'','\'B2of10\'','\'B3of10\'','\'B3of10\'','\'B5of10\''
'\'B2of10\'','\'B3of10\'','\'B10of10\'','\'B8of10\'','\'B2of10\'','\'B5of10\'','\'B7of10\''
'\'B2of10\'','\'B5of10\'','\'B9of10\'','\'B7of10\'','\'B1of10\'','\'B5of10\'','\'B6of10\''
'\'B4of10\'','\'B1of10\'','\'B1of10\'','\'B8of10\'','\'B2of10\'','\'B6of10\'','\'B7of10\''
'\'B2of10\'','\'B6of10\'','\'B10of10\'','\'B7of10\'','\'B2of10\'','\'B5of10\'','\'B7of10\''
'\'B4of10\'','\'B5of10\'','\'B9of10\'','\'B8of10\'','\'B2of10\'','\'B6of10\'','\'B7of10\''
'\'B1of10\'','\'B4of10\'','\'B3of10\'','\'B5of10\'','\'B1of10\'','\'B5of10\'','\'B6of10\''
'\'B4of10\'','\'B4of10\'','\'B9of10\'','\'B8of10\'','\'B2of10\'','\'B6of10\'','\'B7of10\''
'\'B3of10\'','\'B3of10\'','\'B2of10\'','\'B8of10\'','\'B2of10\'','\'B6of10\'','\'B8of10\''
'\'B2of10\'','\'B5of10\'','\'B8of10\'','\'B8of10\'','\'B2of10\'','\'B6of10\'','\'B8of10\''
'\'B2of10\'','\'B3of10\'','\'B9of10\'','\'B9of10\'','\'B2of10\'','\'B6of10\'','\'B8of10\''
'\'B2of10\'','\'B2of10\'','\'B2of10\'','\'B9of10\'','\'B2of10\'','\'B6of10\'','\'B8of10\''
'\'B4of10\'','\'B4of10\'','\'B9of10\'','\'B7of10\'','\'B2of10\'','\'B6of10\'','\'B7of10\''
'\'B4of10\'','\'B3of10\'','\'B1of10\'','\'B8of10\'','\'B2of10\'','\'B7of10\'','\'B8of10\''
'\'B1of10\'','\'B2of10\'','\'B9of10\'','\'B3of10\'','\'B1of10\'','\'B5of10\'','\'B4of10\''
'\'B4of10\'','\'B5of10\'','\'B9of10\'','\'B8of10\'','\'B2of10\'','\'B7of10\'','\'B8of10\''
'\'B4of10\'','\'B5of10\'','\'B6of10\'','\'B3of10\'','\'B3of10\'','\'B3of10\'','\'B5of10\''
'\'B4of10\'','\'B5of10\'','\'B9of10\'','\'B8of10\'','\'B2of10\'','\'B6of10\'','\'B7of10\''
'\'B1of10\'','\'B3of10\'','\'B7of10\'','\'B3of10\'','\'B3of10\'','\'B3of10\'','\'B5of10\''
'\'B3of10\'','\'B4of10\'','\'B6of10\'','\'B4of10\'','\'B2of10\'','\'B3of10\'','\'B6of10\''
'\'B5of10\'','\'B4of10\'','\'B10of10\'','\'B8of10\'','\'B2of10\'','\'B7of10\'','\'B8of10\''
'\'B4of10\'','\'B5of10\'','\'B2of10\'','\'B8of10\'','\'B2of10\'','\'B6of10\'','\'B8of10\''
'\'B1of10\'','\'B5of10\'','\'B2of10\'','\'B8of10\'','\'B2of10\'','\'B6of10\'','\'B8of10\''
'\'B1of10\'','\'B5of10\'','\'B4of10\'','\'B4of10\'','\'B3of10\'','\'B2of10\'','\'B6of10\''
'\'B1of10\'','\'B2of10\'','\'B4of10\'','\'B4of10\'','\'B2of10\'','\'B3of10\'','\'B5of10\''
'\'B2of10\'','\'B4of10\'','\'B6of10\'','\'B4of10\'','\'B2of10\'','\'B3of10\'','\'B5of10\''
'\'B5of10\'','\'B4of10\'','\'B6of10\'','\'B4of10\'','\'B3of10\'','\'B3of10\'','\'B6of10\''
'\'B4of10\'','\'B5of10\'','\'B8of10\'','\'B7of10\'','\'B2of10\'','\'B6of10\'','\'B7of10\''
'\'B5of10\'','\'B5of10\'','\'B6of10\'','\'B3of10\'','\'B2of10\'','\'B3of10\'','\'B6of10\''
'\'B1of10\'','\'B3of10\'','\'B4of10\'','\'B4of10\'','\'B3of10\'','\'B2of10\'','\'B6of10\''
'\'B4of10\'','\'B3of10\'','\'B4of10\'','\'B5of10\'','\'B2of10\'','\'B3of10\'','\'B6of10\''
'\'B3of10\'','\'B4of10\'','\'B8of10\'','\'B6of10\'','\'B2of10\'','\'B5of10\'','\'B6of10\''
'\'B3of10\'','\'B2of10\'','\'B7of10\'','\'B4of10\'','\'B2of10\'','\'B3of10\'','\'B6of10\''
'\'B2of10\'','\'B3of10\'','\'B5of10\'','\'B4of10\'','\'B2of10\'','\'B4of10\'','\'B5of10\''
'\'B1of10\'','\'B4of10\'','\'B4of10\'','\'B4of10\'','\'B3of10\'','\'B2of10\'','\'B5of10\''
'\'B1of10\'','\'B1of10\'','\'B5of10\'','\'B2of10\'','\'B3of10\'','\'B3of10\'','\'B4of10\''
'\'B1of10\'','\'B3of10\'','\'B1of10\'','\'B6of10\'','\'B2of10\'','\'B5of10\'','\'B6of10\''
'\'B1of10\'','\'B2of10\'','\'B9of10\'','\'B6of10\'','\'B2of10\'','\'B5of10\'','\'B6of10\''
'\'B4of10\'','\'B5of10\'','\'B6of10\'','\'B3of10\'','\'B3of10\'','\'B3of10\'','\'B6of10\''
'\'B4of10\'','\'B5of10\'','\'B6of10\'','\'B4of10\'','\'B2of10\'','\'B4of10\'','\'B5of10\''
'\'B5of10\'','\'B4of10\'','\'B9of10\'','\'B7of10\'','\'B2of10\'','\'B6of10\'','\'B7of10\''
'\'B1of10\'','\'B5of10\'','\'B4of10\'','\'B3of10\'','\'B3of10\'','\'B2of10\'','\'B5of10\''
'\'B5of10\'','\'B4of10\'','\'B8of10\'','\'B4of10\'','\'B2of10\'','\'B3of10\'','\'B6of10\''
'\'B5of10\'','\'B4of10\'','\'B6of10\'','\'B5of10\'','\'B2of10\'','\'B3of10\'','\'B6of10\''
'\'B1of10\'','\'B5of10\'','\'B9of10\'','\'B4of10\'','\'B1of10\'','\'B5of10\'','\'B5of10\''
'\'B1of10\'','\'B5of10\'','\'B2of10\'','\'B5of10\'','\'B3of10\'','\'B6of10\'','\'B5of10\''
'\'B1of10\'','\'B2of10\'','\'B2of10\'','\'B5of10\'','\'B3of10\'','\'B3of10\'','\'B7of10\''
'\'B3of10\'','\'B4of10\'','\'B6of10\'','\'B2of10\'','\'B3of10\'','\'B3of10\'','\'B5of10\''
'\'B2of10\'','\'B3of10\'','\'B6of10\'','\'B2of10\'','\'B3of10\'','\'B3of10\'','\'B4of10\''
'\'B2of10\'','\'B2of10\'','\'B5of10\'','\'B2of10\'','\'B3of10\'','\'B3of10\'','\'B4of10\''
'\'B3of10\'','\'B2of10\'','\'B6of10\'','\'B5of10\'','\'B2of10\'','\'B3of10\'','\'B6of10\''
'\'B4of10\'','\'B4of10\'','\'B7of10\'','\'B5of10\'','\'B2of10\'','\'B5of10\'','\'B6of10\''
'\'B1of10\'','\'B5of10\'','\'B10of10\'','\'B4of10\'','\'B1of10\'','\'B5of10\'','\'B5of10\''
'\'B1of10\'','\'B2of10\'','\'B3of10\'','\'B4of10\'','\'B3of10\'','\'B2of10\'','\'B5of10\''
'\'B3of10\'','\'B3of10\'','\'B6of10\'','\'B5of10\'','\'B2of10\'','\'B3of10\'','\'B6of10\''
'\'B6of10\'','\'B5of10\'','\'B6of10\'','\'B4of10\'','\'B2of10\'','\'B4of10\'','\'B6of10\''
'\'B2of10\'','\'B4of10\'','\'B8of10\'','\'B8of10\'','\'B2of10\'','\'B7of10\'','\'B10of10\''
'\'B1of10\'','\'B2of10\'','\'B1of10\'','\'B5of10\'','\'B1of10\'','\'B5of10\'','\'B6of10\''
'\'B1of10\'','\'B2of10\'','\'B1of10\'','\'B4of10\'','\'B3of10\'','\'B2of10\'','\'B6of10\''
'\'B4of10\'','\'B3of10\'','\'B5of10\'','\'B5of10\'','\'B3of10\'','\'B3of10\'','\'B6of10\''
'\'B1of10\'','\'B4of10\'','\'B6of10\'','\'B4of10\'','\'B2of10\'','\'B3of10\'','\'B6of10\''
'\'B1of10\'','\'B4of10\'','\'B5of10\'','\'B5of10\'','\'B2of10\'','\'B4of10\'','\'B6of10\''
'\'B4of10\'','\'B2of10\'','\'B7of10\'','\'B9of10\'','\'B2of10\'','\'B7of10\'','\'B10of10\''
'\'B2of10\'','\'B3of10\'','\'B2of10\'','\'B5of10\'','\'B1of10\'','\'B5of10\'','\'B6of10\''
'\'B2of10\'','\'B4of10\'','\'B5of10\'','\'B2of10\'','\'B3of10\'','\'B3of10\'','\'B4of10\''
'\'B3of10\'','\'B2of10\'','\'B5of10\'','\'B4of10\'','\'B2of10\'','\'B3of10\'','\'B6of10\''
'\'B6of10\'','\'B4of10\'','\'B8of10\'','\'B5of10\'','\'B2of10\'','\'B3of10\'','\'B6of10\''
'\'B6of10\'','\'B3of10\'','\'B8of10\'','\'B5of10\'','\'B2of10\'','\'B3of10\'','\'B6of10\''
'\'B1of10\'','\'B2of10\'','\'B2of10\'','\'B4of10\'','\'B3of10\'','\'B2of10\'','\'B6of10\''
'\'B1of10\'','\'B4of10\'','\'B3of10\'','\'B4of10\'','\'B2of10\'','\'B3of10\'','\'B6of10\''
'\'B9of10\'','\'B4of10\'','\'B8of10\'','\'B5of10\'','\'B2of10\'','\'B3of10\'','\'B6of10\''
'\'B5of10\'','\'B4of10\'','\'B4of10\'','\'B8of10\'','\'B2of10\'','\'B6of10\'','\'B7of10\''
'\'B2of10\'','\'B4of10\'','\'B7of10\'','\'B8of10\'','\'B2of10\'','\'B6of10\'','\'B9of10\''
'\'B2of10\'','\'B3of10\'','\'B5of10\'','\'B3of10\'','\'B3of10\'','\'B3of10\'','\'B5of10\''
'\'B4of10\'','\'B2of10\'','\'B5of10\'','\'B4of10\'','\'B2of10\'','\'B3of10\'','\'B6of10\''
'\'B2of10\'','\'B4of10\'','\'B7of10\'','\'B7of10\'','\'B2of10\'','\'B5of10\'','\'B8of10\''
'\'B1of10\'','\'B3of10\'','\'B3of10\'','\'B5of10\'','\'B1of10\'','\'B5of10\'','\'B6of10\''
'\'B2of10\'','\'B2of10\'','\'B5of10\'','\'B5of10\'','\'B2of10\'','\'B3of10\'','\'B6of10\''
'\'B4of10\'','\'B5of10\'','\'B4of10\'','\'B5of10\'','\'B2of10\'','\'B3of10\'','\'B6of10\''
'\'B3of10\'','\'B7of10\'','\'B7of10\'','\'B9of10\'','\'B2of10\'','\'B6of10\'','\'B9of10\''
'\'B1of10\'','\'B2of10\'','\'B8of10\'','\'B4of10\'','\'B3of10\'','\'B3of10\'','\'B6of10\''
'\'B1of10\'','\'B4of10\'','\'B10of10\'','\'B5of10\'','\'B2of10\'','\'B3of10\'','\'B6of10\''
'\'B4of10\'','\'B5of10\'','\'B5of10\'','\'B6of10\'','\'B2of10\'','\'B5of10\'','\'B6of10\''
'\'B2of10\'','\'B5of10\'','\'B10of10\'','\'B4of10\'','\'B1of10\'','\'B5of10\'','\'B6of10\''
'\'B1of10\'','\'B3of10\'','\'B7of10\'','\'B2of10\'','\'B3of10\'','\'B3of10\'','\'B4of10\''
'\'B6of10\'','\'B5of10\'','\'B5of10\'','\'B5of10\'','\'B2of10\'','\'B4of10\'','\'B6of10\''
'\'B1of10\'','\'B1of10\'','\'B5of10\'','\'B5of10\'','\'B2of10\'','\'B4of10\'','\'B6of10\''
'\'B5of10\'','\'B5of10\'','\'B6of10\'','\'B5of10\'','\'B2of10\'','\'B5of10\'','\'B6of10\''
'\'B9of10\'','\'B6of10\'','\'B9of10\'','\'B6of10\'','\'B2of10\'','\'B5of10\'','\'B6of10\''
'\'B3of10\'','\'B2of10\'','\'B7of10\'','\'B6of10\'','\'B2of10\'','\'B6of10\'','\'B8of10\''
'\'B3of10\'','\'B3of10\'','\'B7of10\'','\'B6of10\'','\'B2of10\'','\'B6of10\'','\'B8of10\''
'\'B1of10\'','\'B2of10\'','\'B10of10\'','\'B5of10\'','\'B2of10\'','\'B3of10\'','\'B6of10\''
'\'B1of10\'','\'B4of10\'','\'B1of10\'','\'B4of10\'','\'B2of10\'','\'B3of10\'','\'B6of10\''
'\'B4of10\'','\'B2of10\'','\'B5of10\'','\'B5of10\'','\'B2of10\'','\'B3of10\'','\'B6of10\''
'\'B1of10\'','\'B4of10\'','\'B2of10\'','\'B5of10\'','\'B3of10\'','\'B2of10\'','\'B6of10\''
'\'B1of10\'','\'B4of10\'','\'B2of10\'','\'B4of10\'','\'B2of10\'','\'B3of10\'','\'B6of10\''
'\'B4of10\'','\'B2of10\'','\'B5of10\'','\'B5of10\'','\'B2of10\'','\'B3of10\'','\'B6of10\''
'\'B2of10\'','\'B4of10\'','\'B10of10\'','\'B4of10\'','\'B1of10\'','\'B5of10\'','\'B4of10\''
'\'B1of10\'','\'B4of10\'','\'B2of10\'','\'B5of10\'','\'B2of10\'','\'B3of10\'','\'B6of10\''
'\'B1of10\'','\'B3of10\'','\'B10of10\'','\'B5of10\'','\'B2of10\'','\'B3of10\'','\'B6of10\''
'\'B5of10\'','\'B7of10\'','\'B6of10\'','\'B8of10\'','\'B2of10\'','\'B6of10\'','\'B7of10\''
'\'B1of10\'','\'B1of10\'','\'B4of10\'','\'B4of10\'','\'B3of10\'','\'B2of10\'','\'B5of10\''
'\'B3of10\'','\'B1of10\'','\'B9of10\'','\'B3of10\'','\'B3of10\'','\'B3of10\'','\'B4of10\''
'\'B2of10\'','\'B1of10\'','\'B9of10\'','\'B3of10\'','\'B3of10\'','\'B3of10\'','\'B4of10\''
'\'B7of10\'','\'B5of10\'','\'B5of10\'','\'B6of10\'','\'B2of10\'','\'B5of10\'','\'B6of10\''
'\'B1of10\'','\'B4of10\'','\'B10of10\'','\'B5of10\'','\'B2of10\'','\'B3of10\'','\'B6of10\''
'\'B7of10\'','\'B6of10\'','\'B8of10\'','\'B8of10\'','\'B2of10\'','\'B6of10\'','\'B8of10\''
'\'B1of10\'','\'B3of10\'','\'B1of10\'','\'B5of10\'','\'B3of10\'','\'B3of10\'','\'B5of10\''
'\'B1of10\'','\'B3of10\'','\'B2of10\'','\'B5of10\'','\'B3of10\'','\'B2of10\'','\'B6of10\''
'\'B1of10\'','\'B3of10\'','\'B8of10\'','\'B5of10\'','\'B3of10\'','\'B3of10\'','\'B7of10\''
'\'B2of10\'','\'B6of10\'','\'B7of10\'','\'B6of10\'','\'B2of10\'','\'B5of10\'','\'B7of10\''
'\'B4of10\'','\'B3of10\'','\'B3of10\'','\'B7of10\'','\'B2of10\'','\'B5of10\'','\'B6of10\''
'\'B2of10\'','\'B1of10\'','\'B3of10\'','\'B10of10\'','\'B2of10\'','\'B8of10\'','\'B9of10\''
'\'B2of10\'','\'B4of10\'','\'B4of10\'','\'B8of10\'','\'B2of10\'','\'B6of10\'','\'B8of10\''
'\'B1of10\'','\'B4of10\'','\'B2of10\'','\'B6of10\'','\'B3of10\'','\'B3of10\'','\'B6of10\''
'\'B5of10\'','\'B7of10\'','\'B7of10\'','\'B8of10\'','\'B2of10\'','\'B6of10\'','\'B8of10\''
'\'B3of10\'','\'B5of10\'','\'B9of10\'','\'B3of10\'','\'B3of10\'','\'B3of10\'','\'B5of10\''
'\'B6of10\'','\'B4of10\'','\'B5of10\'','\'B7of10\'','\'B2of10\'','\'B5of10\'','\'B6of10\''
'\'B7of10\'','\'B5of10\'','\'B6of10\'','\'B7of10\'','\'B2of10\'','\'B5of10\'','\'B6of10\''
'\'B10of10\'','\'B7of10\'','\'B7of10\'','\'B7of10\'','\'B2of10\'','\'B6of10\'','\'B7of10\''
'\'B9of10\'','\'B5of10\'','\'B7of10\'','\'B7of10\'','\'B2of10\'','\'B6of10\'','\'B7of10\''
'\'B4of10\'','\'B5of10\'','\'B6of10\'','\'B8of10\'','\'B2of10\'','\'B6of10\'','\'B7of10\''
'\'B7of10\'','\'B4of10\'','\'B8of10\'','\'B5of10\'','\'B2of10\'','\'B5of10\'','\'B6of10\''
'\'B10of10\'','\'B6of10\'','\'B7of10\'','\'B9of10\'','\'B2of10\'','\'B8of10\'','\'B9of10\''
'\'B1of10\'','\'B2of10\'','\'B2of10\'','\'B10of10\'','\'B2of10\'','\'B8of10\'','\'B9of10\''
'\'B2of10\'','\'B3of10\'','\'B10of10\'','\'B5of10\'','\'B2of10\'','\'B4of10\'','\'B6of10\''
'\'B7of10\'','\'B7of10\'','\'B8of10\'','\'B7of10\'','\'B2of10\'','\'B5of10\'','\'B7of10\''
'\'B1of10\'','\'B2of10\'','\'B1of10\'','\'B5of10\'','\'B3of10\'','\'B3of10\'','\'B6of10\''
'\'B4of10\'','\'B3of10\'','\'B8of10\'','\'B5of10\'','\'B2of10\'','\'B5of10\'','\'B7of10\''
'\'B7of10\'','\'B6of10\'','\'B9of10\'','\'B8of10\'','\'B2of10\'','\'B6of10\'','\'B8of10\''
'\'B2of10\'','\'B2of10\'','\'B5of10\'','\'B3of10\'','\'B3of10\'','\'B3of10\'','\'B5of10\''
'\'B5of10\'','\'B4of10\'','\'B8of10\'','\'B5of10\'','\'B2of10\'','\'B5of10\'','\'B6of10\''
'\'B2of10\'','\'B2of10\'','\'B8of10\'','\'B4of10\'','\'B2of10\'','\'B4of10\'','\'B5of10\''
'\'B3of10\'','\'B4of10\'','\'B1of10\'','\'B5of10\'','\'B2of10\'','\'B5of10\'','\'B5of10\''
'\'B1of10\'','\'B4of10\'','\'B5of10\'','\'B4of10\'','\'B3of10\'','\'B3of10\'','\'B5of10\''
'\'B2of10\'','\'B4of10\'','\'B1of10\'','\'B5of10\'','\'B2of10\'','\'B5of10\'','\'B5of10\''
'\'B7of10\'','\'B6of10\'','\'B10of10\'','\'B8of10\'','\'B2of10\'','\'B6of10\'','\'B7of10\''
'\'B1of10\'','\'B2of10\'','\'B6of10\'','\'B4of10\'','\'B3of10\'','\'B3of10\'','\'B6of10\''
'\'B2of10\'','\'B2of10\'','\'B5of10\'','\'B4of10\'','\'B3of10\'','\'B3of10\'','\'B6of10\''
'\'B1of10\'','\'B2of10\'','\'B10of10\'','\'B5of10\'','\'B2of10\'','\'B5of10\'','\'B4of10\''
'\'B10of10\'','\'B5of10\'','\'B9of10\'','\'B9of10\'','\'B2of10\'','\'B8of10\'','\'B9of10\''
'\'B1of10\'','\'B2of10\'','\'B9of10\'','\'B4of10\'','\'B2of10\'','\'B4of10\'','\'B5of10\''
'\'B1of10\'','\'B2of10\'','\'B3of10\'','\'B8of10\'','\'B2of10\'','\'B6of10\'','\'B7of10\''
'\'B1of10\'','\'B2of10\'','\'B2of10\'','\'B8of10\'','\'B2of10\'','\'B5of10\'','\'B7of10\''
'\'B5of10\'','\'B3of10\'','\'B10of10\'','\'B6of10\'','\'B2of10\'','\'B5of10\'','\'B6of10\''
'\'B1of10\'','\'B6of10\'','\'B8of10\'','\'B9of10\'','\'B2of10\'','\'B7of10\'','\'B9of10\''
'\'B1of10\'','\'B4of10\'','\'B10of10\'','\'B4of10\'','\'B3of10\'','\'B2of10\'','\'B5of10\''
'\'B4of10\'','\'B3of10\'','\'B9of10\'','\'B5of10\'','\'B2of10\'','\'B5of10\'','\'B5of10\''
'\'B9of10\'','\'B3of10\'','\'B8of10\'','\'B5of10\'','\'B2of10\'','\'B5of10\'','\'B5of10\''
'\'B1of10\'','\'B1of10\'','\'B2of10\'','\'B4of10\'','\'B3of10\'','\'B2of10\'','\'B5of10\''
'\'B2of10\'','\'B2of10\'','\'B1of10\'','\'B4of10\'','\'B3of10\'','\'B2of10\'','\'B5of10\''
'\'B1of10\'','\'B4of10\'','\'B9of10\'','\'B4of10\'','\'B2of10\'','\'B3of10\'','\'B5of10\''
'\'B2of10\'','\'B3of10\'','\'B9of10\'','\'B3of10\'','\'B2of10\'','\'B4of10\'','\'B5of10\''
'\'B1of10\'','\'B3of10\'','\'B1of10\'','\'B4of10\'','\'B2of10\'','\'B5of10\'','\'B5of10\''
'\'B1of10\'','\'B1of10\'','\'B1of10\'','\'B10of10\'','\'B2of10\'','\'B8of10\'','\'B9of10\''
'\'B1of10\'','\'B2of10\'','\'B3of10\'','\'B10of10\'','\'B2of10\'','\'B7of10\'','\'B9of10\''
'\'B2of10\'','\'B4of10\'','\'B2of10\'','\'B4of10\'','\'B2of10\'','\'B3of10\'','\'B5of10\''
'\'B2of10\'','\'B1of10\'','\'B9of10\'','\'B3of10\'','\'B2of10\'','\'B3of10\'','\'B5of10\''
'\'B4of10\'','\'B2of10\'','\'B10of10\'','\'B5of10\'','\'B2of10\'','\'B5of10\'','\'B5of10\''
'\'B1of10\'','\'B2of10\'','\'B2of10\'','\'B8of10\'','\'B2of10\'','\'B6of10\'','\'B7of10\''
'\'B3of10\'','\'B2of10\'','\'B10of10\'','\'B10of10\'','\'B2of10\'','\'B8of10\'','\'B9of10\''
'\'B1of10\'','\'B3of10\'','\'B2of10\'','\'B6of10\'','\'B2of10\'','\'B5of10\'','\'B7of10\''
'\'B1of10\'','\'B3of10\'','\'B8of10\'','\'B4of10\'','\'B3of10\'','\'B3of10\'','\'B6of10\''
'\'B6of10\'','\'B3of10\'','\'B9of10\'','\'B4of10\'','\'B2of10\'','\'B5of10\'','\'B5of10\''
'\'B8of10\'','\'B3of10\'','\'B8of10\'','\'B5of10\'','\'B2of10\'','\'B5of10\'','\'B5of10\''
'\'B1of10\'','\'B3of10\'','\'B2of10\'','\'B6of10\'','\'B2of10\'','\'B5of10\'','\'B7of10\''
'\'B1of10\'','\'B5of10\'','\'B2of10\'','\'B6of10\'','\'B2of10\'','\'B4of10\'','\'B6of10\''
'\'B1of10\'','\'B3of10\'','\'B3of10\'','\'B9of10\'','\'B2of10\'','\'B7of10\'','\'B9of10\''
'\'B1of10\'','\'B3of10\'','\'B4of10\'','\'B3of10\'','\'B1of10\'','\'B6of10\'','\'B4of10\''
'\'B8of10\'','\'B5of10\'','\'B9of10\'','\'B8of10\'','\'B2of10\'','\'B8of10\'','\'B9of10\''
'\'B1of10\'','\'B2of10\'','\'B3of10\'','\'B8of10\'','\'B2of10\'','\'B6of10\'','\'B7of10\''
'\'B2of10\'','\'B2of10\'','\'B3of10\'','\'B7of10\'','\'B2of10\'','\'B5of10\'','\'B7of10\''
'\'B1of10\'','\'B3of10\'','\'B2of10\'','\'B5of10\'','\'B3of10\'','\'B3of10\'','\'B6of10\''
'\'B2of10\'','\'B2of10\'','\'B2of10\'','\'B6of10\'','\'B2of10\'','\'B5of10\'','\'B7of10\''
'\'B4of10\'','\'B6of10\'','\'B1of10\'','\'B5of10\'','\'B2of10\'','\'B5of10\'','\'B5of10\''
'\'B1of10\'','\'B2of10\'','\'B2of10\'','\'B7of10\'','\'B2of10\'','\'B5of10\'','\'B7of10\''
'\'B2of10\'','\'B2of10\'','\'B8of10\'','\'B4of10\'','\'B2of10\'','\'B5of10\'','\'B4of10\''
'\'B1of10\'','\'B3of10\'','\'B2of10\'','\'B5of10\'','\'B2of10\'','\'B4of10\'','\'B6of10\''
'\'B1of10\'','\'B1of10\'','\'B2of10\'','\'B3of10\'','\'B3of10\'','\'B2of10\'','\'B5of10\''
'\'B1of10\'','\'B2of10\'','\'B2of10\'','\'B3of10\'','\'B3of10\'','\'B2of10\'','\'B5of10\''
'\'B2of10\'','\'B3of10\'','\'B5of10\'','\'B6of10\'','\'B3of10\'','\'B3of10\'','\'B6of10\''
'\'B1of10\'','\'B3of10\'','\'B8of10\'','\'B5of10\'','\'B3of10\'','\'B3of10\'','\'B6of10\''
'\'B1of10\'','\'B2of10\'','\'B4of10\'','\'B5of10\'','\'B3of10\'','\'B4of10\'','\'B6of10\''
'\'B2of10\'','\'B2of10\'','\'B2of10\'','\'B9of10\'','\'B2of10\'','\'B8of10\'','\'B9of10\''
'\'B1of10\'','\'B4of10\'','\'B4of10\'','\'B5of10\'','\'B3of10\'','\'B3of10\'','\'B6of10\''
'\'B1of10\'','\'B4of10\'','\'B5of10\'','\'B3of10\'','\'B2of10\'','\'B5of10\'','\'B5of10\''
'\'B7of10\'','\'B6of10\'','\'B6of10\'','\'B5of10\'','\'B2of10\'','\'B5of10\'','\'B5of10\''
'\'B1of10\'','\'B3of10\'','\'B7of10\'','\'B6of10\'','\'B2of10\'','\'B5of10\'','\'B7of10\''
'\'B1of10\'','\'B4of10\'','\'B1of10\'','\'B3of10\'','\'B3of10\'','\'B4of10\'','\'B5of10\''
'\'B7of10\'','\'B5of10\'','\'B7of10\'','\'B6of10\'','\'B2of10\'','\'B6of10\'','\'B6of10\''
'\'B6of10\'','\'B5of10\'','\'B7of10\'','\'B10of10\'','\'B2of10\'','\'B8of10\'','\'B9of10\''
'\'B4of10\'','\'B4of10\'','\'B8of10\'','\'B7of10\'','\'B2of10\'','\'B6of10\'','\'B6of10\''
'\'B7of10\'','\'B5of10\'','\'B7of10\'','\'B8of10\'','\'B2of10\'','\'B7of10\'','\'B8of10\''
'\'B7of10\'','\'B7of10\'','\'B7of10\'','\'B9of10\'','\'B2of10\'','\'B8of10\'','\'B9of10\''
'\'B1of10\'','\'B2of10\'','\'B1of10\'','\'B3of10\'','\'B3of10\'','\'B3of10\'','\'B4of10\''
'\'B1of10\'','\'B4of10\'','\'B6of10\'','\'B5of10\'','\'B3of10\'','\'B4of10\'','\'B6of10\''
'\'B1of10\'','\'B4of10\'','\'B6of10\'','\'B3of10\'','\'B2of10\'','\'B4of10\'','\'B4of10\''
'\'B9of10\'','\'B4of10\'','\'B7of10\'','\'B5of10\'','\'B2of10\'','\'B6of10\'','\'B6of10\''
'\'B1of10\'','\'B2of10\'','\'B9of10\'','\'B7of10\'','\'B2of10\'','\'B6of10\'','\'B6of10\''
'\'B9of10\'','\'B3of10\'','\'B7of10\'','\'B5of10\'','\'B2of10\'','\'B5of10\'','\'B5of10\''
'\'B1of10\'','\'B2of10\'','\'B6of10\'','\'B4of10\'','\'B2of10\'','\'B4of10\'','\'B5of10\''
'\'B6of10\'','\'B5of10\'','\'B7of10\'','\'B7of10\'','\'B2of10\'','\'B5of10\'','\'B7of10\''
'\'B7of10\'','\'B4of10\'','\'B7of10\'','\'B8of10\'','\'B2of10\'','\'B7of10\'','\'B8of10\''
'\'B1of10\'','\'B3of10\'','\'B1of10\'','\'B2of10\'','\'B3of10\'','\'B4of10\'','\'B4of10\''
'\'B2of10\'','\'B4of10\'','\'B5of10\'','\'B5of10\'','\'B2of10\'','\'B5of10\'','\'B5of10\''
'\'B1of10\'','\'B2of10\'','\'B7of10\'','\'B6of10\'','\'B3of10\'','\'B4of10\'','\'B6of10\''
'\'B1of10\'','\'B3of10\'','\'B4of10\'','\'B4of10\'','\'B3of10\'','\'B6of10\'','\'B5of10\''
'\'B1of10\'','\'B3of10\'','\'B3of10\'','\'B9of10\'','\'B2of10\'','\'B8of10\'','\'B9of10\''
'\'B4of10\'','\'B4of10\'','\'B9of10\'','\'B4of10\'','\'B2of10\'','\'B4of10\'','\'B5of10\''
'\'B5of10\'','\'B4of10\'','\'B9of10\'','\'B4of10\'','\'B2of10\'','\'B4of10\'','\'B5of10\''
'\'B1of10\'','\'B3of10\'','\'B10of10\'','\'B5of10\'','\'B3of10\'','\'B4of10\'','\'B6of10\''
'\'B1of10\'','\'B2of10\'','\'B10of10\'','\'B6of10\'','\'B3of10\'','\'B4of10\'','\'B6of10\''
'\'B2of10\'','\'B1of10\'','\'B3of10\'','\'B7of10\'','\'B2of10\'','\'B6of10\'','\'B6of10\''
'\'B5of10\'','\'B3of10\'','\'B9of10\'','\'B10of10\'','\'B2of10\'','\'B8of10\'','\'B9of10\''
'\'B1of10\'','\'B1of10\'','\'B10of10\'','\'B2of10\'','\'B2of10\'','\'B4of10\'','\'B4of10\''
'\'B5of10\'','\'B4of10\'','\'B7of10\'','\'B6of10\'','\'B2of10\'','\'B6of10\'','\'B6of10\''
'\'B3of10\'','\'B4of10\'','\'B7of10\'','\'B6of10\'','\'B2of10\'','\'B6of10\'','\'B6of10\''
'\'B2of10\'','\'B3of10\'','\'B2of10\'','\'B7of10\'','\'B2of10\'','\'B6of10\'','\'B6of10\''
'\'B1of10\'','\'B1of10\'','\'B9of10\'','\'B4of10\'','\'B2of10\'','\'B5of10\'','\'B5of10\''
'\'B7of10\'','\'B4of10\'','\'B2of10\'','\'B4of10\'','\'B3of10\'','\'B4of10\'','\'B5of10\''
'\'B1of10\'','\'B3of10\'','\'B7of10\'','\'B5of10\'','\'B3of10\'','\'B4of10\'','\'B5of10\''
'\'B1of10\'','\'B2of10\'','\'B3of10\'','\'B3of10\'','\'B3of10\'','\'B4of10\'','\'B4of10\''
'\'B6of10\'','\'B4of10\'','\'B2of10\'','\'B4of10\'','\'B3of10\'','\'B4of10\'','\'B5of10\''
'\'B2of10\'','\'B5of10\'','\'B5of10\'','\'B3of10\'','\'B2of10\'','\'B4of10\'','\'B4of10\''
'\'B5of10\'','\'B6of10\'','\'B9of10\'','\'B9of10\'','\'B2of10\'','\'B7of10\'','\'B8of10\''
'\'B3of10\'','\'B2of10\'','\'B1of10\'','\'B9of10\'','\'B2of10\'','\'B8of10\'','\'B8of10\''
'\'B1of10\'','\'B4of10\'','\'B9of10\'','\'B4of10\'','\'B1of10\'','\'B5of10\'','\'B5of10\''
'\'B5of10\'','\'B3of10\'','\'B10of10\'','\'B4of10\'','\'B3of10\'','\'B4of10\'','\'B5of10\''
'\'B2of10\'','\'B5of10\'','\'B7of10\'','\'B3of10\'','\'B2of10\'','\'B4of10\'','\'B4of10\''
'\'B2of10\'','\'B4of10\'','\'B9of10\'','\'B4of10\'','\'B2of10\'','\'B5of10\'','\'B4of10\''
'\'B1of10\'','\'B2of10\'','\'B3of10\'','\'B4of10\'','\'B3of10\'','\'B4of10\'','\'B5of10\''
'\'B1of10\'','\'B1of10\'','\'B1of10\'','\'B6of10\'','\'B1of10\'','\'B6of10\'','\'B6of10\''
'\'B1of10\'','\'B1of10\'','\'B10of10\'','\'B5of10\'','\'B8of10\'','\'B4of10\'','\'B5of10\''
'\'B4of10\'','\'B4of10\'','\'B8of10\'','\'B7of10\'','\'B5of10\'','\'B6of10\'','\'B6of10\''
'\'B4of10\'','\'B5of10\'','\'B9of10\'','\'B9of10\'','\'B5of10\'','\'B7of10\'','\'B8of10\''
'\'B9of10\'','\'B5of10\'','\'B8of10\'','\'B6of10\'','\'B5of10\'','\'B5of10\'','\'B6of10\''
'\'B5of10\'','\'B6of10\'','\'B9of10\'','\'B8of10\'','\'B5of10\'','\'B7of10\'','\'B8of10\''
'\'B1of10\'','\'B2of10\'','\'B6of10\'','\'B5of10\'','\'B3of10\'','\'B6of10\'','\'B5of10\''
'\'B3of10\'','\'B1of10\'','\'B2of10\'','\'B7of10\'','\'B5of10\'','\'B6of10\'','\'B6of10\''
'\'B9of10\'','\'B4of10\'','\'B7of10\'','\'B6of10\'','\'B5of10\'','\'B5of10\'','\'B6of10\''
'\'B1of10\'','\'B4of10\'','\'B9of10\'','\'B7of10\'','\'B5of10\'','\'B6of10\'','\'B6of10\''
'\'B9of10\'','\'B2of10\'','\'B3of10\'','\'B7of10\'','\'B5of10\'','\'B6of10\'','\'B6of10\''
'\'B1of10\'','\'B5of10\'','\'B7of10\'','\'B5of10\'','\'B5of10\'','\'B5of10\'','\'B5of10\''
'\'B5of10\'','\'B2of10\'','\'B3of10\'','\'B7of10\'','\'B5of10\'','\'B5of10\'','\'B6of10\''
'\'B5of10\'','\'B6of10\'','\'B8of10\'','\'B8of10\'','\'B5of10\'','\'B7of10\'','\'B8of10\''
'\'B2of10\'','\'B4of10\'','\'B8of10\'','\'B6of10\'','\'B5of10\'','\'B5of10\'','\'B6of10\''
'\'B1of10\'','\'B3of10\'','\'B2of10\'','\'B6of10\'','\'B3of10\'','\'B6of10\'','\'B4of10\''
'\'B1of10\'','\'B4of10\'','\'B2of10\'','\'B6of10\'','\'B3of10\'','\'B6of10\'','\'B4of10\''
'\'B7of10\'','\'B4of10\'','\'B7of10\'','\'B7of10\'','\'B5of10\'','\'B6of10\'','\'B7of10\''
'\'B7of10\'','\'B4of10\'','\'B8of10\'','\'B8of10\'','\'B5of10\'','\'B6of10\'','\'B7of10\''
'\'B5of10\'','\'B5of10\'','\'B10of10\'','\'B8of10\'','\'B5of10\'','\'B7of10\'','\'B8of10\''
'\'B1of10\'','\'B4of10\'','\'B5of10\'','\'B9of10\'','\'B5of10\'','\'B8of10\'','\'B8of10\''
'\'B5of10\'','\'B4of10\'','\'B1of10\'','\'B7of10\'','\'B5of10\'','\'B6of10\'','\'B7of10\''
'\'B5of10\'','\'B4of10\'','\'B8of10\'','\'B7of10\'','\'B5of10\'','\'B6of10\'','\'B7of10\''
'\'B2of10\'','\'B4of10\'','\'B9of10\'','\'B5of10\'','\'B5of10\'','\'B6of10\'','\'B4of10\''
'\'B2of10\'','\'B2of10\'','\'B8of10\'','\'B4of10\'','\'B5of10\'','\'B6of10\'','\'B4of10\''
'\'B7of10\'','\'B5of10\'','\'B6of10\'','\'B5of10\'','\'B5of10\'','\'B5of10\'','\'B7of10\''
'\'B1of10\'','\'B4of10\'','\'B5of10\'','\'B3of10\'','\'B8of10\'','\'B4of10\'','\'B4of10\''
'\'B4of10\'','\'B3of10\'','\'B6of10\'','\'B4of10\'','\'B5of10\'','\'B6of10\'','\'B4of10\''
'\'B5of10\'','\'B2of10\'','\'B10of10\'','\'B7of10\'','\'B5of10\'','\'B6of10\'','\'B7of10\''
'\'B1of10\'','\'B3of10\'','\'B2of10\'','\'B4of10\'','\'B3of10\'','\'B6of10\'','\'B4of10\''
'\'B1of10\'','\'B3of10\'','\'B9of10\'','\'B4of10\'','\'B8of10\'','\'B4of10\'','\'B5of10\''
'\'B1of10\'','\'B5of10\'','\'B2of10\'','\'B6of10\'','\'B3of10\'','\'B6of10\'','\'B6of10\''
'\'B1of10\'','\'B1of10\'','\'B10of10\'','\'B4of10\'','\'B8of10\'','\'B4of10\'','\'B5of10\''
'\'B1of10\'','\'B3of10\'','\'B9of10\'','\'B4of10\'','\'B5of10\'','\'B5of10\'','\'B4of10\''
'\'B2of10\'','\'B5of10\'','\'B8of10\'','\'B6of10\'','\'B5of10\'','\'B5of10\'','\'B6of10\''
'\'B3of10\'','\'B2of10\'','\'B9of10\'','\'B7of10\'','\'B5of10\'','\'B6of10\'','\'B7of10\''
'\'B1of10\'','\'B6of10\'','\'B3of10\'','\'B5of10\'','\'B3of10\'','\'B6of10\'','\'B6of10\''
'\'B1of10\'','\'B3of10\'','\'B7of10\'','\'B4of10\'','\'B8of10\'','\'B4of10\'','\'B4of10\''
'\'B4of10\'','\'B3of10\'','\'B7of10\'','\'B6of10\'','\'B5of10\'','\'B6of10\'','\'B6of10\''
'\'B2of10\'','\'B4of10\'','\'B8of10\'','\'B6of10\'','\'B5of10\'','\'B6of10\'','\'B6of10\''
'\'B2of10\'','\'B3of10\'','\'B6of10\'','\'B6of10\'','\'B5of10\'','\'B6of10\'','\'B6of10\''
'\'B5of10\'','\'B6of10\'','\'B8of10\'','\'B6of10\'','\'B5of10\'','\'B5of10\'','\'B7of10\''
'\'B5of10\'','\'B3of10\'','\'B6of10\'','\'B7of10\'','\'B5of10\'','\'B5of10\'','\'B7of10\''
'\'B7of10\'','\'B3of10\'','\'B2of10\'','\'B8of10\'','\'B5of10\'','\'B7of10\'','\'B8of10\''
'\'B7of10\'','\'B4of10\'','\'B9of10\'','\'B8of10\'','\'B5of10\'','\'B8of10\'','\'B8of10\''
'\'B1of10\'','\'B1of10\'','\'B5of10\'','\'B9of10\'','\'B3of10\'','\'B7of10\'','\'B8of10\''
'\'B1of10\'','\'B4of10\'','\'B7of10\'','\'B4of10\'','\'B8of10\'','\'B4of10\'','\'B5of10\''
'\'B1of10\'','\'B3of10\'','\'B6of10\'','\'B5of10\'','\'B8of10\'','\'B4of10\'','\'B5of10\''
'\'B5of10\'','\'B6of10\'','\'B8of10\'','\'B5of10\'','\'B5of10\'','\'B5of10\'','\'B5of10\''
'\'B7of10\'','\'B3of10\'','\'B8of10\'','\'B7of10\'','\'B5of10\'','\'B6of10\'','\'B7of10\''
'\'B1of10\'','\'B3of10\'','\'B6of10\'','\'B10of10\'','\'B3of10\'','\'B8of10\'','\'B8of10\''
'\'B1of10\'','\'B4of10\'','\'B3of10\'','\'B5of10\'','\'B8of10\'','\'B4of10\'','\'B5of10\''
'\'B2of10\'','\'B1of10\'','\'B1of10\'','\'B6of10\'','\'B5of10\'','\'B5of10\'','\'B6of10\''
'\'B1of10\'','\'B3of10\'','\'B7of10\'','\'B4of10\'','\'B8of10\'','\'B4of10\'','\'B5of10\''
'\'B1of10\'','\'B7of10\'','\'B3of10\'','\'B4of10\'','\'B3of10\'','\'B6of10\'','\'B4of10\''
'\'B1of10\'','\'B5of10\'','\'B3of10\'','\'B5of10\'','\'B8of10\'','\'B4of10\'','\'B5of10\''
'\'B5of10\'','\'B2of10\'','\'B1of10\'','\'B6of10\'','\'B5of10\'','\'B5of10\'','\'B5of10\''
'\'B2of10\'','\'B2of10\'','\'B5of10\'','\'B9of10\'','\'B5of10\'','\'B8of10\'','\'B8of10\''
'\'B4of10\'','\'B2of10\'','\'B4of10\'','\'B6of10\'','\'B5of10\'','\'B5of10\'','\'B5of10\''
'\'B2of10\'','\'B3of10\'','\'B8of10\'','\'B6of10\'','\'B5of10\'','\'B5of10\'','\'B7of10\''
'\'B1of10\'','\'B3of10\'','\'B3of10\'','\'B10of10\'','\'B3of10\'','\'B8of10\'','\'B8of10\''
'\'B1of10\'','\'B4of10\'','\'B3of10\'','\'B9of10\'','\'B3of10\'','\'B8of10\'','\'B8of10\''
'\'B1of10\'','\'B1of10\'','\'B8of10\'','\'B6of10\'','\'B5of10\'','\'B5of10\'','\'B6of10\''
'\'B4of10\'','\'B2of10\'','\'B4of10\'','\'B6of10\'','\'B5of10\'','\'B5of10\'','\'B5of10\''
'\'B7of10\'','\'B2of10\'','\'B9of10\'','\'B6of10\'','\'B5of10\'','\'B7of10\'','\'B7of10\''
'\'B2of10\'','\'B2of10\'','\'B10of10\'','\'B6of10\'','\'B5of10\'','\'B5of10\'','\'B5of10\''
'\'B1of10\'','\'B3of10\'','\'B4of10\'','\'B5of10\'','\'B5of10\'','\'B5of10\'','\'B5of10\''
'\'B1of10\'','\'B3of10\'','\'B1of10\'','\'B3of10\'','\'B8of10\'','\'B4of10\'','\'B4of10\''
'\'B2of10\'','\'B3of10\'','\'B6of10\'','\'B5of10\'','\'B5of10\'','\'B5of10\'','\'B5of10\''
'\'B1of10\'','\'B3of10\'','\'B3of10\'','\'B9of10\'','\'B3of10\'','\'B8of10\'','\'B8of10\''
'\'B1of10\'','\'B4of10\'','\'B9of10\'','\'B3of10\'','\'B8of10\'','\'B3of10\'','\'B4of10\''
'\'B1of10\'','\'B4of10\'','\'B8of10\'','\'B4of10\'','\'B5of10\'','\'B5of10\'','\'B4of10\''
'\'B1of10\'','\'B3of10\'','\'B9of10\'','\'B5of10\'','\'B5of10\'','\'B5of10\'','\'B4of10\''
'\'B1of10\'','\'B2of10\'','\'B2of10\'','\'B5of10\'','\'B5of10\'','\'B5of10\'','\'B5of10\''
'\'B4of10\'','\'B5of10\'','\'B9of10\'','\'B8of10\'','\'B3of10\'','\'B7of10\'','\'B7of10\''
'\'B1of10\'','\'B3of10\'','\'B6of10\'','\'B3of10\'','\'B5of10\'','\'B5of10\'','\'B4of10\''
'\'B2of10\'','\'B3of10\'','\'B10of10\'','\'B5of10\'','\'B5of10\'','\'B5of10\'','\'B4of10\''
'\'B2of10\'','\'B5of10\'','\'B6of10\'','\'B6of10\'','\'B5of10\'','\'B6of10\'','\'B4of10\''
'\'B2of10\'','\'B4of10\'','\'B6of10\'','\'B6of10\'','\'B5of10\'','\'B5of10\'','\'B5of10\''
'\'B2of10\'','\'B3of10\'','\'B5of10\'','\'B6of10\'','\'B5of10\'','\'B5of10\'','\'B5of10\''
'\'B3of10\'','\'B6of10\'','\'B10of10\'','\'B9of10\'','\'B3of10\'','\'B8of10\'','\'B8of10\''
'\'B1of10\'','\'B3of10\'','\'B8of10\'','\'B3of10\'','\'B8of10\'','\'B3of10\'','\'B4of10\''
'\'B4of10\'','\'B2of10\'','\'B4of10\'','\'B5of10\'','\'B5of10\'','\'B5of10\'','\'B5of10\''
'\'B5of10\'','\'B4of10\'','\'B8of10\'','\'B8of10\'','\'B5of10\'','\'B7of10\'','\'B7of10\''
'\'B1of10\'','\'B5of10\'','\'B10of10\'','\'B4of10\'','\'B5of10\'','\'B5of10\'','\'B5of10\''
'\'B5of10\'','\'B4of10\'','\'B9of10\'','\'B8of10\'','\'B5of10\'','\'B7of10\'','\'B7of10\''
'\'B2of10\'','\'B4of10\'','\'B9of10\'','\'B5of10\'','\'B5of10\'','\'B6of10\'','\'B4of10\''
'\'B5of10\'','\'B3of10\'','\'B8of10\'','\'B8of10\'','\'B5of10\'','\'B8of10\'','\'B8of10\''
'\'B4of10\'','\'B4of10\'','\'B10of10\'','\'B8of10\'','\'B3of10\'','\'B8of10\'','\'B8of10\''
'\'B1of10\'','\'B2of10\'','\'B4of10\'','\'B3of10\'','\'B8of10\'','\'B3of10\'','\'B4of10\''
'\'B7of10\'','\'B6of10\'','\'B8of10\'','\'B4of10\'','\'B5of10\'','\'B5of10\'','\'B5of10\''
'\'B4of10\'','\'B4of10\'','\'B10of10\'','\'B8of10\'','\'B3of10\'','\'B8of10\'','\'B8of10\''
'\'B1of10\'','\'B2of10\'','\'B3of10\'','\'B6of10\'','\'B8of10\'','\'B4of10\'','\'B5of10\''
'\'B2of10\'','\'B4of10\'','\'B8of10\'','\'B5of10\'','\'B5of10\'','\'B6of10\'','\'B5of10\''
'\'B1of10\'','\'B4of10\'','\'B9of10\'','\'B6of10\'','\'B5of10\'','\'B6of10\'','\'B6of10\''
'\'B3of10\'','\'B8of10\'','\'B1of10\'','\'B8of10\'','\'B3of10\'','\'B6of10\'','\'B6of10\''
'\'B4of10\'','\'B1of10\'','\'B2of10\'','\'B6of10\'','\'B5of10\'','\'B6of10\'','\'B6of10\''
'\'B1of10\'','\'B7of10\'','\'B10of10\'','\'B7of10\'','\'B3of10\'','\'B6of10\'','\'B6of10\''
'\'B1of10\'','\'B2of10\'','\'B3of10\'','\'B3of10\'','\'B8of10\'','\'B3of10\'','\'B4of10\''
'\'B4of10\'','\'B3of10\'','\'B8of10\'','\'B6of10\'','\'B5of10\'','\'B6of10\'','\'B6of10\''
'\'B2of10\'','\'B1of10\'','\'B8of10\'','\'B6of10\'','\'B5of10\'','\'B6of10\'','\'B6of10\''
'\'B1of10\'','\'B3of10\'','\'B5of10\'','\'B6of10\'','\'B5of10\'','\'B5of10\'','\'B6of10\''
'\'B7of10\'','\'B5of10\'','\'B9of10\'','\'B4of10\'','\'B5of10\'','\'B5of10\'','\'B5of10\''
'\'B1of10\'','\'B3of10\'','\'B6of10\'','\'B5of10\'','\'B5of10\'','\'B5of10\'','\'B5of10\''
'\'B1of10\'','\'B4of10\'','\'B3of10\'','\'B6of10\'','\'B3of10\'','\'B6of10\'','\'B5of10\''
'\'B4of10\'','\'B4of10\'','\'B7of10\'','\'B6of10\'','\'B5of10\'','\'B6of10\'','\'B5of10\''
'\'B4of10\'','\'B3of10\'','\'B3of10\'','\'B9of10\'','\'B5of10\'','\'B8of10\'','\'B7of10\''
'\'B1of10\'','\'B3of10\'','\'B2of10\'','\'B2of10\'','\'B8of10\'','\'B3of10\'','\'B4of10\''
'\'B4of10\'','\'B2of10\'','\'B1of10\'','\'B6of10\'','\'B5of10\'','\'B5of10\'','\'B6of10\''
'\'B1of10\'','\'B6of10\'','\'B3of10\'','\'B5of10\'','\'B3of10\'','\'B6of10\'','\'B5of10\''
'\'B7of10\'','\'B6of10\'','\'B9of10\'','\'B4of10\'','\'B5of10\'','\'B5of10\'','\'B6of10\''
'\'B1of10\'','\'B6of10\'','\'B8of10\'','\'B7of10\'','\'B5of10\'','\'B7of10\'','\'B7of10\''
'\'B4of10\'','\'B10of10\'','\'B9of10\'','\'B6of10\'','\'B3of10\'','\'B6of10\'','\'B6of10\''
'\'B1of10\'','\'B2of10\'','\'B2of10\'','\'B5of10\'','\'B8of10\'','\'B4of10\'','\'B5of10\''
'\'B1of10\'','\'B3of10\'','\'B5of10\'','\'B7of10\'','\'B3of10\'','\'B7of10\'','\'B6of10\''
'\'B1of10\'','\'B3of10\'','\'B5of10\'','\'B5of10\'','\'B3of10\'','\'B7of10\'','\'B5of10\''
'\'B1of10\'','\'B2of10\'','\'B3of10\'','\'B5of10\'','\'B3of10\'','\'B7of10\'','\'B5of10\''
'\'B1of10\'','\'B2of10\'','\'B6of10\'','\'B6of10\'','\'B5of10\'','\'B6of10\'','\'B4of10\''
'\'B1of10\'','\'B2of10\'','\'B3of10\'','\'B8of10\'','\'B3of10\'','\'B7of10\'','\'B6of10\''
'\'B1of10\'','\'B2of10\'','\'B6of10\'','\'B4of10\'','\'B8of10\'','\'B3of10\'','\'B5of10\''
'\'B2of10\'','\'B4of10\'','\'B7of10\'','\'B5of10\'','\'B8of10\'','\'B4of10\'','\'B5of10\''
'\'B1of10\'','\'B3of10\'','\'B4of10\'','\'B5of10\'','\'B8of10\'','\'B4of10\'','\'B5of10\''
'\'B2of10\'','\'B4of10\'','\'B8of10\'','\'B5of10\'','\'B5of10\'','\'B5of10\'','\'B5of10\''
'\'B2of10\'','\'B4of10\'','\'B7of10\'','\'B5of10\'','\'B5of10\'','\'B6of10\'','\'B4of10\''
'\'B3of10\'','\'B4of10\'','\'B1of10\'','\'B5of10\'','\'B5of10\'','\'B5of10\'','\'B5of10\''
'\'B6of10\'','\'B3of10\'','\'B9of10\'','\'B9of10\'','\'B5of10\'','\'B8of10\'','\'B7of10\''
'\'B3of10\'','\'B9of10\'','\'B10of10\'','\'B6of10\'','\'B3of10\'','\'B6of10\'','\'B6of10\''
'\'B1of10\'','\'B4of10\'','\'B7of10\'','\'B2of10\'','\'B8of10\'','\'B3of10\'','\'B4of10\''
'\'B2of10\'','\'B9of10\'','\'B7of10\'','\'B4of10\'','\'B3of10\'','\'B6of10\'','\'B4of10\''
'\'B6of10\'','\'B4of10\'','\'B9of10\'','\'B8of10\'','\'B5of10\'','\'B8of10\'','\'B7of10\''
'\'B2of10\'','\'B9of10\'','\'B10of10\'','\'B5of10\'','\'B3of10\'','\'B6of10\'','\'B6of10\''
'\'B2of10\'','\'B6of10\'','\'B1of10\'','\'B5of10\'','\'B3of10\'','\'B6of10\'','\'B6of10\''
'\'B2of10\'','\'B4of10\'','\'B7of10\'','\'B5of10\'','\'B5of10\'','\'B5of10\'','\'B5of10\''
'\'B2of10\'','\'B3of10\'','\'B6of10\'','\'B6of10\'','\'B5of10\'','\'B5of10\'','\'B5of10\''
'\'B5of10\'','\'B4of10\'','\'B10of10\'','\'B5of10\'','\'B5of10\'','\'B5of10\'','\'B5of10\''
'\'B4of10\'','\'B3of10\'','\'B9of10\'','\'B9of10\'','\'B5of10\'','\'B8of10\'','\'B7of10\''
'\'B2of10\'','\'B3of10\'','\'B5of10\'','\'B5of10\'','\'B5of10\'','\'B6of10\'','\'B5of10\''
'\'B1of10\'','\'B5of10\'','\'B10of10\'','\'B5of10\'','\'B3of10\'','\'B6of10\'','\'B4of10\''
'\'B1of10\'','\'B4of10\'','\'B6of10\'','\'B4of10\'','\'B8of10\'','\'B7of10\'','\'B5of10\''
'\'B1of10\'','\'B3of10\'','\'B3of10\'','\'B4of10\'','\'B8of10\'','\'B3of10\'','\'B5of10\''
'\'B1of10\'','\'B4of10\'','\'B3of10\'','\'B6of10\'','\'B3of10\'','\'B6of10\'','\'B5of10\''
'\'B1of10\'','\'B3of10\'','\'B3of10\'','\'B5of10\'','\'B8of10\'','\'B3of10\'','\'B5of10\''
'\'B1of10\'','\'B3of10\'','\'B9of10\'','\'B5of10\'','\'B8of10\'','\'B4of10\'','\'B5of10\''
'\'B5of10\'','\'B4of10\'','\'B1of10\'','\'B5of10\'','\'B5of10\'','\'B5of10\'','\'B5of10\''
'\'B1of10\'','\'B4of10\'','\'B3of10\'','\'B6of10\'','\'B3of10\'','\'B6of10\'','\'B5of10\''
'\'B2of10\'','\'B10of10\'','\'B8of10\'','\'B4of10\'','\'B3of10\'','\'B6of10\'','\'B5of10\''
'\'B1of10\'','\'B4of10\'','\'B5of10\'','\'B5of10\'','\'B3of10\'','\'B7of10\'','\'B5of10\''
'\'B1of10\'','\'B2of10\'','\'B4of10\'','\'B4of10\'','\'B8of10\'','\'B3of10\'','\'B5of10\''
'\'B1of10\'','\'B2of10\'','\'B9of10\'','\'B4of10\'','\'B8of10\'','\'B4of10\'','\'B5of10\''
'\'B7of10\'','\'B5of10\'','\'B7of10\'','\'B8of10\'','\'B5of10\'','\'B8of10\'','\'B7of10\''
'\'B4of10\'','\'B1of10\'','\'B6of10\'','\'B6of10\'','\'B5of10\'','\'B6of10\'','\'B5of10\''
'\'B2of10\'','\'B4of10\'','\'B4of10\'','\'B6of10\'','\'B3of10\'','\'B6of10\'','\'B5of10\''
'\'B2of10\'','\'B5of10\'','\'B8of10\'','\'B4of10\'','\'B3of10\'','\'B6of10\'','\'B5of10\''
'\'B1of10\'','\'B6of10\'','\'B6of10\'','\'B5of10\'','\'B3of10\'','\'B7of10\'','\'B5of10\''
'\'B1of10\'','\'B2of10\'','\'B7of10\'','\'B4of10\'','\'B8of10\'','\'B3of10\'','\'B5of10\''
'\'B4of10\'','\'B3of10\'','\'B10of10\'','\'B5of10\'','\'B5of10\'','\'B6of10\'','\'B5of10\''
'\'B2of10\'','\'B5of10\'','\'B5of10\'','\'B6of10\'','\'B3of10\'','\'B6of10\'','\'B5of10\''
'\'B3of10\'','\'B4of10\'','\'B10of10\'','\'B5of10\'','\'B5of10\'','\'B5of10\'','\'B5of10\''
'\'B4of10\'','\'B3of10\'','\'B1of10\'','\'B5of10\'','\'B5of10\'','\'B6of10\'','\'B5of10\''
'\'B1of10\'','\'B6of10\'','\'B10of10\'','\'B5of10\'','\'B5of10\'','\'B5of10\'','\'B5of10\''
'\'B1of10\'','\'B5of10\'','\'B1of10\'','\'B6of10\'','\'B3of10\'','\'B7of10\'','\'B5of10\''
'\'B2of10\'','\'B7of10\'','\'B5of10\'','\'B6of10\'','\'B3of10\'','\'B6of10\'','\'B5of10\''
'\'B1of10\'','\'B1of10\'','\'B2of10\'','\'B5of10\'','\'B3of10\'','\'B7of10\'','\'B5of10\''
'\'B1of10\'','\'B4of10\'','\'B4of10\'','\'B4of10\'','\'B8of10\'','\'B3of10\'','\'B5of10\''
'\'B5of10\'','\'B2of10\'','\'B2of10\'','\'B6of10\'','\'B5of10\'','\'B6of10\'','\'B5of10\''
'\'B5of10\'','\'B1of10\'','\'B5of10\'','\'B9of10\'','\'B5of10\'','\'B8of10\'','\'B7of10\''
'\'B2of10\'','\'B6of10\'','\'B5of10\'','\'B7of10\'','\'B3of10\'','\'B6of10\'','\'B5of10\''
'\'B1of10\'','\'B7of10\'','\'B1of10\'','\'B6of10\'','\'B3of10\'','\'B7of10\'','\'B5of10\''
'\'B1of10\'','\'B6of10\'','\'B1of10\'','\'B5of10\'','\'B3of10\'','\'B7of10\'','\'B5of10\''
'\'B2of10\'','\'B4of10\'','\'B10of10\'','\'B5of10\'','\'B5of10\'','\'B5of10\'','\'B5of10\''
'\'B5of10\'','\'B3of10\'','\'B8of10\'','\'B6of10\'','\'B5of10\'','\'B6of10\'','\'B5of10\''
'\'B7of10\'','\'B7of10\'','\'B8of10\'','\'B8of10\'','\'B5of10\'','\'B8of10\'','\'B7of10\''
'\'B6of10\'','\'B6of10\'','\'B6of10\'','\'B5of10\'','\'B3of10\'','\'B7of10\'','\'B4of10\''
'\'B2of10\'','\'B9of10\'','\'B8of10\'','\'B6of10\'','\'B3of10\'','\'B6of10\'','\'B5of10\''
'\'B2of10\'','\'B4of10\'','\'B10of10\'','\'B4of10\'','\'B5of10\'','\'B5of10\'','\'B5of10\''
'\'B1of10\'','\'B3of10\'','\'B2of10\'','\'B4of10\'','\'B5of10\'','\'B5of10\'','\'B5of10\''
'\'B1of10\'','\'B6of10\'','\'B1of10\'','\'B4of10\'','\'B3of10\'','\'B7of10\'','\'B5of10\''
'\'B5of10\'','\'B1of10\'','\'B1of10\'','\'B6of10\'','\'B5of10\'','\'B5of10\'','\'B5of10\''
'\'B1of10\'','\'B3of10\'','\'B3of10\'','\'B3of10\'','\'B8of10\'','\'B5of10\'','\'B3of10\''
'\'B7of10\'','\'B3of10\'','\'B9of10\'','\'B9of10\'','\'B5of10\'','\'B8of10\'','\'B6of10\''
'\'B1of10\'','\'B3of10\'','\'B9of10\'','\'B4of10\'','\'B5of10\'','\'B5of10\'','\'B5of10\''
'\'B7of10\'','\'B3of10\'','\'B8of10\'','\'B7of10\'','\'B5of10\'','\'B7of10\'','\'B6of10\''
'\'B1of10\'','\'B6of10\'','\'B10of10\'','\'B4of10\'','\'B8of10\'','\'B7of10\'','\'B4of10\''
'\'B2of10\'','\'B3of10\'','\'B8of10\'','\'B3of10\'','\'B5of10\'','\'B6of10\'','\'B4of10\''
'\'B4of10\'','\'B5of10\'','\'B4of10\'','\'B7of10\'','\'B3of10\'','\'B7of10\'','\'B6of10\''
'\'B2of10\'','\'B9of10\'','\'B9of10\'','\'B6of10\'','\'B3of10\'','\'B7of10\'','\'B6of10\''
'\'B1of10\'','\'B3of10\'','\'B9of10\'','\'B3of10\'','\'B8of10\'','\'B7of10\'','\'B4of10\''
'\'B1of10\'','\'B5of10\'','\'B10of10\'','\'B4of10\'','\'B8of10\'','\'B7of10\'','\'B4of10\''
'\'B2of10\'','\'B5of10\'','\'B7of10\'','\'B2of10\'','\'B8of10\'','\'B5of10\'','\'B4of10\''
'\'B2of10\'','\'B3of10\'','\'B7of10\'','\'B5of10\'','\'B5of10\'','\'B5of10\'','\'B4of10\''
'\'B7of10\'','\'B5of10\'','\'B1of10\'','\'B7of10\'','\'B5of10\'','\'B7of10\'','\'B6of10\''
'\'B1of10\'','\'B5of10\'','\'B9of10\'','\'B3of10\'','\'B3of10\'','\'B7of10\'','\'B4of10\''
'\'B4of10\'','\'B4of10\'','\'B4of10\'','\'B8of10\'','\'B3of10\'','\'B7of10\'','\'B6of10\''
'\'B1of10\'','\'B3of10\'','\'B2of10\'','\'B6of10\'','\'B3of10\'','\'B7of10\'','\'B4of10\''
'\'B1of10\'','\'B4of10\'','\'B7of10\'','\'B4of10\'','\'B5of10\'','\'B5of10\'','\'B4of10\''
'\'B2of10\'','\'B5of10\'','\'B9of10\'','\'B6of10\'','\'B5of10\'','\'B7of10\'','\'B6of10\''
'\'B2of10\'','\'B4of10\'','\'B7of10\'','\'B7of10\'','\'B5of10\'','\'B7of10\'','\'B6of10\''
'\'B4of10\'','\'B6of10\'','\'B10of10\'','\'B8of10\'','\'B3of10\'','\'B8of10\'','\'B6of10\''
'\'B1of10\'','\'B2of10\'','\'B2of10\'','\'B5of10\'','\'B3of10\'','\'B7of10\'','\'B4of10\''
'\'B1of10\'','\'B3of10\'','\'B7of10\'','\'B3of10\'','\'B5of10\'','\'B6of10\'','\'B4of10\''
'\'B7of10\'','\'B3of10\'','\'B2of10\'','\'B8of10\'','\'B5of10\'','\'B8of10\'','\'B6of10\''
'\'B6of10\'','\'B5of10\'','\'B2of10\'','\'B7of10\'','\'B5of10\'','\'B8of10\'','\'B6of10\''
'\'B1of10\'','\'B2of10\'','\'B3of10\'','\'B5of10\'','\'B3of10\'','\'B7of10\'','\'B4of10\''
'\'B5of10\'','\'B5of10\'','\'B4of10\'','\'B6of10\'','\'B3of10\'','\'B7of10\'','\'B6of10\''
'\'B1of10\'','\'B3of10\'','\'B6of10\'','\'B3of10\'','\'B5of10\'','\'B6of10\'','\'B3of10\''
'\'B2of10\'','\'B4of10\'','\'B6of10\'','\'B3of10\'','\'B5of10\'','\'B6of10\'','\'B4of10\''
'\'B5of10\'','\'B6of10\'','\'B10of10\'','\'B7of10\'','\'B3of10\'','\'B8of10\'','\'B6of10\''
'\'B7of10\'','\'B5of10\'','\'B10of10\'','\'B7of10\'','\'B3of10\'','\'B8of10\'','\'B6of10\''
'\'B1of10\'','\'B5of10\'','\'B8of10\'','\'B8of10\'','\'B3of10\'','\'B7of10\'','\'B6of10\''
'\'B1of10\'','\'B1of10\'','\'B1of10\'','\'B5of10\'','\'B8of10\'','\'B4of10\'','\'B5of10\''
'\'B1of10\'','\'B7of10\'','\'B8of10\'','\'B3of10\'','\'B3of10\'','\'B7of10\'','\'B2of10\''
'\'B3of10\'','\'B5of10\'','\'B6of10\'','\'B3of10\'','\'B5of10\'','\'B6of10\'','\'B4of10\''
'\'B1of10\'','\'B4of10\'','\'B10of10\'','\'B4of10\'','\'B5of10\'','\'B6of10\'','\'B3of10\''
'\'B1of10\'','\'B4of10\'','\'B10of10\'','\'B6of10\'','\'B5of10\'','\'B7of10\'','\'B5of10\''
'\'B1of10\'','\'B4of10\'','\'B6of10\'','\'B3of10\'','\'B5of10\'','\'B6of10\'','\'B3of10\''
'\'B2of10\'','\'B3of10\'','\'B6of10\'','\'B3of10\'','\'B5of10\'','\'B6of10\'','\'B4of10\''
'\'B4of10\'','\'B1of10\'','\'B9of10\'','\'B4of10\'','\'B5of10\'','\'B6of10\'','\'B4of10\''
'\'B1of10\'','\'B3of10\'','\'B10of10\'','\'B4of10\'','\'B5of10\'','\'B6of10\'','\'B4of10\''
'\'B5of10\'','\'B5of10\'','\'B3of10\'','\'B8of10\'','\'B3of10\'','\'B7of10\'','\'B5of10\''
'\'B1of10\'','\'B5of10\'','\'B7of10\'','\'B4of10\'','\'B3of10\'','\'B7of10\'','\'B4of10\''
'\'B1of10\'','\'B2of10\'','\'B5of10\'','\'B5of10\'','\'B5of10\'','\'B6of10\'','\'B4of10\''
'\'B1of10\'','\'B5of10\'','\'B5of10\'','\'B4of10\'','\'B5of10\'','\'B6of10\'','\'B4of10\''
'\'B1of10\'','\'B2of10\'','\'B7of10\'','\'B4of10\'','\'B5of10\'','\'B6of10\'','\'B4of10\''
'\'B1of10\'','\'B1of10\'','\'B6of10\'','\'B5of10\'','\'B5of10\'','\'B6of10\'','\'B4of10\''
'\'B1of10\'','\'B5of10\'','\'B9of10\'','\'B6of10\'','\'B5of10\'','\'B7of10\'','\'B5of10\''
'\'B1of10\'','\'B6of10\'','\'B7of10\'','\'B5of10\'','\'B3of10\'','\'B7of10\'','\'B4of10\''
'\'B1of10\'','\'B5of10\'','\'B5of10\'','\'B7of10\'','\'B5of10\'','\'B7of10\'','\'B5of10\''
'\'B2of10\'','\'B2of10\'','\'B9of10\'','\'B3of10\'','\'B5of10\'','\'B6of10\'','\'B4of10\''
'\'B1of10\'','\'B5of10\'','\'B5of10\'','\'B7of10\'','\'B5of10\'','\'B7of10\'','\'B5of10\''
'\'B1of10\'','\'B3of10\'','\'B5of10\'','\'B6of10\'','\'B5of10\'','\'B7of10\'','\'B5of10\''
'\'B1of10\'','\'B3of10\'','\'B2of10\'','\'B5of10\'','\'B3of10\'','\'B8of10\'','\'B4of10\''
'\'B1of10\'','\'B2of10\'','\'B4of10\'','\'B5of10\'','\'B5of10\'','\'B6of10\'','\'B4of10\''
'\'B2of10\'','\'B3of10\'','\'B10of10\'','\'B4of10\'','\'B5of10\'','\'B6of10\'','\'B4of10\''
'\'B1of10\'','\'B1of10\'','\'B1of10\'','\'B6of10\'','\'B3of10\'','\'B7of10\'','\'B5of10\''
'\'B1of10\'','\'B6of10\'','\'B9of10\'','\'B7of10\'','\'B3of10\'','\'B7of10\'','\'B5of10\''
'\'B1of10\'','\'B3of10\'','\'B2of10\'','\'B8of10\'','\'B3of10\'','\'B9of10\'','\'B7of10\''
'\'B1of10\'','\'B3of10\'','\'B1of10\'','\'B6of10\'','\'B5of10\'','\'B7of10\'','\'B5of10\''
'\'B1of10\'','\'B6of10\'','\'B9of10\'','\'B4of10\'','\'B3of10\'','\'B8of10\'','\'B2of10\''
'\'B1of10\'','\'B2of10\'','\'B1of10\'','\'B5of10\'','\'B3of10\'','\'B8of10\'','\'B4of10\''
'\'B2of10\'','\'B2of10\'','\'B10of10\'','\'B2of10\'','\'B5of10\'','\'B6of10\'','\'B3of10\''
'\'B1of10\'','\'B2of10\'','\'B3of10\'','\'B4of10\'','\'B8of10\'','\'B3of10\'','\'B4of10\''
'\'B2of10\'','\'B3of10\'','\'B10of10\'','\'B3of10\'','\'B5of10\'','\'B6of10\'','\'B4of10\''
'\'B1of10\'','\'B6of10\'','\'B9of10\'','\'B6of10\'','\'B3of10\'','\'B7of10\'','\'B5of10\''
'\'B2of10\'','\'B2of10\'','\'B10of10\'','\'B2of10\'','\'B5of10\'','\'B6of10\'','\'B3of10\''
'\'B1of10\'','\'B7of10\'','\'B10of10\'','\'B7of10\'','\'B3of10\'','\'B8of10\'','\'B6of10\''
'\'B1of10\'','\'B3of10\'','\'B10of10\'','\'B3of10\'','\'B5of10\'','\'B6of10\'','\'B3of10\''
'\'B1of10\'','\'B3of10\'','\'B7of10\'','\'B3of10\'','\'B5of10\'','\'B6of10\'','\'B4of10\''
'\'B2of10\'','\'B2of10\'','\'B10of10\'','\'B2of10\'','\'B5of10\'','\'B6of10\'','\'B3of10\''
'\'B4of10\'','\'B3of10\'','\'B1of10\'','\'B2of10\'','\'B5of10\'','\'B6of10\'','\'B4of10\''
'\'B1of10\'','\'B1of10\'','\'B8of10\'','\'B4of10\'','\'B5of10\'','\'B6of10\'','\'B4of10\''
'\'B1of10\'','\'B3of10\'','\'B4of10\'','\'B3of10\'','\'B5of10\'','\'B6of10\'','\'B4of10\''
'\'B2of10\'','\'B1of10\'','\'B1of10\'','\'B6of10\'','\'B5of10\'','\'B7of10\'','\'B5of10\''
'\'B4of10\'','\'B2of10\'','\'B10of10\'','\'B2of10\'','\'B5of10\'','\'B6of10\'','\'B4of10\''
'\'B4of10\'','\'B5of10\'','\'B7of10\'','\'B5of10\'','\'B5of10\'','\'B6of10\'','\'B4of10\''
'\'B2of10\'','\'B3of10\'','\'B9of10\'','\'B6of10\'','\'B5of10\'','\'B7of10\'','\'B5of10\''
'\'B2of10\'','\'B3of10\'','\'B1of10\'','\'B6of10\'','\'B3of10\'','\'B7of10\'','\'B5of10\''
'\'B3of10\'','\'B2of10\'','\'B10of10\'','\'B6of10\'','\'B5of10\'','\'B7of10\'','\'B5of10\''
'\'B1of10\'','\'B2of10\'','\'B1of10\'','\'B6of10\'','\'B3of10\'','\'B7of10\'','\'B5of10\''
'\'B3of10\'','\'B1of10\'','\'B4of10\'','\'B3of10\'','\'B5of10\'','\'B6of10\'','\'B4of10\''
'\'B1of10\'','\'B3of10\'','\'B9of10\'','\'B6of10\'','\'B5of10\'','\'B7of10\'','\'B5of10\''
'\'B2of10\'','\'B3of10\'','\'B10of10\'','\'B6of10\'','\'B3of10\'','\'B7of10\'','\'B5of10\''
'\'B1of10\'','\'B5of10\'','\'B6of10\'','\'B2of10\'','\'B8of10\'','\'B8of10\'','\'B2of10\''
'\'B1of10\'','\'B2of10\'','\'B9of10\'','\'B2of10\'','\'B8of10\'','\'B5of10\'','\'B3of10\''
'\'B1of10\'','\'B5of10\'','\'B10of10\'','\'B7of10\'','\'B3of10\'','\'B7of10\'','\'B4of10\''
'\'B1of10\'','\'B2of10\'','\'B9of10\'','\'B7of10\'','\'B3of10\'','\'B7of10\'','\'B5of10\''
'\'B1of10\'','\'B2of10\'','\'B8of10\'','\'B4of10\'','\'B8of10\'','\'B4of10\'','\'B3of10\''
'\'B1of10\'','\'B2of10\'','\'B4of10\'','\'B6of10\'','\'B5of10\'','\'B7of10\'','\'B5of10\''
'\'B1of10\'','\'B3of10\'','\'B3of10\'','\'B6of10\'','\'B3of10\'','\'B7of10\'','\'B4of10\''
'\'B2of10\'','\'B4of10\'','\'B2of10\'','\'B5of10\'','\'B5of10\'','\'B6of10\'','\'B4of10\''
'\'B1of10\'','\'B3of10\'','\'B2of10\'','\'B6of10\'','\'B5of10\'','\'B7of10\'','\'B5of10\''
'\'B2of10\'','\'B3of10\'','\'B1of10\'','\'B5of10\'','\'B5of10\'','\'B7of10\'','\'B4of10\''
'\'B1of10\'','\'B6of10\'','\'B10of10\'','\'B5of10\'','\'B3of10\'','\'B7of10\'','\'B4of10\''
'\'B1of10\'','\'B3of10\'','\'B1of10\'','\'B5of10\'','\'B5of10\'','\'B7of10\'','\'B4of10\''
'\'B1of10\'','\'B2of10\'','\'B2of10\'','\'B3of10\'','\'B8of10\'','\'B4of10\'','\'B4of10\''
'\'B1of10\'','\'B2of10\'','\'B9of10\'','\'B3of10\'','\'B8of10\'','\'B4of10\'','\'B3of10\''
'\'B1of10\'','\'B2of10\'','\'B9of10\'','\'B4of10\'','\'B8of10\'','\'B4of10\'','\'B4of10\''
'\'B1of10\'','\'B3of10\'','\'B7of10\'','\'B3of10\'','\'B5of10\'','\'B6of10\'','\'B4of10\''
'\'B1of10\'','\'B2of10\'','\'B1of10\'','\'B5of10\'','\'B3of10\'','\'B7of10\'','\'B4of10\''
'\'B1of10\'','\'B4of10\'','\'B7of10\'','\'B2of10\'','\'B8of10\'','\'B8of10\'','\'B2of10\''
'\'B1of10\'','\'B2of10\'','\'B7of10\'','\'B4of10\'','\'B5of10\'','\'B6of10\'','\'B4of10\''
'\'B1of10\'','\'B4of10\'','\'B10of10\'','\'B4of10\'','\'B5of10\'','\'B6of10\'','\'B4of10\''
'\'B1of10\'','\'B4of10\'','\'B10of10\'','\'B4of10\'','\'B3of10\'','\'B7of10\'','\'B3of10\''
'\'B1of10\'','\'B3of10\'','\'B3of10\'','\'B4of10\'','\'B8of10\'','\'B4of10\'','\'B4of10\''
'\'B1of10\'','\'B4of10\'','\'B2of10\'','\'B4of10\'','\'B8of10\'','\'B4of10\'','\'B4of10\''
'\'B1of10\'','\'B3of10\'','\'B1of10\'','\'B5of10\'','\'B5of10\'','\'B7of10\'','\'B4of10\''
'\'B1of10\'','\'B3of10\'','\'B2of10\'','\'B5of10\'','\'B5of10\'','\'B7of10\'','\'B4of10\''
'\'B1of10\'','\'B3of10\'','\'B10of10\'','\'B4of10\'','\'B3of10\'','\'B8of10\'','\'B3of10\''
'\'B2of10\'','\'B3of10\'','\'B5of10\'','\'B4of10\'','\'B5of10\'','\'B6of10\'','\'B4of10\''
'\'B1of10\'','\'B3of10\'','\'B9of10\'','\'B5of10\'','\'B3of10\'','\'B7of10\'','\'B5of10\''
'\'B1of10\'','\'B6of10\'','\'B10of10\'','\'B5of10\'','\'B3of10\'','\'B7of10\'','\'B4of10\''
'\'B1of10\'','\'B4of10\'','\'B3of10\'','\'B3of10\'','\'B8of10\'','\'B4of10\'','\'B4of10\''
'\'B1of10\'','\'B2of10\'','\'B10of10\'','\'B6of10\'','\'B5of10\'','\'B7of10\'','\'B5of10\''
'\'B2of10\'','\'B4of10\'','\'B4of10\'','\'B6of10\'','\'B5of10\'','\'B7of10\'','\'B5of10\''
'\'B2of10\'','\'B2of10\'','\'B10of10\'','\'B6of10\'','\'B5of10\'','\'B7of10\'','\'B5of10\''
'\'B3of10\'','\'B2of10\'','\'B2of10\'','\'B5of10\'','\'B5of10\'','\'B7of10\'','\'B4of10\''
'\'B1of10\'','\'B2of10\'','\'B1of10\'','\'B5of10\'','\'B3of10\'','\'B7of10\'','\'B4of10\''
'\'B4of10\'','\'B3of10\'','\'B4of10\'','\'B4of10\'','\'B5of10\'','\'B6of10\'','\'B4of10\''
'\'B2of10\'','\'B2of10\'','\'B10of10\'','\'B6of10\'','\'B5of10\'','\'B7of10\'','\'B5of10\''
'\'B4of10\'','\'B2of10\'','\'B2of10\'','\'B6of10\'','\'B5of10\'','\'B7of10\'','\'B5of10\''
'\'B1of10\'','\'B2of10\'','\'B8of10\'','\'B5of10\'','\'B3of10\'','\'B7of10\'','\'B5of10\''
'\'B1of10\'','\'B4of10\'','\'B4of10\'','\'B2of10\'','\'B5of10\'','\'B6of10\'','\'B3of10\''
'\'B2of10\'','\'B3of10\'','\'B10of10\'','\'B5of10\'','\'B5of10\'','\'B7of10\'','\'B4of10\''
'\'B1of10\'','\'B3of10\'','\'B1of10\'','\'B5of10\'','\'B3of10\'','\'B7of10\'','\'B4of10\''
'\'B1of10\'','\'B2of10\'','\'B8of10\'','\'B4of10\'','\'B3of10\'','\'B7of10\'','\'B4of10\''
'\'B2of10\'','\'B6of10\'','\'B4of10\'','\'B5of10\'','\'B3of10\'','\'B7of10\'','\'B3of10\''
'\'B1of10\'','\'B3of10\'','\'B9of10\'','\'B4of10\'','\'B3of10\'','\'B7of10\'','\'B4of10\''
'\'B1of10\'','\'B3of10\'','\'B1of10\'','\'B5of10\'','\'B3of10\'','\'B7of10\'','\'B5of10\''
'\'B2of10\'','\'B4of10\'','\'B7of10\'','\'B4of10\'','\'B5of10\'','\'B6of10\'','\'B4of10\''
'\'B1of10\'','\'B4of10\'','\'B2of10\'','\'B4of10\'','\'B3of10\'','\'B8of10\'','\'B3of10\''
'\'B1of10\'','\'B3of10\'','\'B10of10\'','\'B4of10\'','\'B3of10\'','\'B8of10\'','\'B2of10\''
'\'B1of10\'','\'B4of10\'','\'B1of10\'','\'B4of10\'','\'B3of10\'','\'B8of10\'','\'B3of10\''
'\'B1of10\'','\'B2of10\'','\'B3of10\'','\'B4of10\'','\'B8of10\'','\'B4of10\'','\'B3of10\''
'\'B1of10\'','\'B5of10\'','\'B3of10\'','\'B3of10\'','\'B8of10\'','\'B4of10\'','\'B2of10\''
'\'B1of10\'','\'B4of10\'','\'B8of10\'','\'B3of10\'','\'B5of10\'','\'B6of10\'','\'B3of10\''
'\'B2of10\'','\'B5of10\'','\'B9of10\'','\'B4of10\'','\'B5of10\'','\'B6of10\'','\'B4of10\''
'\'B1of10\'','\'B2of10\'','\'B3of10\'','\'B4of10\'','\'B5of10\'','\'B7of10\'','\'B3of10\''
'\'B1of10\'','\'B4of10\'','\'B8of10\'','\'B2of10\'','\'B3of10\'','\'B8of10\'','\'B2of10\''
'\'B1of10\'','\'B3of10\'','\'B9of10\'','\'B3of10\'','\'B8of10\'','\'B4of10\'','\'B3of10\''
'\'B1of10\'','\'B1of10\'','\'B2of10\'','\'B5of10\'','\'B5of10\'','\'B6of10\'','\'B4of10\''
'\'B1of10\'','\'B5of10\'','\'B9of10\'','\'B4of10\'','\'B5of10\'','\'B6of10\'','\'B4of10\''
'\'B1of10\'','\'B3of10\'','\'B4of10\'','\'B5of10\'','\'B5of10\'','\'B7of10\'','\'B4of10\''
'\'B4of10\'','\'B4of10\'','\'B10of10\'','\'B4of10\'','\'B3of10\'','\'B7of10\'','\'B3of10\''
'\'B1of10\'','\'B5of10\'','\'B9of10\'','\'B2of10\'','\'B3of10\'','\'B8of10\'','\'B2of10\''
'\'B1of10\'','\'B3of10\'','\'B2of10\'','\'B4of10\'','\'B5of10\'','\'B7of10\'','\'B3of10\''
'\'B2of10\'','\'B4of10\'','\'B10of10\'','\'B4of10\'','\'B3of10\'','\'B7of10\'','\'B3of10\''
'\'B2of10\'','\'B4of10\'','\'B10of10\'','\'B4of10\'','\'B3of10\'','\'B7of10\'','\'B3of10\''
'\'B1of10\'','\'B3of10\'','\'B9of10\'','\'B4of10\'','\'B5of10\'','\'B6of10\'','\'B3of10\''
'\'B2of10\'','\'B4of10\'','\'B1of10\'','\'B4of10\'','\'B3of10\'','\'B7of10\'','\'B3of10\''
'\'B1of10\'','\'B4of10\'','\'B1of10\'','\'B2of10\'','\'B3of10\'','\'B8of10\'','\'B3of10\''
'\'B1of10\'','\'B3of10\'','\'B6of10\'','\'B5of10\'','\'B5of10\'','\'B6of10\'','\'B4of10\''
'\'B1of10\'','\'B5of10\'','\'B4of10\'','\'B3of10\'','\'B8of10\'','\'B4of10\'','\'B2of10\''
'\'B1of10\'','\'B3of10\'','\'B5of10\'','\'B2of10\'','\'B8of10\'','\'B5of10\'','\'B3of10\''
'\'B1of10\'','\'B4of10\'','\'B1of10\'','\'B4of10\'','\'B3of10\'','\'B7of10\'','\'B3of10\''
'\'B1of10\'','\'B4of10\'','\'B1of10\'','\'B3of10\'','\'B5of10\'','\'B7of10\'','\'B3of10\''
'\'B2of10\'','\'B2of10\'','\'B9of10\'','\'B3of10\'','\'B8of10\'','\'B4of10\'','\'B3of10\''
'\'B2of10\'','\'B2of10\'','\'B7of10\'','\'B3of10\'','\'B5of10\'','\'B6of10\'','\'B3of10\''
'\'B2of10\'','\'B4of10\'','\'B5of10\'','\'B3of10\'','\'B8of10\'','\'B8of10\'','\'B2of10\''
'\'B7of10\'','\'B3of10\'','\'B7of10\'','\'B4of10\'','\'B5of10\'','\'B6of10\'','\'B4of10\''
'\'B2of10\'','\'B5of10\'','\'B10of10\'','\'B3of10\'','\'B5of10\'','\'B7of10\'','\'B4of10\''
'\'B2of10\'','\'B2of10\'','\'B7of10\'','\'B4of10\'','\'B5of10\'','\'B6of10\'','\'B3of10\''
'\'B1of10\'','\'B3of10\'','\'B6of10\'','\'B3of10\'','\'B5of10\'','\'B6of10\'','\'B3of10\''
'\'B1of10\'','\'B4of10\'','\'B10of10\'','\'B2of10\'','\'B3of10\'','\'B8of10\'','\'B3of10\''
'\'B2of10\'','\'B4of10\'','\'B5of10\'','\'B3of10\'','\'B8of10\'','\'B8of10\'','\'B3of10\''
'\'B2of10\'','\'B2of10\'','\'B8of10\'','\'B2of10\'','\'B8of10\'','\'B4of10\'','\'B3of10\''
'\'B1of10\'','\'B3of10\'','\'B1of10\'','\'B4of10\'','\'B5of10\'','\'B7of10\'','\'B4of10\''
'\'B1of10\'','\'B4of10\'','\'B10of10\'','\'B3of10\'','\'B5of10\'','\'B7of10\'','\'B4of10\''
'\'B2of10\'','\'B3of10\'','\'B6of10\'','\'B3of10\'','\'B5of10\'','\'B6of10\'','\'B3of10\''
'\'B3of10\'','\'B4of10\'','\'B1of10\'','\'B4of10\'','\'B5of10\'','\'B7of10\'','\'B4of10\''
'\'B2of10\'','\'B4of10\'','\'B4of10\'','\'B3of10\'','\'B8of10\'','\'B8of10\'','\'B3of10\''
'\'B1of10\'','\'B3of10\'','\'B4of10\'','\'B3of10\'','\'B8of10\'','\'B8of10\'','\'B3of10\''
'\'B1of10\'','\'B2of10\'','\'B9of10\'','\'B2of10\'','\'B8of10\'','\'B4of10\'','\'B3of10\''
'\'B4of10\'','\'B4of10\'','\'B8of10\'','\'B4of10\'','\'B5of10\'','\'B6of10\'','\'B4of10\''
'\'B2of10\'','\'B3of10\'','\'B7of10\'','\'B2of10\'','\'B3of10\'','\'B9of10\'','\'B2of10\''
'\'B2of10\'','\'B3of10\'','\'B3of10\'','\'B3of10\'','\'B8of10\'','\'B8of10\'','\'B3of10\''
'\'B1of10\'','\'B5of10\'','\'B6of10\'','\'B6of10\'','\'B5of10\'','\'B7of10\'','\'B5of10\''
'\'B1of10\'','\'B5of10\'','\'B4of10\'','\'B3of10\'','\'B5of10\'','\'B7of10\'','\'B3of10\''
'\'B1of10\'','\'B3of10\'','\'B6of10\'','\'B5of10\'','\'B5of10\'','\'B6of10\'','\'B4of10\''
'\'B1of10\'','\'B2of10\'','\'B7of10\'','\'B1of10\'','\'B8of10\'','\'B5of10\'','\'B2of10\''
'\'B1of10\'','\'B2of10\'','\'B2of10\'','\'B5of10\'','\'B5of10\'','\'B6of10\'','\'B4of10\''
'\'B1of10\'','\'B4of10\'','\'B9of10\'','\'B3of10\'','\'B5of10\'','\'B7of10\'','\'B3of10\''
'\'B1of10\'','\'B3of10\'','\'B4of10\'','\'B3of10\'','\'B5of10\'','\'B8of10\'','\'B2of10\''
'\'B1of10\'','\'B2of10\'','\'B6of10\'','\'B1of10\'','\'B8of10\'','\'B8of10\'','\'B2of10\''
'\'B1of10\'','\'B3of10\'','\'B3of10\'','\'B3of10\'','\'B8of10\'','\'B4of10\'','\'B3of10\''
'\'B2of10\'','\'B4of10\'','\'B7of10\'','\'B3of10\'','\'B8of10\'','\'B5of10\'','\'B4of10\''
'\'B1of10\'','\'B2of10\'','\'B3of10\'','\'B6of10\'','\'B5of10\'','\'B7of10\'','\'B5of10\''
'\'B4of10\'','\'B2of10\'','\'B7of10\'','\'B5of10\'','\'B5of10\'','\'B7of10\'','\'B4of10\''
'\'B1of10\'','\'B5of10\'','\'B5of10\'','\'B3of10\'','\'B3of10\'','\'B8of10\'','\'B2of10\''
'\'B1of10\'','\'B4of10\'','\'B9of10\'','\'B5of10\'','\'B5of10\'','\'B6of10\'','\'B4of10\''
'\'B1of10\'','\'B5of10\'','\'B4of10\'','\'B2of10\'','\'B5of10\'','\'B8of10\'','\'B2of10\''
'\'B1of10\'','\'B1of10\'','\'B1of10\'','\'B3of10\'','\'B5of10\'','\'B7of10\'','\'B3of10\''
'\'B2of10\'','\'B3of10\'','\'B5of10\'','\'B5of10\'','\'B5of10\'','\'B7of10\'','\'B4of10\''
'\'B1of10\'','\'B2of10\'','\'B4of10\'','\'B3of10\'','\'B3of10\'','\'B8of10\'','\'B3of10\''
'\'B1of10\'','\'B2of10\'','\'B4of10\'','\'B3of10\'','\'B8of10\'','\'B5of10\'','\'B3of10\''
'\'B1of10\'','\'B3of10\'','\'B4of10\'','\'B3of10\'','\'B8of10\'','\'B5of10\'','\'B3of10\''
'\'B1of10\'','\'B2of10\'','\'B3of10\'','\'B4of10\'','\'B5of10\'','\'B7of10\'','\'B3of10\''
'\'B1of10\'','\'B5of10\'','\'B5of10\'','\'B4of10\'','\'B3of10\'','\'B8of10\'','\'B3of10\''
'\'B2of10\'','\'B5of10\'','\'B5of10\'','\'B4of10\'','\'B3of10\'','\'B8of10\'','\'B3of10\''
'\'B2of10\'','\'B4of10\'','\'B5of10\'','\'B3of10\'','\'B8of10\'','\'B5of10\'','\'B3of10\''
'\'B1of10\'','\'B4of10\'','\'B6of10\'','\'B4of10\'','\'B3of10\'','\'B9of10\'','\'B3of10\''
'\'B1of10\'','\'B3of10\'','\'B3of10\'','\'B3of10\'','\'B5of10\'','\'B7of10\'','\'B3of10\''
'\'B1of10\'','\'B2of10\'','\'B4of10\'','\'B3of10\'','\'B3of10\'','\'B8of10\'','\'B3of10\''
'\'B1of10\'','\'B2of10\'','\'B10of10\'','\'B4of10\'','\'B5of10\'','\'B6of10\'','\'B3of10\''
'\'B1of10\'','\'B2of10\'','\'B3of10\'','\'B2of10\'','\'B5of10\'','\'B8of10\'','\'B2of10\''
'\'B5of10\'','\'B5of10\'','\'B7of10\'','\'B3of10\'','\'B5of10\'','\'B7of10\'','\'B4of10\''
'\'B2of10\'','\'B4of10\'','\'B10of10\'','\'B3of10\'','\'B5of10\'','\'B6of10\'','\'B3of10\''
'\'B1of10\'','\'B6of10\'','\'B5of10\'','\'B3of10\'','\'B8of10\'','\'B4of10\'','\'B3of10\''
'\'B1of10\'','\'B2of10\'','\'B2of10\'','\'B4of10\'','\'B8of10\'','\'B5of10\'','\'B3of10\''
'\'B1of10\'','\'B3of10\'','\'B1of10\'','\'B3of10\'','\'B5of10\'','\'B7of10\'','\'B3of10\''
'\'B1of10\'','\'B2of10\'','\'B5of10\'','\'B4of10\'','\'B3of10\'','\'B8of10\'','\'B3of10\''
'\'B1of10\'','\'B2of10\'','\'B4of10\'','\'B3of10\'','\'B3of10\'','\'B8of10\'','\'B3of10\''
'\'B1of10\'','\'B2of10\'','\'B5of10\'','\'B3of10\'','\'B3of10\'','\'B8of10\'','\'B3of10\''
'\'B1of10\'','\'B5of10\'','\'B5of10\'','\'B2of10\'','\'B8of10\'','\'B5of10\'','\'B2of10\''
'\'B1of10\'','\'B5of10\'','\'B5of10\'','\'B2of10\'','\'B8of10\'','\'B5of10\'','\'B2of10\''
'\'B1of10\'','\'B4of10\'','\'B10of10\'','\'B4of10\'','\'B8of10\'','\'B5of10\'','\'B3of10\''
'\'B1of10\'','\'B3of10\'','\'B4of10\'','\'B3of10\'','\'B8of10\'','\'B6of10\'','\'B3of10\''
'\'B2of10\'','\'B1of10\'','\'B1of10\'','\'B2of10\'','\'B8of10\'','\'B6of10\'','\'B3of10\''
'\'B1of10\'','\'B4of10\'','\'B5of10\'','\'B2of10\'','\'B8of10\'','\'B5of10\'','\'B2of10\''
'\'B1of10\'','\'B3of10\'','\'B2of10\'','\'B3of10\'','\'B8of10\'','\'B6of10\'','\'B3of10\''
'\'B1of10\'','\'B3of10\'','\'B5of10\'','\'B3of10\'','\'B8of10\'','\'B5of10\'','\'B3of10\''
'\'B1of10\'','\'B4of10\'','\'B1of10\'','\'B4of10\'','\'B8of10\'','\'B5of10\'','\'B3of10\''
'\'B1of10\'','\'B4of10\'','\'B5of10\'','\'B4of10\'','\'B3of10\'','\'B8of10\'','\'B3of10\''
'\'B2of10\'','\'B2of10\'','\'B3of10\'','\'B6of10\'','\'B5of10\'','\'B7of10\'','\'B4of10\''
'\'B1of10\'','\'B2of10\'','\'B7of10\'','\'B3of10\'','\'B8of10\'','\'B5of10\'','\'B3of10\''
'\'B2of10\'','\'B4of10\'','\'B5of10\'','\'B4of10\'','\'B3of10\'','\'B8of10\'','\'B3of10\''
'\'B2of10\'','\'B1of10\'','\'B4of10\'','\'B3of10\'','\'B3of10\'','\'B8of10\'','\'B3of10\''
'\'B1of10\'','\'B3of10\'','\'B6of10\'','\'B4of10\'','\'B3of10\'','\'B9of10\'','\'B2of10\''
'\'B1of10\'','\'B1of10\'','\'B3of10\'','\'B2of10\'','\'B8of10\'','\'B5of10\'','\'B2of10\''
'\'B1of10\'','\'B2of10\'','\'B7of10\'','\'B3of10\'','\'B8of10\'','\'B6of10\'','\'B2of10\''
'\'B1of10\'','\'B4of10\'','\'B7of10\'','\'B3of10\'','\'B5of10\'','\'B8of10\'','\'B3of10\''
'\'B1of10\'','\'B5of10\'','\'B7of10\'','\'B3of10\'','\'B5of10\'','\'B8of10\'','\'B3of10\''
'\'B1of10\'','\'B3of10\'','\'B6of10\'','\'B4of10\'','\'B3of10\'','\'B8of10\'','\'B4of10\''
'\'B1of10\'','\'B1of10\'','\'B4of10\'','\'B3of10\'','\'B3of10\'','\'B8of10\'','\'B3of10\''
'\'B2of10\'','\'B4of10\'','\'B6of10\'','\'B3of10\'','\'B5of10\'','\'B7of10\'','\'B3of10\''
'\'B1of10\'','\'B4of10\'','\'B5of10\'','\'B4of10\'','\'B3of10\'','\'B9of10\'','\'B4of10\''
'\'B1of10\'','\'B3of10\'','\'B6of10\'','\'B2of10\'','\'B8of10\'','\'B9of10\'','\'B3of10\''
'\'B1of10\'','\'B2of10\'','\'B7of10\'','\'B3of10\'','\'B5of10\'','\'B7of10\'','\'B3of10\''
'\'B2of10\'','\'B4of10\'','\'B8of10\'','\'B3of10\'','\'B5of10\'','\'B8of10\'','\'B2of10\''
'\'B2of10\'','\'B1of10\'','\'B2of10\'','\'B5of10\'','\'B3of10\'','\'B8of10\'','\'B3of10\''
'\'B1of10\'','\'B3of10\'','\'B7of10\'','\'B3of10\'','\'B8of10\'','\'B9of10\'','\'B3of10\''
'\'B2of10\'','\'B3of10\'','\'B7of10\'','\'B5of10\'','\'B5of10\'','\'B7of10\'','\'B3of10\''
'\'B1of10\'','\'B3of10\'','\'B7of10\'','\'B2of10\'','\'B3of10\'','\'B8of10\'','\'B3of10\''
'\'B1of10\'','\'B4of10\'','\'B7of10\'','\'B4of10\'','\'B8of10\'','\'B9of10\'','\'B3of10\''
'\'B1of10\'','\'B3of10\'','\'B8of10\'','\'B2of10\'','\'B8of10\'','\'B5of10\'','\'B3of10\''
'\'B2of10\'','\'B3of10\'','\'B6of10\'','\'B5of10\'','\'B5of10\'','\'B7of10\'','\'B3of10\''
'\'B1of10\'','\'B5of10\'','\'B10of10\'','\'B5of10\'','\'B5of10\'','\'B7of10\'','\'B4of10\''
'\'B1of10\'','\'B3of10\'','\'B7of10\'','\'B3of10\'','\'B5of10\'','\'B8of10\'','\'B3of10\''
'\'B1of10\'','\'B2of10\'','\'B1of10\'','\'B5of10\'','\'B3of10\'','\'B7of10\'','\'B4of10\''
'\'B1of10\'','\'B2of10\'','\'B4of10\'','\'B4of10\'','\'B3of10\'','\'B8of10\'','\'B3of10\''
'\'B2of10\'','\'B3of10\'','\'B5of10\'','\'B4of10\'','\'B5of10\'','\'B6of10\'','\'B3of10\''
'\'B1of10\'','\'B2of10\'','\'B4of10\'','\'B4of10\'','\'B3of10\'','\'B8of10\'','\'B3of10\''
'\'B1of10\'','\'B1of10\'','\'B8of10\'','\'B1of10\'','\'B8of10\'','\'B5of10\'','\'B2of10\''
'\'B1of10\'','\'B2of10\'','\'B10of10\'','\'B5of10\'','\'B3of10\'','\'B7of10\'','\'B4of10\''
'\'B2of10\'','\'B3of10\'','\'B1of10\'','\'B2of10\'','\'B8of10\'','\'B5of10\'','\'B3of10\''
'\'B1of10\'','\'B2of10\'','\'B9of10\'','\'B5of10\'','\'B5of10\'','\'B7of10\'','\'B3of10\''
'\'B1of10\'','\'B3of10\'','\'B1of10\'','\'B5of10\'','\'B5of10\'','\'B7of10\'','\'B3of10\''
'\'B1of10\'','\'B3of10\'','\'B7of10\'','\'B5of10\'','\'B3of10\'','\'B9of10\'','\'B3of10\''
'\'B1of10\'','\'B2of10\'','\'B8of10\'','\'B5of10\'','\'B3of10\'','\'B9of10\'','\'B3of10\''
'\'B1of10\'','\'B2of10\'','\'B7of10\'','\'B1of10\'','\'B8of10\'','\'B9of10\'','\'B2of10\''
'\'B1of10\'','\'B2of10\'','\'B1of10\'','\'B4of10\'','\'B5of10\'','\'B6of10\'','\'B3of10\''
'\'B1of10\'','\'B2of10\'','\'B6of10\'','\'B4of10\'','\'B5of10\'','\'B8of10\'','\'B3of10\''
'\'B1of10\'','\'B2of10\'','\'B9of10\'','\'B5of10\'','\'B3of10\'','\'B9of10\'','\'B3of10\''
'\'B1of10\'','\'B2of10\'','\'B7of10\'','\'B4of10\'','\'B8of10\'','\'B9of10\'','\'B3of10\''
'\'B1of10\'','\'B4of10\'','\'B1of10\'','\'B3of10\'','\'B3of10\'','\'B8of10\'','\'B3of10\''
'\'B1of10\'','\'B1of10\'','\'B1of10\'','\'B4of10\'','\'B3of10\'','\'B9of10\'','\'B2of10\''
'\'B1of10\'','\'B4of10\'','\'B6of10\'','\'B4of10\'','\'B8of10\'','\'B9of10\'','\'B3of10\''
'\'B1of10\'','\'B4of10\'','\'B7of10\'','\'B4of10\'','\'B8of10\'','\'B9of10\'','\'B3of10\''
'\'B1of10\'','\'B4of10\'','\'B7of10\'','\'B5of10\'','\'B8of10\'','\'B9of10\'','\'B3of10\''
'\'B1of10\'','\'B3of10\'','\'B3of10\'','\'B4of10\'','\'B5of10\'','\'B7of10\'','\'B2of10\''
'\'B1of10\'','\'B2of10\'','\'B2of10\'','\'B4of10\'','\'B5of10\'','\'B7of10\'','\'B2of10\''
'\'B1of10\'','\'B3of10\'','\'B5of10\'','\'B4of10\'','\'B5of10\'','\'B8of10\'','\'B3of10\''
'\'B1of10\'','\'B3of10\'','\'B6of10\'','\'B4of10\'','\'B5of10\'','\'B8of10\'','\'B3of10\''
'\'B1of10\'','\'B2of10\'','\'B2of10\'','\'B3of10\'','\'B5of10\'','\'B7of10\'','\'B2of10\''
'\'B1of10\'','\'B2of10\'','\'B3of10\'','\'B5of10\'','\'B5of10\'','\'B8of10\'','\'B3of10\''
'\'B1of10\'','\'B4of10\'','\'B9of10\'','\'B4of10\'','\'B5of10\'','\'B7of10\'','\'B3of10\''
'\'B1of10\'','\'B3of10\'','\'B9of10\'','\'B5of10\'','\'B5of10\'','\'B7of10\'','\'B3of10\''
'\'B1of10\'','\'B3of10\'','\'B1of10\'','\'B1of10\'','\'B8of10\'','\'B7of10\'','\'B2of10\''
'\'B1of10\'','\'B2of10\'','\'B10of10\'','\'B1of10\'','\'B8of10\'','\'B7of10\'','\'B1of10\''
'\'B1of10\'','\'B7of10\'','\'B9of10\'','\'B4of10\'','\'B5of10\'','\'B8of10\'','\'B3of10\''
'\'B1of10\'','\'B4of10\'','\'B10of10\'','\'B4of10\'','\'B3of10\'','\'B8of10\'','\'B3of10\''
'\'B1of10\'','\'B2of10\'','\'B1of10\'','\'B3of10\'','\'B3of10\'','\'B8of10\'','\'B3of10\''
'\'B1of10\'','\'B5of10\'','\'B2of10\'','\'B3of10\'','\'B5of10\'','\'B7of10\'','\'B2of10\''
'\'B1of10\'','\'B4of10\'','\'B2of10\'','\'B4of10\'','\'B5of10\'','\'B7of10\'','\'B3of10\''
'\'B1of10\'','\'B3of10\'','\'B10of10\'','\'B4of10\'','\'B3of10\'','\'B8of10\'','\'B3of10\''
'\'B2of10\'','\'B3of10\'','\'B2of10\'','\'B4of10\'','\'B8of10\'','\'B9of10\'','\'B2of10\''
'\'B4of10\'','\'B5of10\'','\'B8of10\'','\'B4of10\'','\'B5of10\'','\'B7of10\'','\'B3of10\''
'\'B1of10\'','\'B4of10\'','\'B7of10\'','\'B3of10\'','\'B3of10\'','\'B8of10\'','\'B3of10\''
'\'B1of10\'','\'B3of10\'','\'B7of10\'','\'B4of10\'','\'B8of10\'','\'B9of10\'','\'B3of10\''
'\'B1of10\'','\'B1of10\'','\'B6of10\'','\'B3of10\'','\'B3of10\'','\'B8of10\'','\'B3of10\''
'\'B1of10\'','\'B3of10\'','\'B6of10\'','\'B4of10\'','\'B8of10\'','\'B9of10\'','\'B3of10\''
'\'B1of10\'','\'B4of10\'','\'B7of10\'','\'B3of10\'','\'B5of10\'','\'B8of10\'','\'B3of10\''
'\'B1of10\'','\'B4of10\'','\'B6of10\'','\'B3of10\'','\'B3of10\'','\'B8of10\'','\'B3of10\''
'\'B1of10\'','\'B3of10\'','\'B10of10\'','\'B3of10\'','\'B5of10\'','\'B7of10\'','\'B3of10\''
'\'B3of10\'','\'B7of10\'','\'B1of10\'','\'B2of10\'','\'B5of10\'','\'B8of10\'','\'B2of10\''
'\'B1of10\'','\'B3of10\'','\'B10of10\'','\'B3of10\'','\'B3of10\'','\'B8of10\'','\'B3of10\''
'\'B1of10\'','\'B3of10\'','\'B2of10\'','\'B4of10\'','\'B5of10\'','\'B8of10\'','\'B3of10\''
'\'B1of10\'','\'B4of10\'','\'B10of10\'','\'B3of10\'','\'B3of10\'','\'B8of10\'','\'B3of10\''
'\'B1of10\'','\'B2of10\'','\'B3of10\'','\'B4of10\'','\'B5of10\'','\'B8of10\'','\'B3of10\''
'\'B4of10\'','\'B5of10\'','\'B6of10\'','\'B4of10\'','\'B5of10\'','\'B7of10\'','\'B3of10\''
'\'B1of10\'','\'B3of10\'','\'B1of10\'','\'B3of10\'','\'B3of10\'','\'B8of10\'','\'B3of10\''
'\'B1of10\'','\'B4of10\'','\'B9of10\'','\'B2of10\'','\'B3of10\'','\'B9of10\'','\'B2of10\''
'\'B1of10\'','\'B4of10\'','\'B6of10\'','\'B5of10\'','\'B8of10\'','\'B9of10\'','\'B3of10\''
'\'B2of10\'','\'B4of10\'','\'B8of10\'','\'B3of10\'','\'B5of10\'','\'B8of10\'','\'B2of10\''
'\'B1of10\'','\'B6of10\'','\'B2of10\'','\'B3of10\'','\'B5of10\'','\'B8of10\'','\'B2of10\''
'\'B1of10\'','\'B4of10\'','\'B1of10\'','\'B3of10\'','\'B3of10\'','\'B8of10\'','\'B3of10\''
'\'B1of10\'','\'B6of10\'','\'B8of10\'','\'B3of10\'','\'B5of10\'','\'B8of10\'','\'B2of10\''
'\'B1of10\'','\'B4of10\'','\'B10of10\'','\'B2of10\'','\'B3of10\'','\'B8of10\'','\'B3of10\''
'\'B2of10\'','\'B1of10\'','\'B2of10\'','\'B4of10\'','\'B5of10\'','\'B8of10\'','\'B3of10\''
'\'B3of10\'','\'B5of10\'','\'B2of10\'','\'B4of10\'','\'B5of10\'','\'B7of10\'','\'B3of10\''
'\'B1of10\'','\'B6of10\'','\'B7of10\'','\'B3of10\'','\'B5of10\'','\'B8of10\'','\'B2of10\''
'\'B1of10\'','\'B3of10\'','\'B7of10\'','\'B4of10\'','\'B8of10\'','\'B9of10\'','\'B3of10\''
'\'B1of10\'','\'B4of10\'','\'B5of10\'','\'B2of10\'','\'B8of10\'','\'B5of10\'','\'B2of10\''
'\'B2of10\'','\'B3of10\'','\'B10of10\'','\'B3of10\'','\'B5of10\'','\'B8of10\'','\'B2of10\''
'\'B2of10\'','\'B4of10\'','\'B6of10\'','\'B3of10\'','\'B5of10\'','\'B8of10\'','\'B3of10\''
'\'B1of10\'','\'B5of10\'','\'B1of10\'','\'B2of10\'','\'B3of10\'','\'B9of10\'','\'B1of10\''
'\'B1of10\'','\'B3of10\'','\'B7of10\'','\'B4of10\'','\'B5of10\'','\'B8of10\'','\'B3of10\''
'\'B1of10\'','\'B3of10\'','\'B9of10\'','\'B3of10\'','\'B5of10\'','\'B8of10\'','\'B2of10\''
'\'B1of10\'','\'B2of10\'','\'B9of10\'','\'B4of10\'','\'B5of10\'','\'B8of10\'','\'B2of10\''
'\'B1of10\'','\'B4of10\'','\'B3of10\'','\'B2of10\'','\'B8of10\'','\'B5of10\'','\'B1of10\''
'\'B1of10\'','\'B2of10\'','\'B9of10\'','\'B3of10\'','\'B5of10\'','\'B8of10\'','\'B2of10\''
'\'B2of10\'','\'B6of10\'','\'B8of10\'','\'B3of10\'','\'B5of10\'','\'B8of10\'','\'B1of10\''
'\'B1of10\'','\'B5of10\'','\'B5of10\'','\'B3of10\'','\'B5of10\'','\'B9of10\'','\'B1of10\''
'\'B1of10\'','\'B3of10\'','\'B1of10\'','\'B1of10\'','\'B3of10\'','\'B9of10\'','\'B1of10\''
'\'B1of10\'','\'B2of10\'','\'B2of10\'','\'B3of10\'','\'B5of10\'','\'B8of10\'','\'B2of10\''
'\'B2of10\'','\'B3of10\'','\'B8of10\'','\'B3of10\'','\'B5of10\'','\'B8of10\'','\'B2of10\''
'\'B1of10\'','\'B5of10\'','\'B5of10\'','\'B3of10\'','\'B3of10\'','\'B9of10\'','\'B2of10\''
'\'B1of10\'','\'B1of10\'','\'B2of10\'','\'B2of10\'','\'B8of10\'','\'B5of10\'','\'B1of10\''
'\'B1of10\'','\'B4of10\'','\'B7of10\'','\'B4of10\'','\'B5of10\'','\'B8of10\'','\'B3of10\''
'\'B1of10\'','\'B3of10\'','\'B5of10\'','\'B2of10\'','\'B8of10\'','\'B9of10\'','\'B2of10\''
'\'B1of10\'','\'B4of10\'','\'B8of10\'','\'B4of10\'','\'B5of10\'','\'B8of10\'','\'B3of10\''
'\'B4of10\'','\'B2of10\'','\'B1of10\'','\'B4of10\'','\'B5of10\'','\'B8of10\'','\'B3of10\''
'\'B1of10\'','\'B2of10\'','\'B4of10\'','\'B3of10\'','\'B3of10\'','\'B10of10\'','\'B1of10\''
'\'B5of10\'','\'B1of10\'','\'B1of10\'','\'B3of10\'','\'B5of10\'','\'B8of10\'','\'B2of10\''
'\'B2of10\'','\'B3of10\'','\'B7of10\'','\'B4of10\'','\'B5of10\'','\'B8of10\'','\'B2of10\''
'\'B1of10\'','\'B2of10\'','\'B6of10\'','\'B4of10\'','\'B5of10\'','\'B8of10\'','\'B3of10\''
'\'B2of10\'','\'B3of10\'','\'B7of10\'','\'B3of10\'','\'B5of10\'','\'B8of10\'','\'B2of10\''
'\'B1of10\'','\'B2of10\'','\'B8of10\'','\'B4of10\'','\'B3of10\'','\'B8of10\'','\'B2of10\''
'\'B1of10\'','\'B3of10\'','\'B3of10\'','\'B2of10\'','\'B3of10\'','\'B9of10\'','\'B2of10\''
'\'B1of10\'','\'B3of10\'','\'B10of10\'','\'B2of10\'','\'B5of10\'','\'B9of10\'','\'B1of10\''
'\'B1of10\'','\'B5of10\'','\'B3of10\'','\'B2of10\'','\'B3of10\'','\'B9of10\'','\'B1of10\''
'\'B2of10\'','\'B4of10\'','\'B7of10\'','\'B2of10\'','\'B5of10\'','\'B9of10\'','\'B2of10\''
'\'B1of10\'','\'B2of10\'','\'B3of10\'','\'B2of10\'','\'B5of10\'','\'B9of10\'','\'B2of10\''
'\'B2of10\'','\'B4of10\'','\'B7of10\'','\'B2of10\'','\'B5of10\'','\'B9of10\'','\'B2of10\''
'\'B2of10\'','\'B3of10\'','\'B1of10\'','\'B4of10\'','\'B5of10\'','\'B8of10\'','\'B2of10\''
'\'B1of10\'','\'B1of10\'','\'B10of10\'','\'B4of10\'','\'B3of10\'','\'B8of10\'','\'B3of10\''
'\'B1of10\'','\'B3of10\'','\'B6of10\'','\'B2of10\'','\'B3of10\'','\'B9of10\'','\'B2of10\''
'\'B1of10\'','\'B3of10\'','\'B4of10\'','\'B3of10\'','\'B3of10\'','\'B10of10\'','\'B1of10\''
'\'B1of10\'','\'B2of10\'','\'B2of10\'','\'B2of10\'','\'B3of10\'','\'B10of10\'','\'B1of10\''
'\'B1of10\'','\'B3of10\'','\'B9of10\'','\'B3of10\'','\'B3of10\'','\'B8of10\'','\'B2of10\''
'\'B1of10\'','\'B2of10\'','\'B6of10\'','\'B3of10\'','\'B3of10\'','\'B9of10\'','\'B2of10\''
'\'B1of10\'','\'B3of10\'','\'B10of10\'','\'B1of10\'','\'B3of10\'','\'B10of10\'','\'B1of10\''
'\'B1of10\'','\'B2of10\'','\'B4of10\'','\'B2of10\'','\'B5of10\'','\'B8of10\'','\'B1of10\''
'\'B1of10\'','\'B2of10\'','\'B2of10\'','\'B3of10\'','\'B5of10\'','\'B9of10\'','\'B2of10\''
'\'B4of10\'','\'B3of10\'','\'B8of10\'','\'B2of10\'','\'B5of10\'','\'B9of10\'','\'B2of10\''
'\'B1of10\'','\'B1of10\'','\'B10of10\'','\'B3of10\'','\'B3of10\'','\'B9of10\'','\'B2of10\''
'\'B1of10\'','\'B4of10\'','\'B8of10\'','\'B1of10\'','\'B3of10\'','\'B10of10\'','\'B1of10\''
'\'B1of10\'','\'B4of10\'','\'B8of10\'','\'B1of10\'','\'B3of10\'','\'B10of10\'','\'B1of10\''
'\'B1of10\'','\'B2of10\'','\'B8of10\'','\'B3of10\'','\'B5of10\'','\'B8of10\'','\'B2of10\''
'\'B1of10\'','\'B1of10\'','\'B10of10\'','\'B3of10\'','\'B3of10\'','\'B8of10\'','\'B2of10\''
'\'B1of10\'','\'B4of10\'','\'B8of10\'','\'B1of10\'','\'B3of10\'','\'B10of10\'','\'B1of10\''
'\'B1of10\'','\'B2of10\'','\'B6of10\'','\'B2of10\'','\'B3of10\'','\'B9of10\'','\'B2of10\''
'\'B1of10\'','\'B4of10\'','\'B7of10\'','\'B3of10\'','\'B3of10\'','\'B9of10\'','\'B2of10\''
'\'B1of10\'','\'B2of10\'','\'B2of10\'','\'B3of10\'','\'B3of10\'','\'B9of10\'','\'B2of10\''
'\'B1of10\'','\'B3of10\'','\'B9of10\'','\'B2of10\'','\'B5of10\'','\'B9of10\'','\'B2of10\''
'\'B1of10\'','\'B2of10\'','\'B10of10\'','\'B2of10\'','\'B5of10\'','\'B9of10\'','\'B2of10\''
'\'B1of10\'','\'B2of10\'','\'B6of10\'','\'B2of10\'','\'B3of10\'','\'B9of10\'','\'B2of10\''
'\'B1of10\'','\'B2of10\'','\'B9of10\'','\'B2of10\'','\'B5of10\'','\'B10of10\'','\'B1of10\''
'\'B1of10\'','\'B2of10\'','\'B9of10\'','\'B2of10\'','\'B5of10\'','\'B10of10\'','\'B1of10\''
'\'B2of10\'','\'B2of10\'','\'B8of10\'','\'B3of10\'','\'B5of10\'','\'B8of10\'','\'B2of10\''
'\'B2of10\'','\'B3of10\'','\'B6of10\'','\'B2of10\'','\'B5of10\'','\'B9of10\'','\'B2of10\''
'\'B1of10\'','\'B2of10\'','\'B9of10\'','\'B2of10\'','\'B8of10\'','\'B7of10\'','\'B2of10\''
'\'B1of10\'','\'B2of10\'','\'B4of10\'','\'B3of10\'','\'B5of10\'','\'B8of10\'','\'B2of10\''
'\'B1of10\'','\'B2of10\'','\'B4of10\'','\'B3of10\'','\'B5of10\'','\'B8of10\'','\'B2of10\''
'\'B1of10\'','\'B3of10\'','\'B8of10\'','\'B1of10\'','\'B5of10\'','\'B9of10\'','\'B2of10\''
'\'B4of10\'','\'B3of10\'','\'B1of10\'','\'B3of10\'','\'B5of10\'','\'B9of10\'','\'B2of10\''
'\'B1of10\'','\'B2of10\'','\'B5of10\'','\'B3of10\'','\'B5of10\'','\'B9of10\'','\'B2of10\''
'\'B1of10\'','\'B1of10\'','\'B3of10\'','\'B3of10\'','\'B5of10\'','\'B8of10\'','\'B2of10\''
'\'B1of10\'','\'B1of10\'','\'B7of10\'','\'B2of10\'','\'B3of10\'','\'B10of10\'','\'B1of10\''
'\'B1of10\'','\'B2of10\'','\'B9of10\'','\'B2of10\'','\'B3of10\'','\'B10of10\'','\'B1of10\''
'\'B1of10\'','\'B1of10\'','\'B2of10\'','\'B3of10\'','\'B5of10\'','\'B8of10\'','\'B2of10\''
'\'B2of10\'','\'B3of10\'','\'B9of10\'','\'B3of10\'','\'B5of10\'','\'B9of10\'','\'B2of10\''
'\'B1of10\'','\'B5of10\'','\'B8of10\'','\'B2of10\'','\'B5of10\'','\'B9of10\'','\'B2of10\''
'\'B1of10\'','\'B1of10\'','\'B2of10\'','\'B2of10\'','\'B5of10\'','\'B8of10\'','\'B2of10\''
'\'B1of10\'','\'B3of10\'','\'B3of10\'','\'B1of10\'','\'B3of10\'','\'B10of10\'','\'B1of10\''
'\'B2of10\'','\'B6of10\'','\'B9of10\'','\'B2of10\'','\'B5of10\'','\'B10of10\'','\'B1of10\''
'\'B1of10\'','\'B3of10\'','\'B2of10\'','\'B1of10\'','\'B5of10\'','\'B10of10\'','\'B1of10\''
'\'B1of10\'','\'B3of10\'','\'B9of10\'','\'B1of10\'','\'B3of10\'','\'B10of10\'','\'B1of10\''
'\'B1of10\'','\'B5of10\'','\'B3of10\'','\'B2of10\'','\'B3of10\'','\'B10of10\'','\'B1of10\''
'\'B1of10\'','\'B1of10\'','\'B3of10\'','\'B2of10\'','\'B5of10\'','\'B9of10\'','\'B2of10\''
'\'B1of10\'','\'B2of10\'','\'B1of10\'','\'B1of10\'','\'B5of10\'','\'B10of10\'','\'B1of10\''
'\'B1of10\'','\'B4of10\'','\'B4of10\'','\'B2of10\'','\'B3of10\'','\'B10of10\'','\'B2of10\''
'\'B1of10\'','\'B4of10\'','\'B4of10\'','\'B2of10\'','\'B3of10\'','\'B10of10\'','\'B2of10\''
'\'B1of10\'','\'B4of10\'','\'B10of10\'','\'B2of10\'','\'B5of10\'','\'B10of10\'','\'B1of10\''
'\'B1of10\'','\'B3of10\'','\'B5of10\'','\'B2of10\'','\'B3of10\'','\'B10of10\'','\'B1of10\''
'\'B1of10\'','\'B1of10\'','\'B2of10\'','\'B2of10\'','\'B5of10\'','\'B9of10\'','\'B2of10\''
'\'B1of10\'','\'B2of10\'','\'B3of10\'','\'B2of10\'','\'B3of10\'','\'B10of10\'','\'B1of10\''
'\'B1of10\'','\'B2of10\'','\'B2of10\'','\'B1of10\'','\'B3of10\'','\'B10of10\'','\'B1of10\''
'\'B1of10\'','\'B3of10\'','\'B2of10\'','\'B3of10\'','\'B3of10\'','\'B9of10\'','\'B3of10\''
'\'B1of10\'','\'B3of10\'','\'B9of10\'','\'B2of10\'','\'B8of10\'','\'B10of10\'','\'B2of10\''
'\'B1of10\'','\'B2of10\'','\'B6of10\'','\'B2of10\'','\'B3of10\'','\'B9of10\'','\'B2of10\''
'\'B1of10\'','\'B3of10\'','\'B6of10\'','\'B2of10\'','\'B3of10\'','\'B9of10\'','\'B2of10\''
'\'B2of10\'','\'B2of10\'','\'B6of10\'','\'B1of10\'','\'B5of10\'','\'B10of10\'','\'B1of10\''
'\'B1of10\'','\'B2of10\'','\'B3of10\'','\'B2of10\'','\'B5of10\'','\'B9of10\'','\'B1of10\''
'\'B1of10\'','\'B4of10\'','\'B6of10\'','\'B2of10\'','\'B5of10\'','\'B10of10\'','\'B1of10\''
'\'B1of10\'','\'B2of10\'','\'B1of10\'','\'B1of10\'','\'B5of10\'','\'B9of10\'','\'B1of10\''
'\'B1of10\'','\'B3of10\'','\'B6of10\'','\'B2of10\'','\'B5of10\'','\'B10of10\'','\'B1of10\''
'\'B1of10\'','\'B5of10\'','\'B7of10\'','\'B2of10\'','\'B5of10\'','\'B10of10\'','\'B2of10\''
'\'B1of10\'','\'B3of10\'','\'B8of10\'','\'B3of10\'','\'B8of10\'','\'B10of10\'','\'B3of10\''
'\'B1of10\'','\'B1of10\'','\'B10of10\'','\'B1of10\'','\'B5of10\'','\'B9of10\'','\'B1of10\''
'\'B1of10\'','\'B4of10\'','\'B8of10\'','\'B3of10\'','\'B5of10\'','\'B10of10\'','\'B2of10\''
'\'B1of10\'','\'B2of10\'','\'B7of10\'','\'B2of10\'','\'B5of10\'','\'B10of10\'','\'B2of10\''
'\'B1of10\'','\'B5of10\'','\'B3of10\'','\'B3of10\'','\'B8of10\'','\'B10of10\'','\'B3of10\''
'\'B1of10\'','\'B2of10\'','\'B7of10\'','\'B3of10\'','\'B8of10\'','\'B10of10\'','\'B3of10\''
'\'B1of10\'','\'B3of10\'','\'B10of10\'','\'B3of10\'','\'B8of10\'','\'B10of10\'','\'B2of10\''
'\'B1of10\'','\'B5of10\'','\'B1of10\'','\'B3of10\'','\'B8of10\'','\'B10of10\'','\'B2of10\''
'\'B1of10\'','\'B2of10\'','\'B7of10\'','\'B2of10\'','\'B5of10\'','\'B9of10\'','\'B1of10\''
'\'B1of10\'','\'B3of10\'','\'B6of10\'','\'B2of10\'','\'B5of10\'','\'B9of10\'','\'B2of10\''
'\'B1of10\'','\'B4of10\'','\'B5of10\'','\'B2of10\'','\'B5of10\'','\'B9of10\'','\'B2of10\''
'\'B2of10\'','\'B2of10\'','\'B4of10\'','\'B3of10\'','\'B5of10\'','\'B8of10\'','\'B2of10\''
'\'B1of10\'','\'B2of10\'','\'B1of10\'','\'B3of10\'','\'B5of10\'','\'B8of10\'','\'B2of10\''
'\'B1of10\'','\'B3of10\'','\'B5of10\'','\'B3of10\'','\'B10of10\'','\'B9of10\'','\'B2of10\''
'\'B1of10\'','\'B2of10\'','\'B5of10\'','\'B2of10\'','\'B10of10\'','\'B10of10\'','\'B1of10\''
'\'B1of10\'','\'B4of10\'','\'B9of10\'','\'B3of10\'','\'B10of10\'','\'B8of10\'','\'B2of10\''
'\'B1of10\'','\'B4of10\'','\'B9of10\'','\'B2of10\'','\'B10of10\'','\'B8of10\'','\'B2of10\''
'\'B1of10\'','\'B4of10\'','\'B9of10\'','\'B2of10\'','\'B10of10\'','\'B8of10\'','\'B2of10\''
'\'B2of10\'','\'B2of10\'','\'B10of10\'','\'B3of10\'','\'B10of10\'','\'B9of10\'','\'B2of10\''
'\'B1of10\'','\'B4of10\'','\'B10of10\'','\'B2of10\'','\'B10of10\'','\'B10of10\'','\'B1of10\''
'\'B1of10\'','\'B3of10\'','\'B10of10\'','\'B2of10\'','\'B10of10\'','\'B9of10\'','\'B1of10\''
'\'B1of10\'','\'B3of10\'','\'B4of10\'','\'B3of10\'','\'B10of10\'','\'B9of10\'','\'B2of10\''
'\'B1of10\'','\'B5of10\'','\'B1of10\'','\'B1of10\'','\'B10of10\'','\'B10of10\'','\'B1of10\''
'\'B1of10\'','\'B2of10\'','\'B3of10\'','\'B3of10\'','\'B10of10\'','\'B9of10\'','\'B2of10\''
'\'B1of10\'','\'B3of10\'','\'B1of10\'','\'B2of10\'','\'B10of10\'','\'B10of10\'','\'B2of10\''
'\'B1of10\'','\'B2of10\'','\'B9of10\'','\'B3of10\'','\'B10of10\'','\'B8of10\'','\'B2of10\''
'\'B1of10\'','\'B2of10\'','\'B9of10\'','\'B2of10\'','\'B10of10\'','\'B10of10\'','\'B2of10\''
'\'B1of10\'','\'B3of10\'','\'B9of10\'','\'B1of10\'','\'B10of10\'','\'B10of10\'','\'B1of10\''
'\'B1of10\'','\'B2of10\'','\'B1of10\'','\'B1of10\'','\'B10of10\'','\'B10of10\'','\'B2of10\''
'\'B1of10\'','\'B2of10\'','\'B10of10\'','\'B1of10\'','\'B10of10\'','\'B10of10\'','\'B1of10\''
'\'B1of10\'','\'B1of10\'','\'B4of10\'','\'B1of10\'','\'B10of10\'','\'B10of10\'','\'B2of10\''
'\'B1of10\'','\'B3of10\'','\'B5of10\'','\'B1of10\'','\'B10of10\'','\'B10of10\'','\'B2of10\''
'\'B1of10\'','\'B1of10\'','\'B3of10\'','\'B2of10\'','\'B10of10\'','\'B10of10\'','\'B2of10\''
'\'B1of10\'','\'B1of10\'','\'B9of10\'','\'B2of10\'','\'B10of10\'','\'B10of10\'','\'B2of10\''
'\'B1of10\'','\'B1of10\'','\'B3of10\'','\'B1of10\'','\'B10of10\'','\'B10of10\'','\'B2of10\''
'\'B1of10\'','\'B1of10\'','\'B9of10\'','\'B2of10\'','\'B10of10\'','\'B10of10\'','\'B2of10\''
'\'B1of10\'','\'B4of10\'','\'B10of10\'','\'B1of10\'','\'B10of10\'','\'B10of10\'','\'B2of10\''
'\'B1of10\'','\'B1of10\'','\'B4of10\'','\'B1of10\'','\'B10of10\'','\'B10of10\'','\'B2of10\''
