{
  "urn" : "local:stefano.balbi:alice.sandbox:bn.cyprinidae.simple",
  "version" : "0.0.1",
  "adapterType" : "weka",
  "localPath" : "im.alice.spain/resources/bn.cyprinidae.simple",
  "geometry" : "τ1(1){period=[1.59408E12 1.625616E12],tscope=1.0,ttype=LOGICAL,tunit=YEAR}S2(404,196){bbox=[-5.864941456380203 -2.86380778938463 42.54884751087144 43.618497110448374],proj=EPSG:4326,shape=00000000030000000100000005C01775B336906E2A40454640A29ED788C006E9140EEB7F1040454640A29ED788C006E9140EEB7F104045CF2AE9CF05ECC01775B336906E2A4045CF2AE9CF05ECC01775B336906E2A40454640A29ED788}",
  "projectName" : "im.alice.spain",
  "localName" : "bn.cyprinidae.simple",
  "type" : "NUMBER",
  "resourceTimestamp" : 1594131158020,
  "metadata" : { },
  "parameters" : {
    "predicted.range" : "[0.0,15.0]",
    "predictor.stream_width.range" : "[0.0,22.5]",
    "predictor.water_temperature_during_summer.discretizer.file" : "d_water_temperature_during_summer6888598352736453795.bin",
    "predictor.stream_width.discretizer.cutpoints" : "[7.5, 15.0]",
    "predictor.width_of_habitat_region.discretizer.file" : "d_width_of_habitat_region4925399691711858748.bin",
    "submitNodata" : "true",
    "classifier.file" : "classifier2978433490994913775.bin",
    "predictor.stream_width.discretizer.file" : "d_stream_width4097406270938290940.bin",
    "predictor.width_of_habitat_region.discretizer.options" : "-R 4  -B 3 -Y",
    "predictor.stream_width.discretizer.options" : "-R 3  -B 3 -Y",
    "predictor.width_of_habitat_region.range" : "[0.0,28500.0]",
    "instances.file.raw" : "rawinstances492586811730103719.arff",
    "predicted.index" : "1",
    "predictor.stream_width.index" : "3",
    "classifier" : "weka.classifiers.bayes.BayesNet",
    "predicted.discretizer.options" : "-R 1  -B 3 -Y",
    "model" : "ml.fishbiomass.cyprinidae-biomass-within-reach-learner",
    "classifier.options" : " -Q weka.classifiers.bayes.net.search.local.K2 -- -P 1 -E weka.classifiers.bayes.net.estimate.SimpleEstimator -- -A 1.0",
    "predictor.water_temperature_during_summer.range" : "[5.0,23.0]",
    "predicted.discretizer" : "weka.filters.unsupervised.attribute.Discretize",
    "predicted.name" : "cyprinidae_biomass_of_reach",
    "instances.file" : "instances2876775966200478588.arff",
    "predicted.discretizer.file" : "d_cyprinidae_biomass_of_reach2447777599770606839.bin",
    "classifier.probabilistic" : "true",
    "predictor.water_temperature_during_summer.discretizer" : "weka.filters.unsupervised.attribute.Discretize",
    "predictor.water_temperature_during_summer.discretizer.cutpoints" : "[11.0, 17.0]",
    "predictor.width_of_habitat_region.discretizer" : "weka.filters.unsupervised.attribute.Discretize",
    "predictor.width_of_habitat_region.index" : "4",
    "predictor.water_temperature_during_summer.discretizer.options" : "-R 2  -B 3 -Y",
    "wekaVersion" : "3.8.3",
    "predictor.width_of_habitat_region.discretizer.cutpoints" : "[9500.0, 19000.0]",
    "predictor.stream_width.discretizer" : "weka.filters.unsupervised.attribute.Discretize",
    "predicted.discretizer.cutpoints" : "[5.0, 10.0]",
    "predictor.water_temperature_during_summer.index" : "2"
  },
  "localPaths" : [ "im.alice.spain\\resources/bn.cyprinidae.simple/d_cyprinidae_biomass_of_reach2447777599770606839.bin", "im.alice.spain\\resources/bn.cyprinidae.simple/d_water_temperature_during_summer6888598352736453795.bin", "im.alice.spain\\resources/bn.cyprinidae.simple/d_stream_width4097406270938290940.bin", "im.alice.spain\\resources/bn.cyprinidae.simple/d_width_of_habitat_region4925399691711858748.bin", "im.alice.spain\\resources/bn.cyprinidae.simple/instances2876775966200478588.arff", "im.alice.spain\\resources/bn.cyprinidae.simple/rawinstances492586811730103719.arff", "im.alice.spain\\resources/bn.cyprinidae.simple/classifier2978433490994913775.bin" ],
  "history" : [ ],
  "notifications" : [ ],
  "attributes" : [ ],
  "spatialExtent" : null,
  "dependencies" : [ {
    "name" : "water_temperature_during_summer",
    "type" : "NUMBER",
    "key" : true,
    "optional" : true,
    "exampleValue" : null
  }, {
    "name" : "stream_width",
    "type" : "NUMBER",
    "key" : true,
    "optional" : true,
    "exampleValue" : null
  }, {
    "name" : "width_of_habitat_region",
    "type" : "NUMBER",
    "key" : true,
    "optional" : true,
    "exampleValue" : null
  } ],
  "outputs" : null,
  "exportFormats" : {
    "bif" : "BIF bayesian network (.bif)",
    "xdsl" : "GENIE bayesian network (.xdsl)",
    "arff" : "Training dataset (ARFF)",
    "arff#raw" : "Raw training dataset (ARFF)",
    "model" : "WEKA Classifier (.model)",
    "model#predicted" : "WEKA discretizer for the predicted variable (.model)",
    "model#water_temperature_during_summer" : "WEKA Discretizer for Water temperature during summer (.model)",
    "model#stream_width" : "WEKA Discretizer for Stream width (.model)",
    "model#width_of_habitat_region" : "WEKA Discretizer for Width of habitat region (.model)"
  }
}