biology.nomenclature:UlexGallii
biology.nomenclature:UlexEuropaeus
biology.nomenclature:FestucaRubra
biology.nomenclature:Calluna
biology.nomenclature:Helictotrichon
biology.nomenclature:Senecio
biology.nomenclature:Carex
biology.nomenclature:Phragmites
biology.nomenclature:Gramineae
