{
  "urn" : "local:stefano.balbi:local.sandbox:Saja_Besaya_Mario_WGS84",
  "version" : "0.0.1",
  "adapterType" : "vector",
  "localPath" : "im.alice.spain/resources/Saja_Besaya_Mario_WGS84.v0.0.1",
  "geometry" : "#s1(1){bbox=[-4.357044952190878 -3.9443188198818326 43.005643905935955 43.43886547514607],proj=EPSG:4326}",
  "projectName" : "im.alice.spain",
  "localName" : "Saja_Besaya_Mario_WGS84.shp",
  "type" : "OBJECT",
  "resourceTimestamp" : 1718351719182,
  "metadata" : {
    "im:keywords" : "features,Saja_Besaya_Mario_WGS84",
    "dc:title" : "Saja_Besaya_Mario_WGS84"
  },
  "parameters" : { },
  "localPaths" : [ "im.alice.spain\\resources/Saja_Besaya_Mario_WGS84.v0.0.1/Saja_Besaya_Mario_WGS84.shp", "im.alice.spain\\resources/Saja_Besaya_Mario_WGS84.v0.0.1/Saja_Besaya_Mario_WGS84.sbx", "im.alice.spain\\resources/Saja_Besaya_Mario_WGS84.v0.0.1/Saja_Besaya_Mario_WGS84.prj", "im.alice.spain\\resources/Saja_Besaya_Mario_WGS84.v0.0.1/Saja_Besaya_Mario_WGS84.dbf", "im.alice.spain\\resources/Saja_Besaya_Mario_WGS84.v0.0.1/Saja_Besaya_Mario_WGS84.shp.xml", "im.alice.spain\\resources/Saja_Besaya_Mario_WGS84.v0.0.1/Saja_Besaya_Mario_WGS84.shx" ],
  "history" : [ ],
  "notifications" : [ ],
  "attributes" : [ {
    "name" : "OBJECTID",
    "type" : "NUMBER",
    "key" : false,
    "optional" : true,
    "exampleValue" : null,
    "index" : 0
  }, {
    "name" : "COD_MAR",
    "type" : "TEXT",
    "key" : false,
    "optional" : true,
    "exampleValue" : null,
    "index" : 0
  }, {
    "name" : "cod_uni",
    "type" : "NUMBER",
    "key" : false,
    "optional" : true,
    "exampleValue" : null,
    "index" : 0
  }, {
    "name" : "pfafrio",
    "type" : "TEXT",
    "key" : false,
    "optional" : true,
    "exampleValue" : null,
    "index" : 0
  }, {
    "name" : "nom_rio_1",
    "type" : "TEXT",
    "key" : false,
    "optional" : true,
    "exampleValue" : null,
    "index" : 0
  }, {
    "name" : "Cuen_Tipo",
    "type" : "TEXT",
    "key" : false,
    "optional" : true,
    "exampleValue" : null,
    "index" : 0
  }, {
    "name" : "Shape_Leng",
    "type" : "NUMBER",
    "key" : false,
    "optional" : true,
    "exampleValue" : null,
    "index" : 0
  }, {
    "name" : "Shape_Area",
    "type" : "NUMBER",
    "key" : false,
    "optional" : true,
    "exampleValue" : null,
    "index" : 0
  } ],
  "spatialExtent" : {
    "east" : -3.9443188198818326,
    "west" : -4.357044952190878,
    "north" : 43.43886547514607,
    "south" : 43.005643905935955,
    "gridResolution" : null,
    "gridUnit" : null
  },
  "dependencies" : null,
  "outputs" : null,
  "categorizables" : [ ],
  "codelists" : [ ],
  "availability" : null,
  "exportFormats" : {
    "shp" : "ESRI shapefile"
  }
}