{
  "urn" : "local:amarquez:im.alice.spain:spain_wetseason_precipitation_cclm85_2045_2055",
  "version" : "0.0.1",
  "adapterType" : "raster",
  "localPath" : "im.alice.spain/resources/spain_wetseason_precipitation_cclm85_2045_2055.v0.0.1",
  "geometry" : "S2(76,47){bbox=[-4.035 -3.2750000000000004 43.035 43.505],proj=EPSG:4326}",
  "projectName" : "im.alice.spain",
  "localName" : "spain_wetseason_precipitation_cclm85_2045_2055.tif",
  "type" : "NUMBER",
  "resourceTimestamp" : 1605605076463,
  "metadata" : { },
  "parameters" : {
    "nodata" : "-3.4E38"
  },
  "localPaths" : "im.alice.spain/resources/spain_wetseason_precipitation_cclm85_2045_2055.v0.0.1/spain_wetseason_precipitation_cclm85_2045_2055.tif",
  "history" : [ ],
  "notifications" : [ ],
  "attributes" : [ ],
  "spatialExtent" : {
    "east" : -3.2750000000000004,
    "west" : -4.035,
    "north" : 43.505,
    "south" : 43.035,
    "gridResolution" : null,
    "gridUnit" : null
  },
  "dependencies" : null,
  "outputs" : null,
  "exportFormats" : {
    "tiff" : "GeoTiff"
  }
}