{
  "urn" : "local:stefano.balbi:alice.sandbox:forestry.ml.aries.global2",
  "version" : "0.0.1",
  "adapterType" : "weka",
  "localPath" : "im.aries.global/resources/forestry.ml.aries.global2",
  "geometry" : "S2(1,1)",
  "projectName" : "im.aries.global",
  "localName" : "forestry.ml.aries.global2",
  "type" : "NUMBER",
  "resourceTimestamp" : 1570444013276,
  "metadata" : { },
  "parameters" : {
    "predictor.slope.discretizer.file" : "d_slope532376386764976494.bin",
    "predictor.elevation.discretizer.cutpoints" : "[262.3, 525.6, 788.9000000000001, 1052.2, 1315.5, 1578.8000000000002, 1842.1000000000001, 2105.4, 2368.7000000000003]",
    "predictor.slope.discretizer.cutpoints" : "[6.302368545532227, 12.604737091064454, 18.907105636596683, 25.209474182128908, 31.511842727661133, 37.814211273193365, 44.11657981872559, 50.418948364257815, 56.72131690979004]",
    "predictor.slope.index" : "6",
    "predictor.precipitation_volume.discretizer" : "weka.filters.unsupervised.attribute.Discretize",
    "submitNodata" : "true",
    "predictor.elevation.range" : "[-27.0,3343.0]",
    "predictor.elevation.index" : "5",
    "predictor.elevation.discretizer" : "weka.filters.unsupervised.attribute.Discretize",
    "predictor.elevation.discretizer.options" : "-R 5 -Y",
    "predictor.soil_depth.discretizer" : "weka.filters.unsupervised.attribute.Discretize",
    "predictor.precipitation_volume.discretizer.file" : "d_precipitation_volume2853558251176522943.bin",
    "classifier" : "weka.classifiers.bayes.BayesNet",
    "model" : "ml.forestry.potential-biomass-of-tree-vegetation-community-resolver",
    "predictor.slope.range" : "[0.0,69.08450317382812]",
    "predictor.soil_depth.range" : "[0.0,8312.0]",
    "predictor.soil_depth.discretizer.file" : "d_soil_depth51686788423981491.bin",
    "classifier.options" : " -Q weka.classifiers.bayes.net.search.local.K2 -- -P 10 -E weka.classifiers.bayes.net.estimate.SimpleEstimator -- -A 1.0",
    "predictor.soil_texture_type.index" : "9",
    "predicted.name" : "potential_biomass_of_tree_vegetation_community",
    "predictor.enhanced_vegetation_index.range" : "[1100000.0,7.148E7]",
    "instances.file" : "instances5697983905271089372.arff",
    "predictor.normalized_difference_vegetation_index.range" : "[3560000.0,8.986E7]",
    "predictor.atmospheric_temperature.discretizer.cutpoints" : "[2.7724998950958253, 4.194999885559082, 5.61749987602234, 7.039999866485596, 8.462499856948853, 9.88499984741211, 11.307499837875367, 12.729999828338624, 14.15249981880188]",
    "predicted.discretizer.file" : "d_potential_biomass_of_tree_vegetation_community5930006902960782300.bin",
    "predictor.forest_leaf_type_type.index" : "2",
    "predictor.solar_radiation.discretizer.options" : "-R 12 -Y",
    "classifier.probabilistic" : "true",
    "predictor.enhanced_vegetation_index.discretizer.cutpoints" : "[2.0477E7, 2.6144E7, 3.1811E7, 3.7478E7, 4.3145E7, 4.8812E7, 5.4479E7, 6.0146E7, 6.5813E7]",
    "predictor.atmospheric_temperature.discretizer.file" : "d_atmospheric_temperature1156253707923052360.bin",
    "predictor.slope.discretizer" : "weka.filters.unsupervised.attribute.Discretize",
    "predictor.solar_radiation.index" : "12",
    "predictor.enhanced_vegetation_index.index" : "3",
    "predictor.normalized_difference_vegetation_index.discretizer.options" : "-R 4 -Y",
    "predictor.elevation.discretizer.file" : "d_elevation6582534799365646422.bin",
    "predictor.atmospheric_temperature.discretizer.options" : "-R 11 -Y",
    "predictor.soil_depth.index" : "8",
    "predicted.range" : "[0.006011634092904687,1.2348215142940595]",
    "predictor.aspect.discretizer.file" : "d_aspect5151647854545655135.bin",
    "predictor.atmospheric_temperature.discretizer" : "weka.filters.unsupervised.attribute.Discretize",
    "predictor.aspect.range" : "[0.0,359.91278076171875]",
    "classifier.file" : "classifier2597297201426344281.bin",
    "predictor.forest_leaf_type_type.range" : "[0.0,1.0]",
    "predictor.aspect.index" : "7",
    "predictor.solar_radiation.discretizer.file" : "d_solar_radiation4544236817191302208.bin",
    "instances.file.raw" : "rawinstances6900069005305903911.arff",
    "predictor.atmospheric_temperature.range" : "[-1.9166666269302368,16.46666717529297]",
    "predictor.solar_radiation.discretizer.cutpoints" : "[12663.2, 12990.4, 13317.6, 13644.8, 13972.0, 14299.2, 14626.4, 14953.6, 15280.8]",
    "predictor.soil_depth.discretizer.cutpoints" : "[817.6, 1241.2, 1664.8000000000002, 2088.4, 2512.0, 2935.6000000000004, 3359.2000000000003, 3782.8, 4206.4]",
    "predicted.index" : "1",
    "predicted.discretizer.options" : "-R 1  -B 10 -F -Y",
    "predictor.precipitation_volume.index" : "10",
    "predicted.discretizer" : "weka.filters.unsupervised.attribute.Discretize",
    "predictor.solar_radiation.range" : "[12266.0,15731.0]",
    "predictor.enhanced_vegetation_index.discretizer" : "weka.filters.unsupervised.attribute.Discretize",
    "predictor.normalized_difference_vegetation_index.discretizer.file" : "d_normalized_difference_vegetation_index1095057919812268617.bin",
    "predictor.atmospheric_temperature.index" : "11",
    "predictor.aspect.discretizer.options" : "-R 7 -Y",
    "predictor.aspect.discretizer.cutpoints" : "[35.98157653808594, 71.96315307617188, 107.94472961425782, 143.92630615234376, 179.9078826904297, 215.88945922851565, 251.87103576660158, 287.8526123046875, 323.8341888427735]",
    "predictor.enhanced_vegetation_index.discretizer.options" : "-R 3 -Y",
    "predictor.soil_depth.discretizer.options" : "-R 8 -Y",
    "predictor.normalized_difference_vegetation_index.discretizer" : "weka.filters.unsupervised.attribute.Discretize",
    "predictor.aspect.discretizer" : "weka.filters.unsupervised.attribute.Discretize",
    "predictor.normalized_difference_vegetation_index.index" : "4",
    "predictor.slope.discretizer.options" : "-R 6 -Y",
    "wekaVersion" : "3.8.3",
    "predictor.solar_radiation.discretizer" : "weka.filters.unsupervised.attribute.Discretize",
    "predictor.enhanced_vegetation_index.discretizer.file" : "d_enhanced_vegetation_index6410874820516779191.bin",
    "predictor.precipitation_volume.discretizer.options" : "-R 10 -Y",
    "predictor.precipitation_volume.discretizer.cutpoints" : "[468.5, 593.0, 717.5, 842.0, 966.5, 1091.0, 1215.5, 1340.0, 1464.5]",
    "predicted.discretizer.cutpoints" : "[0.011647338047623634, 0.021460797637701035, 0.0355499591678381, 0.05357828177511692, 0.07216057926416397, 0.09436533227562904, 0.1291179060935974, 0.25807178020477295, 0.8033742904663086]",
    "predictor.soil_texture_type.range" : "[3.0,10.0]",
    "predictor.precipitation_volume.range" : "[330.0,1811.0]",
    "predictor.normalized_difference_vegetation_index.discretizer.cutpoints" : "[2.5438E7, 3.2596E7, 3.9754E7, 4.6912E7, 5.407E7, 6.1228E7, 6.8386E7, 7.5544E7, 8.2702E7]"
  },
  "localPaths" : [ "im.aries.global\\resources/forestry.ml.aries.global2/d_potential_biomass_of_tree_vegetation_community5930006902960782300.bin", "im.aries.global\\resources/forestry.ml.aries.global2/d_enhanced_vegetation_index6410874820516779191.bin", "im.aries.global\\resources/forestry.ml.aries.global2/d_normalized_difference_vegetation_index1095057919812268617.bin", "im.aries.global\\resources/forestry.ml.aries.global2/d_elevation6582534799365646422.bin", "im.aries.global\\resources/forestry.ml.aries.global2/d_slope532376386764976494.bin", "im.aries.global\\resources/forestry.ml.aries.global2/d_aspect5151647854545655135.bin", "im.aries.global\\resources/forestry.ml.aries.global2/d_soil_depth51686788423981491.bin", "im.aries.global\\resources/forestry.ml.aries.global2/d_precipitation_volume2853558251176522943.bin", "im.aries.global\\resources/forestry.ml.aries.global2/d_atmospheric_temperature1156253707923052360.bin", "im.aries.global\\resources/forestry.ml.aries.global2/d_solar_radiation4544236817191302208.bin", "im.aries.global\\resources/forestry.ml.aries.global2/instances5697983905271089372.arff", "im.aries.global\\resources/forestry.ml.aries.global2/rawinstances6900069005305903911.arff", "im.aries.global\\resources/forestry.ml.aries.global2/classifier2597297201426344281.bin" ],
  "history" : [ ],
  "notifications" : [ ],
  "attributes" : [ ],
  "spatialExtent" : null,
  "dependencies" : [ {
    "name" : "forest_leaf_type_type",
    "type" : "CONCEPT",
    "key" : true,
    "optional" : true,
    "exampleValue" : null
  }, {
    "name" : "enhanced_vegetation_index",
    "type" : "NUMBER",
    "key" : true,
    "optional" : true,
    "exampleValue" : null
  }, {
    "name" : "normalized_difference_vegetation_index",
    "type" : "NUMBER",
    "key" : true,
    "optional" : true,
    "exampleValue" : null
  }, {
    "name" : "elevation",
    "type" : "NUMBER",
    "key" : true,
    "optional" : true,
    "exampleValue" : null
  }, {
    "name" : "slope",
    "type" : "NUMBER",
    "key" : true,
    "optional" : true,
    "exampleValue" : null
  }, {
    "name" : "aspect",
    "type" : "NUMBER",
    "key" : true,
    "optional" : true,
    "exampleValue" : null
  }, {
    "name" : "soil_depth",
    "type" : "NUMBER",
    "key" : true,
    "optional" : true,
    "exampleValue" : null
  }, {
    "name" : "soil_texture_type",
    "type" : "CONCEPT",
    "key" : true,
    "optional" : true,
    "exampleValue" : null
  }, {
    "name" : "precipitation_volume",
    "type" : "NUMBER",
    "key" : true,
    "optional" : true,
    "exampleValue" : null
  }, {
    "name" : "atmospheric_temperature",
    "type" : "NUMBER",
    "key" : true,
    "optional" : true,
    "exampleValue" : null
  }, {
    "name" : "solar_radiation",
    "type" : "NUMBER",
    "key" : true,
    "optional" : true,
    "exampleValue" : null
  } ],
  "outputs" : null,
  "exportFormats" : {
    "bif" : "BIF bayesian network (.bif)",
    "xdsl" : "GENIE bayesian network (.xdsl)",
    "arff" : "Training dataset (ARFF)",
    "arff#raw" : "Raw training dataset (ARFF)",
    "model" : "WEKA Classifier (.model)",
    "model#predicted" : "WEKA discretizer for the predicted variable (.model)",
    "model#enhanced_vegetation_index" : "WEKA Discretizer for Enhanced vegetation index (.model)",
    "model#normalized_difference_vegetation_index" : "WEKA Discretizer for Normalized difference vegetation index (.model)",
    "model#elevation" : "WEKA Discretizer for Elevation (.model)",
    "model#slope" : "WEKA Discretizer for Slope (.model)",
    "model#aspect" : "WEKA Discretizer for Aspect (.model)",
    "model#soil_depth" : "WEKA Discretizer for Soil depth (.model)",
    "model#precipitation_volume" : "WEKA Discretizer for Precipitation volume (.model)",
    "model#atmospheric_temperature" : "WEKA Discretizer for Atmospheric temperature (.model)",
    "model#solar_radiation" : "WEKA Discretizer for Solar radiation (.model)"
  }
}