{
  "urn" : "local:stefano.balbi:im.alice.spain:current_bf_blf_wgs84",
  "version" : "0.0.1",
  "adapterType" : "raster",
  "localPath" : "im.alice.spain/resources/current_bf_blf_wgs84.v0.0.1",
  "geometry" : "S2(1173,867){bbox=[-4.01321013077292 -3.29064213077292 43.04917030624816 43.43932030624816],proj=EPSG:4326}",
  "projectName" : "im.alice.spain",
  "localName" : "current_bf_blf_wgs84.tif",
  "type" : "NUMBER",
  "resourceTimestamp" : 1603463172631,
  "metadata" : { },
  "parameters" : {
    "nodata" : "-3.4E38"
  },
  "localPaths" : "im.alice.spain/resources/current_bf_blf_wgs84.v0.0.1/current_bf_blf_wgs84.tif",
  "history" : [ ],
  "notifications" : [ ],
  "attributes" : [ ],
  "spatialExtent" : {
    "east" : -3.29064213077292,
    "west" : -4.01321013077292,
    "north" : 43.43932030624816,
    "south" : 43.04917030624816,
    "gridResolution" : null,
    "gridUnit" : null
  },
  "dependencies" : null,
  "outputs" : null,
  "exportFormats" : {
    "tiff" : "GeoTiff"
  }
}