{
  "urn" : "local:srwohl:im.alice.spain:im-alice-spain.cantabria_mares_per_hectare",
  "version" : "0.0.1",
  "adapterType" : "wcs",
  "localPath" : "im.alice.spain/resources/im-alice-spain.cantabria_mares_per_hectare",
  "geometry" : "S2(646,355){bbox=[-4.023167712323569 -3.294614770881542 43.037810962477145 43.4386839874437],proj=EPSG:4326}",
  "projectName" : "im.alice.spain",
  "localName" : "im-alice-spain.cantabria_mares_per_hectare",
  "type" : "NUMBER",
  "resourceTimestamp" : 1587390976722,
  "metadata" : { },
  "parameters" : {
    "wcsIdentifier" : "im-alice-spain__cantabria_mares_per_hectare",
    "serviceUrl" : "https://integratedmodelling.org/dev-geoserver/ows",
    "nodata" : "0.0",
    "wcsVersion" : "2.0.1"
  },
  "localPaths" : [ ],
  "history" : [ ],
  "notifications" : [ ],
  "attributes" : [ ],
  "spatialExtent" : {
    "east" : -3.294614770881542,
    "west" : -4.023167712323569,
    "north" : 43.4386839874437,
    "south" : 43.037810962477145,
    "gridResolution" : null,
    "gridUnit" : null
  },
  "dependencies" : null,
  "outputs" : null,
  "exportFormats" : { }
}