@relation moderately_sensitive_ept_proportion_macro_invertebrate_individual_count_of_reach_instances

@attribute moderately_sensitive_ept_proportion_macro_invertebrate_individual_count_of_reach numeric
@attribute nitrate_mass_to_water_volume_ratio numeric
@attribute solid_suspension_mass_to_water_volume_ratio numeric
@attribute water_temperature_during_summer numeric
@attribute riparian_broadleaf_forest_proportion_area_of_watershed numeric

@data
39.638933,1.67,2,14.66,0
27.140505,3.31,52.4,15.4,0.117189
47.713415,1.83,19,14.03,0.63964
32.310934,2.91,0,14.02,0.01
48.237394,1.63,6,11.08,0.01
37.776484,1.16,5,12.54,0.01
33.758803,0.95,24.58,13.86,0.132075
60,1.54,25.56,13.38,0.25281
60,1.27,43.27,10.38,0.770829
60,0.85,5,14.34,0.01
31.766055,0.42,5,11.49,0.816665
60,0.84,1,20,0.333335
60,0.84,4,21,0.01
40.013098,0.76,2,8.41,0.01
56.965615,1.56,5,8.38,0.01
46.386334,0.67,10.6,11.86,0.99
41.233374,1.5,5.2,15.87,0.752133
49.280576,1.6,40,14.83,0.55
37.090164,0.8,8.6,16.14,0.42
60,0.62,15.6,14.24,0.796876
31.717172,0.2,23.4,12.25,0.99
49.670743,1.57,54.4,13.25,0.43
38.688307,0.85,18.4,13.85,0.223684
35.888188,1.31,33.8,14.94,0.99
51.005025,1.45,7.4,15.85,0.34
50.401482,0.45,19,14.13,0.79
34.299517,1,18.2,14.12,0.52
47.274143,0.87,27.6,13.71,0.618
28.874484,0.24,3.4,16.7,0.109
60,0.15,3.2,12.15,0
44.86271,0,22.4,14.39,0
60,1.52,35.8,15.13,0.686275
51.333333,1.59,31.8,13.19,0.26
5.568532,0.14,8.6,12.29,0
60,0.67,11.6,13.93,0.736844
37.300532,0.71,46.2,14.87,0.343282
49.594004,1.77,36.2,16.4,0.214951
36.349206,2.62,75,15.5,0.688797
33.512224,1.67,29.6,13.46,0.575759
31.809736,1.16,16.4,12.68,0.589929
24.126456,1.32,44.89,16.23,0.24
31.806616,1.41,50.59,14.88,0.27
51.551724,1.32,43.56,14.72,0.3
52.905199,1.23,37.56,14.62,0.14
38.619403,1.86,51.56,17,0.71
34.016962,2.07,48.89,16.66,0
20.643185,2.69,46.4,18.5,0.09
31.170081,1.94,47.4,16.46,0.1
41.355075,2.2,55.2,13.66,0.1
40.625,2.41,64.8,13.18,0.1
50.695652,1.51,41.33,13.38,0.465406
54.993268,1.44,39.33,12.6,0.280301
35.85044,0.92,32,9.32,0
44.222039,0.72,32.89,9.06,0
50.243172,1.54,45.2,13.44,0.590361
13.73979,1.97,2,19.58,0.322
27.794746,1.36,6,16.64,0.474
20.263091,0.76,5,15.56,0.435
28.857607,0.97,4,23,0.508
33.047517,1.45,3,16.16,0.477
24.744309,1.61,3,16.24,0.138
11.001318,0.55,1,16.47,0.322
24.773022,0.52,4,17.25,0.474
18.744229,0.47,6,15.03,0.435
34.923339,0.46,3,18.9,0.508
32.508251,0.67,3,15.99,0.477
48.818898,0.73,4,16.42,0.138
14.277457,2.03,7,17.11,0.322
19.788732,1.67,4,15.97,0.474
36.628849,1.09,4,14.68,0.435
27.479339,0.74,6,18.42,0.508
41.9,1.45,2,16.1,0.477
48.635236,1.96,2,17.11,0.138
26.981707,1.99,2,17.01,0.322
24.111823,0.84,2,5,0.01
27.237237,1.15,5,14.99,0.435
29.596719,1.04,4,18.87,0.508
50.135685,1.71,4,15.49,0.477
30.094271,1.86,1,15.59,0.138
30.643247,0.84,2,18,0.01
34.492925,0.84,2,16,0.01
23.289407,0.84,7,13,0
53.82716,0.84,3,5,0.01
29.460094,0.84,1,14,0.01
2.863497,0.84,7,12,0.01
29.775281,0.84,4,11,0.01
35.775714,0.84,5,20,0.01
29.94186,0.84,3,18,0.01
25.4497,0.84,2,13,0.01
41.543917,0.84,6,5,0.01
42.390194,0.84,6,6,0.01
31.663247,0.84,3,20,0.01
16.897409,0.84,5,8,0.01
60,0.84,2,5,0.01
26.065449,0.84,4,5,0
45.016797,0.84,4,9,0.01
43.926789,0.84,6,5,0.01
7.417385,0.84,3,5,0.01
17.765121,0.84,5,13,0.01
31.206897,0.84,3,21,0.01
59.20354,0.84,6,20,0.01
60,0.84,5,7,0.01
60,0.84,2,7,0.01
43.459302,0.84,6,13,0.01
56.809771,0.84,5,18,0.01
14.65302,0.64,2,9.01,0.132075
42.133816,1,6,7,0.25281
41.564903,1.15,4,12,0
60,0,2,10.65,0.75
60,0.75,1,10.81,0.96581
11.093275,2.7,3,13.24,0
10.87383,1.57,2,9.63,0
50.242571,1.86,4,11.22,0.63964
30.378474,1.26,2,8.24,0.648934
45.790816,0.44,5,5,0.816665
60,0.44,5,5,0.333335
17.426182,0,1,8.53,0.661974
39.547517,0.87,3,12,0.99
39.638933,1.67,3,14.66,0
47.713415,0.84,2,21,0.01
32.310934,2.91,4,14.02,0
48.237394,1.63,6,11.08,0
37.776484,1.16,3,12.54,0.75
33.758803,0.84,3,11,0.01
60,0.84,6,17,0.796876
60,0.85,4,14.34,0.96581
31.766055,0.42,7,11.49,0.816665
60,0.52,5,11.81,0.333335
60,0.84,5,10,0.01
40.013098,0.76,6,8.41,0.66
56.965615,1.56,3,8.38,0.65
23.852772,2.16,2,14.26,0
27.206596,1.21,6,15.03,0.63964
25.577558,1.12,4,14.69,0
32.223702,0.65,3,12.9,0.75
24.741298,0.82,4,11.02,0.132075
19.458946,0.42,4,12.52,0.816665
32.147937,0.92,4,12.96,0.25281
35.49201,0.38,5,11.42,0.333335
32.233934,0.91,4,8.79,0.648934
30.985197,0.52,5,8.6,0.661974
7.070707,1.16,2,11.75,0
22.449681,0.6,6,10.01,0.99
34.654378,0.6,4,14.28,0.96581
44.154818,1.27,3,14.01,0
27.710843,0.84,7,14.16,0.63964
16.876819,0.64,1,14.27,0
41.85022,0.55,5,12.65,0.75
43.074968,0.33,5,13.86,0.132075
37.339056,0.33,1,12.24,0.816665
44.019471,0.46,1,12.14,0.25281
37.770898,0.32,2,11.31,0.333335
30.40201,0.73,3,8.57,0.648934
26.711027,0.32,1,8.54,0.661974
9.393391,0.73,3,11.35,0
48.232435,0.44,6,9.91,0.99
47.021944,0.44,2,13.92,0.96581
34.653465,3.53,3,13.23,0
37.072395,1.99,2,12.11,0.63964
22.858495,1.32,3,12.97,0
40.344168,1.19,3,12.42,0.75
43.28125,0.51,1,14.34,0.132075
57.348066,0.6,6,13.02,0.816665
44.099379,1.12,4,12.96,0.25281
55.350195,0.75,6,11.25,0.333335
29.206963,1.71,5,9.34,0.648934
55.700935,1.29,2,9.14,0.661974
26.003178,1.66,6,10.26,0
49.248905,0.97,4,9.86,0.99
49.712974,0.78,6,12.94,0.96581
14.088707,3.18,6,13.83,0
30.704018,1.65,2,13.49,0.63964
26.638431,1.36,7,14.09,0
56.25,1.11,3,12.84,0.75
20.171294,0.86,2,13.69,0.132075
44.946809,0.68,3,9.66,0.816665
35.3714,1.31,4,11.96,0.25281
32.508191,0.66,4,11.44,0.333335
42.935154,1.46,1,8.69,0.648934
22.5,0.89,2,8.31,0.661974
22.406848,1.51,3,11.02,0
38.964064,0.65,1,9.87,0.99
43.622921,0.75,2,13.77,0.96581
0,1.19,3,15.954273,0
35.7212,0.34,5,14.456998,0
21.711471,0.17,4,11.85715,0.325
18.426724,1.32,4,11.97841,0.276
12.858708,0.01,6,13.057037,0.031
42.421603,0.37,1,12.374734,0.16
29.062138,2.49,5,15.508835,0.377
3.926568,0.3,6,16.777532,0.439
6.50167,15,4,14.816732,0.882
20.527241,1,5,16.173788,0.505
17.714286,0.23,1,12.478926,0.231
8.184298,1.23,6,16.572544,0.125
9.580672,1.74,6,15.458425,0.282
13.064673,1.91,5,18.367193,0.382
39.250556,0.46,6,11.854301,0.645
10.616812,0.63,4,15.191341,0.269
40.691928,1.61,1,7,0.265
28.901734,1.61,7,15.673504,0.235
16.637995,3.96,0,13.022529,0.341
37.539683,0.42,1,13.391676,0
31.029748,0.34,2,13.328293,0.325
45.780051,1.13,4,9.707156,0.276
16.443897,0.88,7,12.254559,0.031
35.617947,0.4,4,11.946445,0.16
25.839126,1.49,7,16.428366,0.377
8.154803,0.86,4,18.942291,0.439
6.816359,6.24,2,16.263194,0.882
15.582559,1.55,4,5,0.505
15.840812,1.22,1,10.657112,0.231
6.647959,0.9,5,17.039108,0.125
9.589041,1.38,5,16.764563,0.282
18.812758,1.69,1,18.565021,0.382
27.780453,0.67,7,12.676148,0.645
14.049296,0.46,5,16.766077,0.269
26.337079,1,2,11.778279,0.265
26.014109,0.68,7,17.086774,0.235
6.008078,3.36,6,13.536783,0.341
