{
  "urn" : "local:stefano.balbi:im.alice.spain:Spain_SS_WSAL_current_50m_rev",
  "version" : "0.0.1",
  "adapterType" : "raster",
  "localPath" : "im.alice.spain/resources/Spain_SS_WSAL_current_50m_rev.v0.0.1",
  "geometry" : "S2(1210,1057){bbox=[-4.021239850782012 -3.2772702734713772 43.03871694074352 43.51369300000004],proj=EPSG:4326}",
  "projectName" : "im.alice.spain",
  "localName" : "Spain_SS_WSAL_current_50m_rev.tiff",
  "type" : "NUMBER",
  "resourceTimestamp" : 1605117212691,
  "metadata" : { },
  "parameters" : { },
  "localPaths" : "im.alice.spain/resources/Spain_SS_WSAL_current_50m_rev.v0.0.1/Spain_SS_WSAL_current_50m_rev.tiff",
  "history" : [ ],
  "notifications" : [ ],
  "attributes" : [ ],
  "spatialExtent" : {
    "east" : -3.2772702734713772,
    "west" : -4.021239850782012,
    "north" : 43.51369300000004,
    "south" : 43.03871694074352,
    "gridResolution" : null,
    "gridUnit" : null
  },
  "dependencies" : null,
  "outputs" : null,
  "exportFormats" : {
    "tiff" : "GeoTiff"
  }
}