{
  "urn" : "local:amarquez:im.alice.spain:divaqua.prmedia85",
  "version" : "0.0.1",
  "adapterType" : "wcs",
  "localPath" : "im.alice.spain/resources/divaqua.prmedia85",
  "geometry" : "S2(135,76){bbox=[288821.81999815686 383481.7982011728 4763283.764975424 4816878.017340367],proj=EPSG:25830}",
  "projectName" : "im.alice.spain",
  "localName" : "divaqua.prmedia85",
  "type" : "NUMBER",
  "resourceTimestamp" : 1652688914039,
  "metadata" : { },
  "parameters" : {
    "wcsIdentifier" : "divaqua__prmedia85",
    "transform" : "",
    "serviceUrl" : "http://192.168.250.122:8600/geoserver/divaqua/wcs",
    "nodata" : "-3.402823E38",
    "wcsVersion" : "2.0.1"
  },
  "localPaths" : [ ],
  "history" : [ ],
  "notifications" : [ ],
  "attributes" : [ ],
  "spatialExtent" : {
    "east" : -4.42982260995231,
    "west" : -5.61103215565528,
    "north" : 43.49574906208011,
    "south" : 42.99290742662327,
    "gridResolution" : null,
    "gridUnit" : null
  },
  "dependencies" : null,
  "outputs" : null,
  "categorizables" : [ ],
  "codelists" : [ ],
  "availability" : null,
  "exportFormats" : { }
}