@relation juvenile_salmonidae_biomass_of_reach_instances

@attribute juvenile_salmonidae_biomass_of_reach numeric
@attribute water_temperature_during_summer numeric
@attribute omass_from_primary_production numeric
@attribute minimum_omass_to_water_volume_ratio numeric

@data
0.74,5,1,6
0.54,15,4,1
0.41,7,2,4
0.44,12,3,5
0,5,4,4
1,17,1,7
0.59,5,5,3
1.06,20,4,13
0.27,10,4,5
2.97,5,2,6
0.24,7,3,6
0.27,5,2,5
0.27,17,2,7
0,5,1,7
2,5,3,2
0,18,4,6
0.92,5,3,2
0.16,15,2,1
0,17,3,2
3.73,13,2,5
0.91,19,1,5
4.5,5,1,1
2.15,9,2,6
2.59,5,4,2
4.5,19,2,2
4.5,19,4,3
1.13,12,1,3
2.59,5,2,5
0.49,11,5,1
4.5,7,5,2
1.79,16,1,5
3.07,5,3,2
3.38,5,3,6
1.75,18,5,3
1.47,10,1,1
1.19,8,3,4
1.25,10,3,4
1,5,4,3
0.26,18,1,4
0.74,5,1,2
0,7,2,3
4.5,8,2,1
2.58,5,3,1
3.52,16,4,4
0.84,12,2,3
2.3,5,5,7
0.33,11,2,4
0.39,12,5,5
2.32,5,4,7
1.26,23,1,1
1.87,16,1,5
0.46,16.64,2.18,8.77
1.55,19,4,3
1.72,5,5,6
1.41,5,1,4
0.36,17.25,21,8.74
0.62,15.97,4.48,9.24
0.98,15,2,1
2.2,5,3,5
1.71,16,1,6
0.68,15,1,7
0.72,5,2,3
3.5,15,5,3
4.5,19,3,2
0.34,5,3,2
0.44,5,1,4
1.02,16,1,3
4.5,10,1,1
3.1,9,2,4
1.69,5,1,2
4.5,18,5,1
4.4,11,2,1
1.3,8,4,6
0.66,5,3,7
2.11,10,2,6
3.64,14,1,5
2.89,5,5,4
4.5,19,3,4
2.37,19,5,3
4.5,13,3,2
1.22,5,4,4
1.2,16,5,3
2.07,5,3,5
2.56,18,3,5
1.4,5,3,2
1.66,5,2,5
0.1,5,5,6
2.12,12,5,3
0.54,8,5,6
3.23,7,5,1
4.5,12,4,4
0.35,12,5,6
4.5,12,3,5
2.12,9,1,7
2.14,5,3,3
0.85,19,1,4
0.9,5,3,3
1.49,15,5,3
2.73,17,4,2
2.37,5,5,5
1.53,5,4,2
1.27,5,3,4
1.01,8,2,4
2.14,5,2,5
0.86,12,3,6
1.11,15,4,3
2.2,19.65,4.37,7.89
2.28,11,2,6
2.48,13,2,5
4.5,5,3,2
1.36,7,4,6
4.5,5,1,5
0.69,5,5,5
0.84,5,4,4
2.01,12,5,4
3.09,18,5,4
2.95,12,5,4
4.5,19,2,3
4.5,12,1,5
4.5,11,4,3
12,12,3,5
2.17,18,5,2
2.25,18,2,5
4.5,5,3,5
3.5,17,2,4
4.5,10,4,3
4.5,15,1,7
4.5,7,2,2
0,12,2,4
0.03,6,3,1
0.9,18.9,5.43,8.1
1.52,18.42,2.93,8.36
1.75,18.87,1.76,8.02
1.82,5,4,2
0.83,6,4,2
4.5,16.14,1.43,8.51
1.13,10,1,4
1.34,15.4,2.83,9.49
0.02,16.23,4.53,8.66
0.09,14.88,4.75,8.87
0.03,14.72,3.72,9.14
0.36,14.62,2.7,9.04
1.82,13.38,4.07,9.79
0.3,12.6,2.18,10.02
0,15.13,1.75,9.64
1.64,9.32,5,1
0.83,17,6.71,8.52
0.57,16.66,1.79,9.1
0.42,18.5,2.16,8.34
0.29,16.46,1.71,8.57
0,5,4,7
0,13,5,2
0.55,5,4,5
2.35,18,2,7
4.5,6,2,4
0,7,3,6
0.64,15,2,3
1.3,16,3,5
1.69,5,2,6
0.96,19,3,6
3.03,10,5,3
2.86,15,2,1
3.33,6,2,1
4.5,15,1,1
2.14,18,1,1
0.7,11,5,4
1.8,12,4,3
0.43,8,4,4
0.27,12,1,2
0.81,10,3,4
0.18,5,4,2
3.83,5,3,2
1.51,11,1,4
0.82,8,3,7
1.69,5,3,4
1.46,14,1,2
4.5,14,3,3
3.77,8,2,5
4.5,14,5,4
4.12,12,5,6
1.92,15.51,1,8.39
2.23,16.43,1,8.06
1.18,5,3,2
3.06,12,1,5
0,5,3,1
0.08,14,5,5
4.5,5,4,5
4.5,15,1,6
0,5,2,2
4.5,11,3,4
4.5,11.22,1.19,10.5
4.5,14.03,2.68,9.32
3.3,15.03,2.74,9.42
3.56,14.16,3.86,9.22
2.97,12.11,2.48,10.24
3.04,13.49,1.29,9.29
0,5,5,2
4.5,14.66,2.46,9.8
1.17,9.06,2,3
4.5,14.69,1.43,8.49
3.67,14.27,3.56,9.83
4.5,12.97,2.29,10.46
4.5,14.09,1.73,9.92
4.5,9,1,3
2.68,18,5,3
0,13.24,2.21,9.66
1.95,14.02,4.88,9.4
0.26,14.26,2.82,9.65
1.82,14.01,5.07,9.53
4.19,13.23,4.26,10.08
2.36,13.83,0.76,9.7
0.54,17,1,5
0,16,5,3
4.5,9.63,3.02,9.94
3.04,11.08,3.71,9.82
4.2,11.75,2.42,9.77
4.5,11.35,3.09,9.58
2.28,10.26,4.78,10.2
1,11.02,5.27,9.69
2.41,13.44,5,3
2.31,5,3,2
0.88,9,2,4
1.68,8.53,0.28,10.59
0.43,8.41,0.23,10.67
0.67,8.6,0.34,13
0.75,8.54,0.41,13
0.3,9.14,0.69,13
0.73,8.31,0.19,10.5
1.9,16,5,1
0.26,17,3,4
4.5,8,6,5
0.34,13.93,0.31,8.95
3,15,3,4
0,11,4,1
0,5,5,3
0.61,5,5,1
3.09,15,1,2
0,12,5,6
0.39,7,4,1
2.04,18,5,6
1.44,5,1,6
0,8,1,4
1.02,7,4,6
1.42,5,4,6
1.1,18,2,5
4.5,9.01,0.75,9.9
4.5,13.86,0.74,8.36
1.16,11.02,0.63,8.42
2.74,13.86,0.35,8.97
3.02,14.34,0.29,8.7
2.73,13.69,0.34,8.49
1.77,5,4,7
4.5,13.85,1.15,9.4
1.22,16.4,1.85,8.55
0.25,15.5,0.58,8.95
0,5,5,6
2.03,14,3,1
0.97,6,2,3
1.6,17,3,6
2.36,13,1,4
0,11,3,3
2.87,8,1,4
0.77,8,2,2
4.09,19,3,1
1.27,14.24,0.12,9.13
2.95,19,1,2
0,16,5,5
0,5,3,3
0.41,14.94,0.15,9.17
0.63,11,2,4
0,5,1,6
0,10,4,2
2.95,13.66,2.2,8.47
3.83,7,5,1
2.74,6,3,5
3.26,17,4,5
2.52,16,1,2
0.08,8,3,5
2.74,16,5,3
4.39,16,5,6
2.1,5,1,5
4.5,7,3,5
0.63,5,1,4
4.5,9,6,3
2.23,13.46,0.9,9.17
3.65,13.19,0.23,9.57
2.99,12.68,0.32,9.07
0.39,10,2,2
1.62,7,1,1
0,14.87,0.5,8.13
0,20,3,2
0,5,4,1
2.25,13,2,6
1.25,12.29,0.69,8.35
2.84,16.24,0.41,9.12
3.07,13.18,0.53,9.32
2.25,15,2,6
3.87,8,3,3
1.36,5,5,3
4.5,15,3,1
1.91,9,5,2
4.5,9,2,7
0.42,16.42,0.61,9.08
2.81,17.11,1.85,8.84
4.29,15.59,0.63,9.07
2.36,10.65,0.1,10.3
2.99,12.54,0.19,9.79
4.5,12.9,0,9.82
1.66,12.65,0.05,9.75
0.65,12.42,0.25,10.15
2.03,12.84,0,9.55
4.15,13.25,0.6,9.54
2.2,19,2,3
1.56,14,2,4
2.12,15,1,6
0.61,5,4,2
4.5,8,4,3
4.5,18,4,1
3.19,5,2,6
3.79,9,5,5
4.5,11,3,1
4.5,15,2,6
1.09,15,2,6
4.4,17,5,4
1.3,11.49,0.19,9.47
1.1,12.52,0.19,9.2
1.36,12.24,0.06,9.42
0.79,13.02,0.17,9.22
3.09,9.66,0.04,13
0,13,2,4
0,8.24,0.22,9.7
0,8.38,0.6,9.76
0,8.79,0.12,10.16
0,8.57,0.2,10.34
0,9.34,0.16,9.76
0,8.69,0.07,9.67
0.82,13,3,1
1,5,3,6
1.39,5,5,1
1.52,14,2,3
0.78,16,4,3
1.09,12,5,2
0.4,11,3,5
0.48,13,4,2
0.36,12,2,1
1.19,13,3,3
0.15,17,5,1
0.27,12,4,1
4.5,15,2,6
4.5,5,5,2
3.58,17,2,4
4.5,5,4,2
3.04,16,1,5
4.36,17,2,2
2.2,10,2,1
4.5,7,4,4
0.27,19.58,7.76,7.09
0.02,16.47,7.71,8.66
0.01,17.11,1,8.96
0.19,17.01,0.7,8.55
3.41,14.83,1.53,9.68
2.84,13,5,4
2.9,16,1,1
3.43,6,1,1
3.71,6,1,4
2.64,14,3,1
0.5,5,1,2
0.89,10,5,6
0.75,19,5,1
0.85,5,1,4
0.17,11,5,5
0.6,17,5,6
4.5,10,1,1
4.4,13,2,2
4.49,5,2,1
4.5,9,3,2
1.66,12,2,7
1.66,8,2,7
2.37,8,3,2
2.63,15,1,5
3.2,18,4,7
1.77,15.67,5,9.17
3.53,17.09,2,8.51
0.16,19,2,6
4.5,6,5,5
0.05,5,5,4
2.16,9,5,6
1.09,10.01,0.45,9.79
0.22,9.91,0.84,9.83
0.17,9.86,0.95,9.76
0.76,9.87,0.32,9.34
1.06,14,2,7
3.16,11.81,0.69,9.41
1.11,11.42,0.35,9.73
0.66,11.31,0.39,9.8
2.49,11.25,0.3,9.83
3.32,11.44,0.42,9.21
3.38,15.56,0.63,9.61
1.32,15.03,1.49,9.46
3.16,14.68,1.08,9.84
2.78,14.99,0.68,9.26
1.64,6,4,4
2.36,10.81,0.18,10.19
1.05,14.34,0.26,9.45
0.15,14.28,0.19,9.6
0.73,13.92,0.26,9.64
2.13,12.94,0.24,9.97
1.46,13.77,0.1,9.5
0.49,18,2,1
0.04,7,2,6
0,12,5,5
1.39,15,2,1
0.4,19,2,4
1.87,9,1,4
0.68,9,1,2
0.07,5,5,6
0.86,9,1,5
4.5,12,2,5
12,13,1,2
4.5,10,4,1
1.54,6,2,4
1.15,5,3,2
0.23,12,4,5
1.34,10,5,1
0.78,12,2,2
2.79,5,5,3
3.18,8,2,4
3.13,16,2,1
4.5,14,2,1
1.07,5,5,7
0.13,11,2,2
2.37,14.12,2.1,9.26
4.5,6,5,3
1.43,9,1,4
2.37,7,5,2
1.53,5,5,4
4.5,18,2,5
3.77,7,5,2
0,17,2,3
4.34,14,3,3
4.33,14,4,1
2.19,19,3,3
2.15,15,3,6
2.04,5,5,6
4.01,13,4,5
2.31,6,3,2
1.47,5,2,4
2.88,7,3,5
3.54,8,5,6
2.52,5,1,3
1.84,5,5,7
0.38,10,5,5
0.74,5,3,5
0.06,18,1,1
0.16,17,3,5
0.79,11,4,5
0.07,13,2,2
0.68,18,4,7
0.37,18,3,3
0.16,5,1,7
1.26,19,5,7
0,8,5,3
0.44,17,4,5
1.68,5,5,2
1.44,7,3,2
2.59,16,4,2
2.23,15,4,4
2.64,8,4,5
0.2,8,1,2
2.24,18,1,1
0.76,11,2,6
0.15,18,5,2
0,18,2,3
1.1,8,4,4
1.38,10,5,6
4.5,5,4,4
1.43,5,2,3
0.92,5,5,2
2.46,10,1,7
0.27,13,5,5
0.82,5,5,6
4.5,19,2,1
4.5,15,1,6
4.06,16,1,2
3.35,5,1,1
4.5,8,5,2
1.36,5,4,4
1,15,3,7
2.64,5,1,4
4.5,18,3,6
0.1,18,4,1
0.22,5,2,4
4.5,10,5,5
3.3,13,1,2
0,15,1,6
1.5,8,3,1
4.5,8,4,6
2.9,7,4,7
2.32,15,2,6
1.43,15,1,3
0.27,11,4,2
2.69,14,2,2
1.16,19,4,3
0.42,12,3,1
2.44,15.85,0.57,9.01
4.34,8,2,3
4.5,6,2,4
4.5,16,1,4
0.85,16,5,1
3.32,9,2,5
3.16,12,5,3
0.21,7,4,3
0.18,5,4,3
3.59,5,2,5
1,16,5,5
4.5,13,5,6
0,5,1,7
4.5,5,4,4
4.5,8,3,6
1.7,15,1,4
1.14,5,3,1
4.5,10,2,5
0.82,15,4,1
0.24,14,1,2
2.95,16,1,4
1.71,17,1,6
0.93,17,3,3
1.14,8,2,1
0.77,5,5,7
0.68,5,3,1
0.15,19,1,3
0.48,5,5,5
0.14,5,2,2
0.42,16,3,1
2.49,19,2,4
1.86,14,4,1
4.5,17,4,2
4.5,15,2,4
3.29,14,3,4
2.37,5,6,4
4.5,5,2,4
0.45,12,1,3
1.06,19,4,4
2.43,6,2,5
1.35,11,2,3
1.26,15.87,0.17,9.2
3.08,5,1,4
4.39,5,5,4
4.08,10,3,1
1.76,17,3,6
4.5,6,1,7
3.69,18,4,1
4.13,5,4,5
2.38,5,1,5
1.85,8,1,1
0.68,10,3,5
4.5,5,1,6
2.56,7,5,1
4.5,5,5,1
4.5,8,4,4
4.2,9,5,4
0.45,11,1,3
4.5,6,1,2
2.64,12,4,3
2.35,11,3,5
1.53,14,3,6
4.19,6,1,6
4,16.16,2.03,8.94
4.5,5,1,1
3.41,5,4,1
4.5,13,2,1
1.57,5,5,5
4.5,8,1,6
3.13,5,3,3
2.34,16,3,2
3.81,17,2,2
1.29,15.99,1.93,8.92
1.82,16.1,1.59,9.06
2.33,15.49,1.12,9.6
1.45,5,2,6
2.66,6,3,3
1.09,8,3,4
2.12,8,3,4
3.85,7,3,6
2.75,8,3,6
4.5,14,4,6
