{
  "urn" : "local:amarquez:im.alice.spain:current_gepdel",
  "version" : "0.0.1",
  "adapterType" : "raster",
  "localPath" : "im.alice.spain/resources/current_gepdel.v0.0.1",
  "geometry" : "S2(1596,857){bbox=[-4.010455153126236 -3.293272759017053 43.05129908800859 43.4364026668003],proj=EPSG:4326}",
  "projectName" : "im.alice.spain",
  "localName" : "current_gepdel.tif",
  "type" : "NUMBER",
  "resourceTimestamp" : 1605879072931,
  "metadata" : { },
  "parameters" : {
    "nodata" : "-1.7976931348623157E308"
  },
  "localPaths" : [ "im.alice.spain/resources/current_gepdel.v0.0.1/current_gepdel.tfw", "im.alice.spain/resources/current_gepdel.v0.0.1/current_gepdel.tif.aux.xml", "im.alice.spain/resources/current_gepdel.v0.0.1/current_gepdel.tif", "im.alice.spain/resources/current_gepdel.v0.0.1/current_gepdel.tif.ovr" ],
  "history" : [ ],
  "notifications" : [ ],
  "attributes" : [ ],
  "spatialExtent" : {
    "east" : -3.293272759017053,
    "west" : -4.010455153126236,
    "north" : 43.4364026668003,
    "south" : 43.05129908800859,
    "gridResolution" : null,
    "gridUnit" : null
  },
  "dependencies" : null,
  "outputs" : null,
  "exportFormats" : {
    "tiff" : "GeoTiff"
  }
}