{
  "urn" : "local:amarquez:im.alice.spain:divaqua.rad_year",
  "version" : "0.0.1",
  "adapterType" : "wcs",
  "localPath" : "im.alice.spain/resources/divaqua.rad_year",
  "geometry" : "S2(10019,5889){bbox=[286241.1756405738 386441.1756405738 4760949.999999999 4819849.999999999],proj=EPSG:25830}",
  "projectName" : "im.alice.spain",
  "localName" : "divaqua.rad_year",
  "type" : "NUMBER",
  "resourceTimestamp" : 1652688914073,
  "metadata" : { },
  "parameters" : {
    "wcsIdentifier" : "divaqua__rad_year",
    "transform" : "",
    "serviceUrl" : "http://192.168.250.122:8600/geoserver/divaqua/wcs",
    "nodata" : "-3.4028234663852886E38",
    "wcsVersion" : "2.0.1"
  },
  "localPaths" : [ ],
  "history" : [ ],
  "notifications" : [ ],
  "attributes" : [ ],
  "spatialExtent" : {
    "east" : -4.3930431727790795,
    "west" : -5.64407297137671,
    "north" : 43.522957017922856,
    "south" : 42.97119302829634,
    "gridResolution" : null,
    "gridUnit" : null
  },
  "dependencies" : null,
  "outputs" : null,
  "categorizables" : [ ],
  "codelists" : [ ],
  "availability" : null,
  "exportFormats" : { }
}