{
  "urn" : "local:stefano.balbi:alice.sandbox:bn.estuarine.species2",
  "version" : "0.0.1",
  "adapterType" : "weka",
  "localPath" : "im.alice.spain/resources/bn.estuarine.species2",
  "geometry" : "T1(1){ttype=INITIALIZATION}S2(730,367){bbox=[-4.583249416269888 -3.2355220108884852 43.08433862829952 43.579093388681514],proj=EPSG:4326,shape=00000000030000000100000005C009E2595D32089A40458ACB9BB12B00C012553F55C1293A40458ACB9BB12B00C012553F55C1293A4045CA1FBB6EDBC4C009E2595D32089A4045CA1FBB6EDBC4C009E2595D32089A40458ACB9BB12B00}",
  "projectName" : "im.alice.spain",
  "localName" : "bn.estuarine.species2",
  "type" : "NUMBER",
  "resourceTimestamp" : 1605095350389,
  "metadata" : { },
  "parameters" : {
    "predicted.range" : "[3.0,168.0]",
    "predictor.water_volume_during_summer.discretizer.cutpoints" : "[2.0, 4.0]",
    "submitNodata" : "true",
    "predictor.volume_of_estuary_site.range" : "[0.0,300.0]",
    "classifier.file" : "classifier3256309172671678982.bin",
    "instances.file.raw" : "rawinstances1263623682895835539.arff",
    "predicted.index" : "1",
    "predictor.volume_of_estuary_site.discretizer" : "weka.filters.unsupervised.attribute.Discretize",
    "predictor.volume_of_estuary_site.discretizer.options" : "-R 2  -B 3 -Y",
    "classifier" : "weka.classifiers.bayes.BayesNet",
    "predictor.water_volume_during_summer.index" : "3",
    "predicted.discretizer.options" : "-R 1  -B 3 -Y",
    "model" : "ml.estuarine.value-of-benthic-richness-within-reach-learner",
    "predictor.water_volume_during_summer.discretizer" : "weka.filters.unsupervised.attribute.Discretize",
    "classifier.options" : " -Q weka.classifiers.bayes.net.search.local.K2 -- -P 1 -E weka.classifiers.bayes.net.estimate.SimpleEstimator -- -A 1.0",
    "predicted.discretizer" : "weka.filters.unsupervised.attribute.Discretize",
    "predicted.name" : "value_of_benthic_richness_of_reach",
    "instances.file" : "instances2634992187018104892.arff",
    "predictor.water_volume_during_summer.range" : "[0.0,6.0]",
    "predicted.discretizer.file" : "d_value_of_benthic_richness_of_reach8142967537298755269.bin",
    "predictor.water_volume_during_summer.discretizer.file" : "d_water_volume_during_summer8221271962119241007.bin",
    "classifier.probabilistic" : "true",
    "predictor.volume_of_estuary_site.discretizer.file" : "d_volume_of_estuary_site4841516450099818594.bin",
    "predictor.water_volume_during_summer.discretizer.options" : "-R 3  -B 3 -Y",
    "wekaVersion" : "3.8.3",
    "predictor.volume_of_estuary_site.discretizer.cutpoints" : "[100.0, 200.0]",
    "predictor.volume_of_estuary_site.index" : "2",
    "predicted.discretizer.cutpoints" : "[58.0, 113.0]"
  },
  "localPaths" : [ "im.alice.spain\\resources/bn.estuarine.species2/d_value_of_benthic_richness_of_reach8142967537298755269.bin", "im.alice.spain\\resources/bn.estuarine.species2/d_volume_of_estuary_site4841516450099818594.bin", "im.alice.spain\\resources/bn.estuarine.species2/d_water_volume_during_summer8221271962119241007.bin", "im.alice.spain\\resources/bn.estuarine.species2/instances2634992187018104892.arff", "im.alice.spain\\resources/bn.estuarine.species2/rawinstances1263623682895835539.arff", "im.alice.spain\\resources/bn.estuarine.species2/classifier3256309172671678982.bin" ],
  "history" : [ ],
  "notifications" : [ ],
  "attributes" : [ ],
  "spatialExtent" : null,
  "dependencies" : [ {
    "name" : "volume_of_estuary_site",
    "type" : "NUMBER",
    "key" : true,
    "optional" : true,
    "exampleValue" : null
  }, {
    "name" : "water_volume_during_summer",
    "type" : "NUMBER",
    "key" : true,
    "optional" : true,
    "exampleValue" : null
  } ],
  "outputs" : null,
  "exportFormats" : {
    "bif" : "BIF bayesian network (.bif)",
    "xdsl" : "GENIE bayesian network (.xdsl)",
    "arff" : "Training dataset (ARFF)",
    "arff#raw" : "Raw training dataset (ARFF)",
    "model" : "WEKA Classifier (.model)",
    "model#predicted" : "WEKA discretizer for the predicted variable (.model)",
    "model#volume_of_estuary_site" : "WEKA Discretizer for Volume of estuary site (.model)",
    "model#water_volume_during_summer" : "WEKA Discretizer for Water volume during summer (.model)"
  }
}