{
  "urn" : "local:stefano.balbi:im.alice.spain:futureBAU_Flow_WSA",
  "version" : "0.0.1",
  "adapterType" : "raster",
  "localPath" : "im.alice.spain/resources/futureBAU_Flow_WSA.v0.0.1",
  "geometry" : "S2(932,279){bbox=[419695.0000006325 466295.0000006325 4798744.986400296 4812694.986400296],proj=EPSG:32630}",
  "projectName" : "im.alice.spain",
  "localName" : "futureBAU_Flow_WSA.tif",
  "type" : "NUMBER",
  "resourceTimestamp" : 1605624643461,
  "metadata" : { },
  "parameters" : {
    "nodata" : "-1.7976931348623157E308"
  },
  "localPaths" : "im.alice.spain/resources/futureBAU_Flow_WSA.v0.0.1/futureBAU_Flow_WSA.tif",
  "history" : [ ],
  "notifications" : [ ],
  "attributes" : [ ],
  "spatialExtent" : {
    "east" : -3.415821209162105,
    "west" : -3.9927177267810796,
    "north" : 43.46640748951318,
    "south" : 43.33726403018028,
    "gridResolution" : null,
    "gridUnit" : null
  },
  "dependencies" : null,
  "outputs" : null,
  "exportFormats" : {
    "tiff" : "GeoTiff"
  }
}