{
  "urn" : "local:stefano.balbi:alice.sandbox:bn.status.ms.ohc.simple",
  "version" : "0.0.1",
  "adapterType" : "weka",
  "localPath" : "im.alice.spain/resources/bn.status.ms.ohc.simple",
  "geometry" : "τ1(1){period=[1.5917472E12 1.6232832E12],tscope=1.0,ttype=LOGICAL,tunit=YEAR}S2(435,209){bbox=[-7.2678002102039105 -0.864172133118521 41.94982503059123 44.231589472653155],proj=EPSG:4326,shape=00000000030000000100000005C01D123A37E2C03A4044F993DDD9A7E0BFEBA74C513B79B44044F993DDD9A7E0BFEBA74C513B79B440461DA4B94D9254C01D123A37E2C03A40461DA4B94D9254C01D123A37E2C03A4044F993DDD9A7E0}",
  "projectName" : "im.alice.spain",
  "localName" : "bn.status.ms.ohc.simple",
  "type" : "NUMBER",
  "resourceTimestamp" : 1591807900781,
  "metadata" : { },
  "parameters" : {
    "predicted.range" : "[0.0,15.0]",
    "predictor.water_temperature_during_summer.discretizer.file" : "d_water_temperature_during_summer8470332223280292921.bin",
    "submitNodata" : "true",
    "classifier.file" : "classifier575036663827867482.bin",
    "predictor.riparian_broadleaf_forest_proportion_area_of_watershed.discretizer.cutpoints" : "[0.33, 0.66]",
    "predictor.nitrate_mass_to_water_volume_ratio.index" : "2",
    "predictor.solid_suspension_mass_to_water_volume_ratio.discretizer.cutpoints" : "[25.0, 50.0]",
    "instances.file.raw" : "rawinstances8801061900543996236.arff",
    "predictor.solid_suspension_mass_to_water_volume_ratio.index" : "3",
    "predictor.nitrate_mass_to_water_volume_ratio.discretizer.options" : "-R 2  -B 3 -Y",
    "predicted.index" : "1",
    "predictor.riparian_broadleaf_forest_proportion_area_of_watershed.discretizer" : "weka.filters.unsupervised.attribute.Discretize",
    "classifier" : "weka.classifiers.bayes.BayesNet",
    "predictor.riparian_broadleaf_forest_proportion_area_of_watershed.discretizer.options" : "-R 5  -B 3 -Y",
    "predicted.discretizer.options" : "-R 1  -B 3 -Y",
    "model" : "ml.diversity.proportion-of-moderately-sensitive-ohc-in-count-of-macro-invertebrate-individual-within-reach-learner",
    "classifier.options" : " -Q weka.classifiers.bayes.net.search.local.K2 -- -P 1 -E weka.classifiers.bayes.net.estimate.SimpleEstimator -- -A 1.0",
    "predictor.water_temperature_during_summer.range" : "[5.0,23.0]",
    "predicted.discretizer" : "weka.filters.unsupervised.attribute.Discretize",
    "predictor.nitrate_mass_to_water_volume_ratio.discretizer" : "weka.filters.unsupervised.attribute.Discretize",
    "predicted.name" : "moderately_sensitive_ohc_proportion_macro_invertebrate_individual_count_of_reach",
    "predictor.nitrate_mass_to_water_volume_ratio.discretizer.cutpoints" : "[5.0, 10.0]",
    "instances.file" : "instances6499480768841079162.arff",
    "predictor.riparian_broadleaf_forest_proportion_area_of_watershed.index" : "5",
    "predicted.discretizer.file" : "d_moderately_sensitive_ohc_proportion_macro_invertebrate_individual_count_of_reach1617039008061342646.bin",
    "predictor.solid_suspension_mass_to_water_volume_ratio.discretizer" : "weka.filters.unsupervised.attribute.Discretize",
    "classifier.probabilistic" : "true",
    "predictor.water_temperature_during_summer.discretizer" : "weka.filters.unsupervised.attribute.Discretize",
    "predictor.nitrate_mass_to_water_volume_ratio.range" : "[0.0,15.0]",
    "predictor.riparian_broadleaf_forest_proportion_area_of_watershed.range" : "[0.0,0.99]",
    "predictor.riparian_broadleaf_forest_proportion_area_of_watershed.discretizer.file" : "d_riparian_broadleaf_forest_proportion_area_of_watershed8761017401599380999.bin",
    "predictor.water_temperature_during_summer.discretizer.cutpoints" : "[11.0, 17.0]",
    "predictor.solid_suspension_mass_to_water_volume_ratio.range" : "[0.0,75.0]",
    "predictor.solid_suspension_mass_to_water_volume_ratio.discretizer.options" : "-R 3  -B 3 -Y",
    "predictor.water_temperature_during_summer.discretizer.options" : "-R 4  -B 3 -Y",
    "wekaVersion" : "3.8.3",
    "predictor.nitrate_mass_to_water_volume_ratio.discretizer.file" : "d_nitrate_mass_to_water_volume_ratio4584552101093722514.bin",
    "predicted.discretizer.cutpoints" : "[5.0, 10.0]",
    "predictor.water_temperature_during_summer.index" : "4",
    "predictor.solid_suspension_mass_to_water_volume_ratio.discretizer.file" : "d_solid_suspension_mass_to_water_volume_ratio7983247429312462746.bin"
  },
  "localPaths" : [ "im.alice.spain\\resources/bn.status.ms.ohc.simple/d_moderately_sensitive_ohc_proportion_macro_invertebrate_individual_count_of_reach1617039008061342646.bin", "im.alice.spain\\resources/bn.status.ms.ohc.simple/d_nitrate_mass_to_water_volume_ratio4584552101093722514.bin", "im.alice.spain\\resources/bn.status.ms.ohc.simple/d_solid_suspension_mass_to_water_volume_ratio7983247429312462746.bin", "im.alice.spain\\resources/bn.status.ms.ohc.simple/d_water_temperature_during_summer8470332223280292921.bin", "im.alice.spain\\resources/bn.status.ms.ohc.simple/d_riparian_broadleaf_forest_proportion_area_of_watershed8761017401599380999.bin", "im.alice.spain\\resources/bn.status.ms.ohc.simple/instances6499480768841079162.arff", "im.alice.spain\\resources/bn.status.ms.ohc.simple/rawinstances8801061900543996236.arff", "im.alice.spain\\resources/bn.status.ms.ohc.simple/classifier575036663827867482.bin" ],
  "history" : [ ],
  "notifications" : [ ],
  "attributes" : [ ],
  "spatialExtent" : null,
  "dependencies" : [ {
    "name" : "nitrate_mass_to_water_volume_ratio",
    "type" : "NUMBER",
    "key" : true,
    "optional" : true,
    "exampleValue" : null
  }, {
    "name" : "solid_suspension_mass_to_water_volume_ratio",
    "type" : "NUMBER",
    "key" : true,
    "optional" : true,
    "exampleValue" : null
  }, {
    "name" : "water_temperature_during_summer",
    "type" : "NUMBER",
    "key" : true,
    "optional" : true,
    "exampleValue" : null
  }, {
    "name" : "riparian_broadleaf_forest_proportion_area_of_watershed",
    "type" : "NUMBER",
    "key" : true,
    "optional" : true,
    "exampleValue" : null
  } ],
  "outputs" : null,
  "exportFormats" : {
    "bif" : "BIF bayesian network (.bif)",
    "xdsl" : "GENIE bayesian network (.xdsl)",
    "arff" : "Training dataset (ARFF)",
    "arff#raw" : "Raw training dataset (ARFF)",
    "model" : "WEKA Classifier (.model)",
    "model#predicted" : "WEKA discretizer for the predicted variable (.model)",
    "model#nitrate_mass_to_water_volume_ratio" : "WEKA Discretizer for Nitrate mass to water volume ratio (.model)",
    "model#solid_suspension_mass_to_water_volume_ratio" : "WEKA Discretizer for Solid suspension mass to water volume ratio (.model)",
    "model#water_temperature_during_summer" : "WEKA Discretizer for Water temperature during summer (.model)",
    "model#riparian_broadleaf_forest_proportion_area_of_watershed" : "WEKA Discretizer for Riparian broadleaf forest proportion area of watershed (.model)"
  }
}