{
  "urn" : "local:stefano.balbi:alice.sandbox:bn.no3.load.high.simple",
  "version" : "0.0.1",
  "adapterType" : "weka",
  "localPath" : "im.alice.spain/resources/bn.no3.load.high.simple",
  "geometry" : "τ1(1){period=[1.5939936E12 1.6255296E12],tscope=1.0,ttype=LOGICAL,tunit=YEAR}S2(549,268){bbox=[-3.692287430765901 -3.184854176624347 43.247776734353636 43.42788853615184],proj=EPSG:4326,shape=00000000030000000100000005C00D89CDFE14923F40459FB725E56118C0097A94D3990B6D40459FB725E56118C0097A94D3990B6D4045B6C50D328D80C00D89CDFE14923F4045B6C50D328D80C00D89CDFE14923F40459FB725E56118}",
  "projectName" : "im.alice.spain",
  "localName" : "bn.no3.load.high.simple",
  "type" : "NUMBER",
  "resourceTimestamp" : 1594056680420,
  "metadata" : { },
  "parameters" : {
    "predicted.range" : "[0.0,600000.0]",
    "predictor.high_stream_flow_event_count.discretizer.options" : "-R 5  -B 3 -Y",
    "submitNodata" : "true",
    "predictor.broadleaf_forest_proportion_area_of_watershed.range" : "[0.0,1.0]",
    "classifier.file" : "classifier5935773537331822595.bin",
    "predictor.high_stream_flow_event_count.range" : "[0.0,11.5]",
    "predictor.riparian_broadleaf_forest_proportion_area_of_watershed.discretizer.cutpoints" : "[0.3333333333333333, 0.6666666666666666]",
    "instances.file.raw" : "rawinstances5901193064610919002.arff",
    "predicted.index" : "1",
    "predictor.high_stream_flow_event_count.index" : "5",
    "predictor.area_of_watershed.discretizer" : "weka.filters.unsupervised.attribute.Discretize",
    "predictor.riparian_broadleaf_forest_proportion_area_of_watershed.discretizer" : "weka.filters.unsupervised.attribute.Discretize",
    "classifier" : "weka.classifiers.bayes.BayesNet",
    "predictor.area_of_watershed.range" : "[0.0,750.0]",
    "predictor.riparian_broadleaf_forest_proportion_area_of_watershed.discretizer.options" : "-R 3  -B 3 -Y",
    "predicted.discretizer.options" : "-R 1  -B 3 -Y",
    "predictor.broadleaf_forest_proportion_area_of_watershed.discretizer" : "weka.filters.unsupervised.attribute.Discretize",
    "model" : "ml.waterq.high.ratio-of-nitrate-mass-during-winter-to-area-of-watershed-within-reach-learner",
    "classifier.options" : " -Q weka.classifiers.bayes.net.search.local.K2 -- -P 1 -E weka.classifiers.bayes.net.estimate.SimpleEstimator -- -A 1.0",
    "predicted.discretizer" : "weka.filters.unsupervised.attribute.Discretize",
    "predicted.name" : "nitrate_mass_during_winter_to_area_of_watershed_ratio_of_reach",
    "predictor.area_of_watershed.discretizer.cutpoints" : "[250.0, 500.0]",
    "instances.file" : "instances4688347546255167505.arff",
    "predictor.broadleaf_forest_proportion_area_of_watershed.discretizer.file" : "d_broadleaf_forest_proportion_area_of_watershed7800678003331257881.bin",
    "predictor.broadleaf_forest_proportion_area_of_watershed.discretizer.options" : "-R 4  -B 3 -Y",
    "predictor.riparian_broadleaf_forest_proportion_area_of_watershed.index" : "3",
    "predictor.high_stream_flow_event_count.discretizer.file" : "d_high_stream_flow_event_count2081623968765013658.bin",
    "predicted.discretizer.file" : "d_nitrate_mass_during_winter_to_area_of_watershed_ratio_of_reach5286351245361118596.bin",
    "predictor.area_of_watershed.discretizer.file" : "d_area_of_watershed5810365989801029554.bin",
    "classifier.probabilistic" : "true",
    "predictor.riparian_broadleaf_forest_proportion_area_of_watershed.range" : "[0.0,1.0]",
    "predictor.riparian_broadleaf_forest_proportion_area_of_watershed.discretizer.file" : "d_riparian_broadleaf_forest_proportion_area_of_watershed2972999172646695693.bin",
    "predictor.high_stream_flow_event_count.discretizer" : "weka.filters.unsupervised.attribute.Discretize",
    "predictor.broadleaf_forest_proportion_area_of_watershed.discretizer.cutpoints" : "[0.3333333333333333, 0.6666666666666666]",
    "predictor.high_stream_flow_event_count.discretizer.cutpoints" : "[3.8333333333333335, 7.666666666666667]",
    "wekaVersion" : "3.8.3",
    "predictor.area_of_watershed.index" : "2",
    "predictor.area_of_watershed.discretizer.options" : "-R 2  -B 3 -Y",
    "predictor.broadleaf_forest_proportion_area_of_watershed.index" : "4",
    "predicted.discretizer.cutpoints" : "[200000.0, 400000.0]"
  },
  "localPaths" : [ "im.alice.spain\\resources/bn.no3.load.high.simple/d_nitrate_mass_during_winter_to_area_of_watershed_ratio_of_reach5286351245361118596.bin", "im.alice.spain\\resources/bn.no3.load.high.simple/d_area_of_watershed5810365989801029554.bin", "im.alice.spain\\resources/bn.no3.load.high.simple/d_riparian_broadleaf_forest_proportion_area_of_watershed2972999172646695693.bin", "im.alice.spain\\resources/bn.no3.load.high.simple/d_broadleaf_forest_proportion_area_of_watershed7800678003331257881.bin", "im.alice.spain\\resources/bn.no3.load.high.simple/d_high_stream_flow_event_count2081623968765013658.bin", "im.alice.spain\\resources/bn.no3.load.high.simple/instances4688347546255167505.arff", "im.alice.spain\\resources/bn.no3.load.high.simple/rawinstances5901193064610919002.arff", "im.alice.spain\\resources/bn.no3.load.high.simple/classifier5935773537331822595.bin" ],
  "history" : [ ],
  "notifications" : [ ],
  "attributes" : [ ],
  "spatialExtent" : null,
  "dependencies" : [ {
    "name" : "area_of_watershed",
    "type" : "NUMBER",
    "key" : true,
    "optional" : true,
    "exampleValue" : null
  }, {
    "name" : "riparian_broadleaf_forest_proportion_area_of_watershed",
    "type" : "NUMBER",
    "key" : true,
    "optional" : true,
    "exampleValue" : null
  }, {
    "name" : "broadleaf_forest_proportion_area_of_watershed",
    "type" : "NUMBER",
    "key" : true,
    "optional" : true,
    "exampleValue" : null
  }, {
    "name" : "high_stream_flow_event_count",
    "type" : "NUMBER",
    "key" : true,
    "optional" : true,
    "exampleValue" : null
  } ],
  "outputs" : null,
  "exportFormats" : {
    "bif" : "BIF bayesian network (.bif)",
    "xdsl" : "GENIE bayesian network (.xdsl)",
    "arff" : "Training dataset (ARFF)",
    "arff#raw" : "Raw training dataset (ARFF)",
    "model" : "WEKA Classifier (.model)",
    "model#predicted" : "WEKA discretizer for the predicted variable (.model)",
    "model#area_of_watershed" : "WEKA Discretizer for Area of watershed (.model)",
    "model#riparian_broadleaf_forest_proportion_area_of_watershed" : "WEKA Discretizer for Riparian broadleaf forest proportion area of watershed (.model)",
    "model#broadleaf_forest_proportion_area_of_watershed" : "WEKA Discretizer for Broadleaf forest proportion area of watershed (.model)",
    "model#high_stream_flow_event_count" : "WEKA Discretizer for High stream flow event count (.model)"
  }
}